src/vcds/simulation9.vcd
$version Generated by Wokwi.com $end
$date Thu, 18 Jun 2026 21:20:56 GMT $end
$timescale 1ns $end
$scope module logic $end
$var wire 1 ! D0 $end
$var wire 1 " D1 $end
$var wire 1 # D2 $end
$var wire 1 $ D3 $end
$var wire 1 % D4 $end
$var wire 1 & D5 $end
$upscope $end
$enddefinitions $end
#0
1!
#0
1"
#0
1#
#0
0$
#0
0%
#0
1&
#2393812715
0!
#2394943615
0"
#2396095315
0#
#2397104252
1$
#2397117169
0$
#2399530852
0&
#2401625677
1&
#2403673615
0&
#2410753677
1&
#2412367677
0&
#2417209677
1&
#2418526677
0&
#2422477677
1&
#2423618677
0&
#2427041677
1&
#2429083677
0&
#2431125677
1&
#2432988677
0&
#2434851677
1&
#2436576677
0&
#2438301677
1&
#2439915677
0&
#2441529677
1&
#2443052677
0&
#2444575677
1&
#2446019677
0&
#2447463677
1&
#2448841677
0&
#2450219677
1&
#2451536677
0&
#2452853677
1&
#2454120677
0&
#2455387677
1&
#2456607677
0&
#2457827677
1&
#2459006677
0&
#2460185677
1&
#2461326677
0&
#2462467677
1&
#2463575677
0&
#2464683677
1&
#2465760677
0&
#2466837677
1&
#2467885677
0&
#2468933677
1&
#2469954677
0&
#2470975677
1&
#2471972177
0&
#2472968677
1&
#2473942677
0&
#2474916677
1&
#2475868677
0&
#2476820677
1&
#2477752177
0&
#2478683677
1&
#2479596677
0&
#2480509677
1&
#2481405677
0&
#2482301677
1&
#2483180677
0&
#2484059677
1&
#2484922177
0&
#2485784677
1&
#2486631677
0&
#2487478677
1&
#2488312177
0&
#2489145677
1&
#2489965677
0&
#2490785677
1&
#2491592677
0&
#2492399677
1&
#2493194677
0&
#2493989677
1&
#2494772677
0&
#2495555677
1&
#2496327177
0&
#2497098677
1&
#2497860177
0&
#2498621677
1&
#2499372677
0&
#2500123677
1&
#2500864677
0&
#2501605677
1&
#2502336677
0&
#2503067677
1&
#2503789677
0&
#2504511677
1&
#2505225177
0&
#2505938677
1&
#2506643177
0&
#2507347677
1&
#2508044177
0&
#2508740677
1&
#2509429677
0&
#2510118677
1&
#2510799177
0&
#2511479677
1&
#2512152677
0&
#2512825677
1&
#2513491677
0&
#2514157677
1&
#2514816177
0&
#2515474677
1&
#2516127177
0&
#2516779677
1&
#2517425177
0&
#2518070677
1&
#2518710177
0&
#2519349677
1&
#2519983177
0&
#2520616677
1&
#2521244177
0&
#2521871677
1&
#2522493177
0&
#2523114677
1&
#2523730177
0&
#2524345677
1&
#2524955677
0&
#2525565677
1&
#2526170677
0&
#2526775677
1&
#2527374677
0&
#2527973677
1&
#2528567677
0&
#2529161677
1&
#2529751177
0&
#2530340677
1&
#2530925177
0&
#2531509677
1&
#2532089677
0&
#2532669677
1&
#2533244677
0&
#2533819677
1&
#2534390177
0&
#2534960677
1&
#2535526677
0&
#2536092677
1&
#2536655177
0&
#2537217677
1&
#2537775677
0&
#2538333677
1&
#2538887677
0&
#2539441677
1&
#2539991177
0&
#2540540677
1&
#2541086677
0&
#2541632677
1&
#2542174677
0&
#2542716677
1&
#2543255177
0&
#2543793677
1&
#2544328177
0&
#2544862677
1&
#2545394177
0&
#2545925677
1&
#2546453177
0&
#2546980677
1&
#2547504677
0&
#2548028677
1&
#2548549177
0&
#2549069677
1&
#2549586677
0&
#2550103677
1&
#2550617177
0&
#2551130677
1&
#2551641177
0&
#2552151677
1&
#2552658927
0&
#2553166177
1&
#2553670677
0&
#2554175177
1&
#2554676177
0&
#2555177177
1&
#2555675427
0&
#2556173677
1&
#2556665927
0&
#2557158177
1&
#2557650427
0&
#2558142677
1&
#2558629677
0&
#2559116677
1&
#2559603677
0&
#2560090677
1&
#2560571677
0&
#2561052677
1&
#2561533677
0&
#2562014677
1&
#2562490677
0&
#2562966677
1&
#2563442677
0&
#2563918677
1&
#2564389427
0&
#2564860177
1&
#2565330927
0&
#2565801677
1&
#2566267427
0&
#2566733177
1&
#2567198927
0&
#2567664677
1&
#2568126177
0&
#2568587677
1&
#2569049177
0&
#2569510677
1&
#2569967177
0&
#2570423677
1&
#2570880177
0&
#2571336677
1&
#2571788677
0&
#2572240677
1&
#2572692677
0&
#2573144677
1&
#2573592677
0&
#2574040677
1&
#2574488677
0&
#2574936677
1&
#2575380177
0&
#2575823677
1&
#2576267177
0&
#2576710677
1&
#2577150177
0&
#2577589677
1&
#2578029177
0&
#2578468677
1&
#2578903927
0&
#2579339177
1&
#2579774427
0&
#2580209677
1&
#2580640927
0&
#2581072177
1&
#2581503427
0&
#2581934677
1&
#2582362427
0&
#2582790177
1&
#2583217927
0&
#2583645677
1&
#2584069177
0&
#2584492677
1&
#2584916177
0&
#2585339677
1&
#2585759927
0&
#2586180177
1&
#2586600427
0&
#2587020677
1&
#2587437427
0&
#2587854177
1&
#2588270927
0&
#2588687677
1&
#2589101177
0&
#2589514677
1&
#2589928177
0&
#2590341677
1&
#2590751677
0&
#2591161677
1&
#2591571677
0&
#2591981677
1&
#2592388427
0&
#2592795177
1&
#2593201927
0&
#2593608677
1&
#2594012177
0&
#2594415677
1&
#2594819177
0&
#2595222677
1&
#2595622927
0&
#2596023177
1&
#2596423427
0&
#2596823677
1&
#2597221177
0&
#2597618677
1&
#2598016177
0&
#2598413677
1&
#2598807927
0&
#2599202177
1&
#2599596427
0&
#2599990677
1&
#2600382177
0&
#2600773677
1&
#2601165177
0&
#2601556677
1&
#2601945177
0&
#2602333677
1&
#2602722177
0&
#2603110677
1&
#2603496427
0&
#2603882177
1&
#2604267927
0&
#2604653677
1&
#2605036927
0&
#2605420177
1&
#2605803427
0&
#2606186677
1&
#2606567427
0&
#2606948177
1&
#2607328927
0&
#2607709677
1&
#2608087677
0&
#2608465677
1&
#2608843677
0&
#2609221677
1&
#2609597177
0&
#2609972677
1&
#2610348177
0&
#2610723677
1&
#2611096677
0&
#2611469677
1&
#2611842677
0&
#2612215677
1&
#2612586177
0&
#2612956677
1&
#2613327177
0&
#2613697677
1&
#2614065677
0&
#2614433677
1&
#2614801677
0&
#2615169677
1&
#2615535177
0&
#2615900677
1&
#2616266177
0&
#2616631677
1&
#2616994677
0&
#2617357677
1&
#2617720677
0&
#2618083677
1&
#2618444677
0&
#2618805677
1&
#2619166677
0&
#2619527677
1&
#2619886427
0&
#2620245177
1&
#2620603927
0&
#2620962677
1&
#2621319427
0&
#2621676177
1&
#2622032927
0&
#2622389677
1&
#2622743927
0&
#2623098177
1&
#2623452427
0&
#2623806677
1&
#2624158927
0&
#2624511177
1&
#2624863427
0&
#2625215677
1&
#2625565677
0&
#2625915677
1&
#2626265677
0&
#2626615677
1&
#2626963927
0&
#2627312177
1&
#2627660427
0&
#2628008677
1&
#2628354927
0&
#2628701177
1&
#2629047427
0&
#2629393677
1&
#2629738177
0&
#2630082677
1&
#2630427177
0&
#2630771677
1&
#2631113677
0&
#2631455677
1&
#2631797677
0&
#2632139677
1&
#2632479927
0&
#2632820177
1&
#2633160427
0&
#2633500677
1&
#2633838927
0&
#2634177177
1&
#2634515427
0&
#2634853677
1&
#2635190177
0&
#2635526677
1&
#2635863177
0&
#2636199677
1&
#2636534427
0&
#2636869177
1&
#2637203927
0&
#2637538677
1&
#2637871677
0&
#2638204677
1&
#2638537677
0&
#2638870677
1&
#2639200927
0&
#2639531177
1&
#2639861427
0&
#2640191677
1&
#2640521927
0&
#2640852177
1&
#2641180177
0&
#2641508177
1&
#2641836177
0&
#2642164177
1&
#2642492177
0&
#2642820177
1&
#2643145677
0&
#2643471177
1&
#2643796677
0&
#2644122177
1&
#2644447677
0&
#2644773177
1&
#2645095927
0&
#2645418677
1&
#2645741427
0&
#2646064177
1&
#2646386927
0&
#2646709677
1&
#2647030177
0&
#2647350677
1&
#2647671177
0&
#2647991677
1&
#2648312177
0&
#2648632677
1&
#2648950677
0&
#2649268677
1&
#2649586677
0&
#2649904677
1&
#2650222677
0&
#2650540677
1&
#2650856427
0&
#2651172177
1&
#2651487927
0&
#2651803677
1&
#2652119427
0&
#2652435177
1&
#2652748927
0&
#2653062677
1&
#2653376427
0&
#2653690177
1&
#2654003927
0&
#2654317677
1&
#2654629177
0&
#2654940677
1&
#2655252177
0&
#2655563677
1&
#2655875177
0&
#2656186677
1&
#2656495677
0&
#2656804677
1&
#2657113677
0&
#2657422677
1&
#2657731677
0&
#2658040677
1&
#2658347677
0&
#2658654677
1&
#2658961677
0&
#2659268677
1&
#2659575677
0&
#2659882677
1&
#2660189677
0&
#2660496677
1&
#2660803677
0&
#2661110677
1&
#2661419677
0&
#2661728677
1&
#2662037677
0&
#2662346677
1&
#2662655677
0&
#2662964677
1&
#2663276177
0&
#2663587677
1&
#2663899177
0&
#2664210677
1&
#2664522177
0&
#2664833677
1&
#2665147427
0&
#2665461177
1&
#2665774927
0&
#2666088677
1&
#2666402427
0&
#2666716177
1&
#2667031927
0&
#2667347677
1&
#2667663427
0&
#2667979177
1&
#2668294927
0&
#2668610677
1&
#2668928677
0&
#2669246677
1&
#2669564677
0&
#2669882677
1&
#2670200677
0&
#2670518677
1&
#2670839177
0&
#2671159677
1&
#2671480177
0&
#2671800677
1&
#2672121177
0&
#2672441677
1&
#2672764427
0&
#2673087177
1&
#2673409927
0&
#2673732677
1&
#2674055427
0&
#2674378177
1&
#2674703677
0&
#2675029177
1&
#2675354677
0&
#2675680177
1&
#2676005677
0&
#2676331177
1&
#2676659177
0&
#2676987177
1&
#2677315177
0&
#2677643177
1&
#2677971177
0&
#2678299177
1&
#2678629427
0&
#2678959677
1&
#2679289927
0&
#2679620177
1&
#2679950427
0&
#2680280677
1&
#2680613677
0&
#2680946677
1&
#2681279677
0&
#2681612677
1&
#2681945677
0&
#2682278677
1&
#2682614177
0&
#2682949677
1&
#2683285177
0&
#2683620677
1&
#2683956177
0&
#2684291677
1&
#2684629177
0&
#2684966677
1&
#2685304177
0&
#2685641677
1&
#2685980927
0&
#2686320177
1&
#2686659427
0&
#2686998677
1&
#2687339677
0&
#2687680677
1&
#2688021677
0&
#2688362677
1&
#2688705677
0&
#2689048677
1&
#2689391677
0&
#2689734677
1&
#2690079927
0&
#2690425177
1&
#2690770427
0&
#2691115677
1&
#2691462927
0&
#2691810177
1&
#2692157427
0&
#2692504677
1&
#2692853677
0&
#2693202677
1&
#2693551677
0&
#2693900677
1&
#2694251677
0&
#2694602677
1&
#2694953677
0&
#2695304677
1&
#2695657927
0&
#2696011177
1&
#2696364427
0&
#2696717677
1&
#2697072927
0&
#2697428177
1&
#2697783427
0&
#2698138677
1&
#2698496427
0&
#2698854177
1&
#2699211927
0&
#2699569677
1&
#2699929177
0&
#2700288677
1&
#2700648177
0&
#2701007677
1&
#2701369677
0&
#2701731677
1&
#2702093677
0&
#2702455677
1&
#2702820177
0&
#2703184677
1&
#2703549177
0&
#2703913677
1&
#2704280177
0&
#2704646677
1&
#2705013177
0&
#2705379677
1&
#2705748677
0&
#2706117677
1&
#2706486677
0&
#2706855677
1&
#2707227177
0&
#2707598677
1&
#2707970177
0&
#2708341677
1&
#2708715677
0&
#2709089677
1&
#2709463677
0&
#2709837677
1&
#2710214177
0&
#2710590677
1&
#2710967177
0&
#2711343677
1&
#2711722677
0&
#2712101677
1&
#2712480677
0&
#2712859677
1&
#2713241427
0&
#2713623177
1&
#2714004927
0&
#2714386677
1&
#2714770927
0&
#2715155177
1&
#2715539427
0&
#2715923677
1&
#2716311177
0&
#2716698677
1&
#2717086177
0&
#2717473677
1&
#2717863677
0&
#2718253677
1&
#2718643677
0&
#2719033677
1&
#2719426427
0&
#2719819177
1&
#2720211927
0&
#2720604677
1&
#2721000677
0&
#2721396677
1&
#2721792677
0&
#2722188677
1&
#2722587677
0&
#2722986677
1&
#2723385677
0&
#2723784677
1&
#2724186427
0&
#2724588177
1&
#2724989927
0&
#2725391677
1&
#2725796927
0&
#2726202177
1&
#2726607427
0&
#2727012677
1&
#2727421177
0&
#2727829677
1&
#2728238177
0&
#2728646677
1&
#2729058427
0&
#2729470177
1&
#2729881927
0&
#2730293677
1&
#2730708927
0&
#2731124177
1&
#2731539427
0&
#2731954677
1&
#2732373177
0&
#2732791677
1&
#2733210177
0&
#2733628677
1&
#2734050677
0&
#2734472677
1&
#2734894677
0&
#2735316677
1&
#2735742677
0&
#2736168677
1&
#2736594677
0&
#2737020677
1&
#2737449927
0&
#2737879177
1&
#2738308427
0&
#2738737677
1&
#2739171177
0&
#2739604677
1&
#2740038177
0&
#2740471677
1&
#2740908677
0&
#2741345677
1&
#2741782677
0&
#2742219677
1&
#2742660927
0&
#2743102177
1&
#2743543427
0&
#2743984677
1&
#2744430177
0&
#2744875677
1&
#2745321177
0&
#2745766677
1&
#2746216177
0&
#2746665677
1&
#2747115177
0&
#2747564677
1&
#2748019177
0&
#2748473677
1&
#2748928177
0&
#2749382677
1&
#2749841677
0&
#2750300677
1&
#2750759677
0&
#2751218677
1&
#2751682677
0&
#2752146677
1&
#2752610677
0&
#2753074677
1&
#2753542927
0&
#2754011177
1&
#2754479427
0&
#2754947677
1&
#2755420927
0&
#2755894177
1&
#2756367427
0&
#2756840677
1&
#2757319177
0&
#2757797677
1&
#2758276177
0&
#2758754677
1&
#2759238427
0&
#2759722177
1&
#2760205927
0&
#2760689677
1&
#2761179427
0&
#2761669177
1&
#2762158927
0&
#2762648677
1&
#2763143677
0&
#2763638677
1&
#2764133677
0&
#2764628677
1&
#2765129677
0&
#2765630677
1&
#2766131677
0&
#2766632677
1&
#2767137177
0&
#2767641677
1&
#2768148927
0&
#2768656177
1&
#2769166677
0&
#2769677177
1&
#2770190677
0&
#2770704177
1&
#2771221177
0&
#2771738177
1&
#2772258677
0&
#2772779177
1&
#2773303177
0&
#2773827177
1&
#2774354677
0&
#2774882177
1&
#2775413677
0&
#2775945177
1&
#2776479677
0&
#2777014177
1&
#2777552677
0&
#2778091177
1&
#2778633177
0&
#2779175177
1&
#2779721177
0&
#2780267177
1&
#2780816677
0&
#2781366177
1&
#2781920177
0&
#2782474177
1&
#2783032177
0&
#2783590177
1&
#2784152677
0&
#2784715177
1&
#2785281177
0&
#2785847177
1&
#2786417677
0&
#2786988177
1&
#2787563177
0&
#2788138177
1&
#2788718177
0&
#2789298177
1&
#2789882677
0&
#2790467177
1&
#2791056677
0&
#2791646177
1&
#2792240177
0&
#2792834177
1&
#2793433177
0&
#2794032177
1&
#2794637177
0&
#2795242177
1&
#2795852177
0&
#2796462177
1&
#2797077677
0&
#2797693177
1&
#2798314677
0&
#2798936177
1&
#2799563677
0&
#2800191177
1&
#2800824677
0&
#2801458177
1&
#2802097677
0&
#2802737177
1&
#2803382677
0&
#2804028177
1&
#2804680677
0&
#2805333177
1&
#2805991677
0&
#2806650177
1&
#2807316177
0&
#2807982177
1&
#2808655177
0&
#2809328177
1&
#2810008677
0&
#2810689177
1&
#2811378177
0&
#2812067177
1&
#2812763677
0&
#2813460177
1&
#2814164677
0&
#2814869177
1&
#2815582677
0&
#2816296177
1&
#2817018177
0&
#2817740177
1&
#2818471177
0&
#2819202177
1&
#2819943177
0&
#2820684177
1&
#2821435177
0&
#2822186177
1&
#2822947677
0&
#2823709177
1&
#2824480677
0&
#2825252177
1&
#2826035177
0&
#2826818177
1&
#2827613177
0&
#2828408177
1&
#2829215177
0&
#2830022177
1&
#2830842177
0&
#2831662177
1&
#2832495677
0&
#2833329177
1&
#2834176177
0&
#2835023177
1&
#2835885677
0&
#2836748177
1&
#2837627177
0&
#2838506177
1&
#2839402177
0&
#2840298177
1&
#2841211177
0&
#2842124177
1&
#2843055677
0&
#2843987177
1&
#2844939177
0&
#2845891177
1&
#2846865177
0&
#2847839177
1&
#2848835677
0&
#2849832177
1&
#2850853177
0&
#2851874177
1&
#2852922177
0&
#2853970177
1&
#2855047177
0&
#2856124177
1&
#2857232177
0&
#2858340177
1&
#2859481177
0&
#2860622177
1&
#2861801177
0&
#2862980177
1&
#2864200177
0&
#2865420177
1&
#2866687177
0&
#2867954177
1&
#2869271177
0&
#2870588177
1&
#2871966177
0&
#2873344177
1&
#2874788177
0&
#2876232177
1&
#2877755177
0&
#2879278177
1&
#2880892177
0&
#2882506177
1&
#2884231177
0&
#2885956177
1&
#2887819177
0&
#2889682177
1&
#2891724177
0&
#2893766177
1&
#2894907177
0&
#2898330177
1&
#2899647177
0&
#2903598177
1&
#2905212177
0&
#2910054177
1&
#2912102115
0&
#2919182177
1&
#2921230115
0&
#2929525435
1&
#2931573373
0&
#2938653435
1&
#2940267435
0&
#2945109435
1&
#2946426435
0&
#2950377435
1&
#2951518435
0&
#2954941435
1&
#2956983435
0&
#2959025435
1&
#2960888435
0&
#2962751435
1&
#2964476435
0&
#2966201435
1&
#2967815435
0&
#2969429435
1&
#2970952435
0&
#2972475435
1&
#2973919435
0&
#2975363435
1&
#2976741435
0&
#2978119435
1&
#2979436435
0&
#2980753435
1&
#2982020435
0&
#2983287435
1&
#2984507435
0&
#2985727435
1&
#2986906435
0&
#2988085435
1&
#2989226435
0&
#2990367435
1&
#2991475435
0&
#2992583435
1&
#2993660435
0&
#2994737435
1&
#2995785435
0&
#2996833435
1&
#2997854435
0&
#2998875435
1&
#2999871935
0&
#3000868435
1&
#3001842435
0&
#3002816435
1&
#3003768435
0&
#3004720435
1&
#3005651935
0&
#3006583435
1&
#3007496435
0&
#3008409435
1&
#3009305435
0&
#3010201435
1&
#3011080435
0&
#3011959435
1&
#3012821935
0&
#3013684435
1&
#3014531435
0&
#3015378435
1&
#3016211935
0&
#3017045435
1&
#3017865435
0&
#3018685435
1&
#3019492435
0&
#3020299435
1&
#3021094435
0&
#3021889435
1&
#3022672435
0&
#3023455435
1&
#3024226935
0&
#3024998435
1&
#3025759935
0&
#3026521435
1&
#3027272435
0&
#3028023435
1&
#3028764435
0&
#3029505435
1&
#3030236435
0&
#3030967435
1&
#3031689435
0&
#3032411435
1&
#3033124935
0&
#3033838435
1&
#3034542935
0&
#3035247435
1&
#3035943935
0&
#3036640435
1&
#3037329435
0&
#3038018435
1&
#3038698935
0&
#3039379435
1&
#3040052435
0&
#3040725435
1&
#3041391435
0&
#3042057435
1&
#3042715935
0&
#3043374435
1&
#3044026935
0&
#3044679435
1&
#3045324935
0&
#3045970435
1&
#3046609935
0&
#3047249435
1&
#3047882935
0&
#3048516435
1&
#3049143935
0&
#3049771435
1&
#3050392935
0&
#3051014435
1&
#3051629935
0&
#3052245435
1&
#3052855435
0&
#3053465435
1&
#3054070435
0&
#3054675435
1&
#3055274435
0&
#3055873435
1&
#3056467435
0&
#3057061435
1&
#3057650935
0&
#3058240435
1&
#3058824935
0&
#3059409435
1&
#3059989435
0&
#3060569435
1&
#3061144435
0&
#3061719435
1&
#3062289935
0&
#3062860435
1&
#3063426435
0&
#3063992435
1&
#3064554935
0&
#3065117435
1&
#3065675435
0&
#3066233435
1&
#3066787435
0&
#3067341435
1&
#3067890935
0&
#3068440435
1&
#3068986435
0&
#3069532435
1&
#3070074435
0&
#3070616435
1&
#3071154935
0&
#3071693435
1&
#3072227935
0&
#3072762435
1&
#3073293935
0&
#3073825435
1&
#3074352935
0&
#3074880435
1&
#3075404435
0&
#3075928435
1&
#3076448935
0&
#3076969435
1&
#3077486435
0&
#3078003435
1&
#3078516935
0&
#3079030435
1&
#3079540935
0&
#3080051435
1&
#3080558685
0&
#3081065935
1&
#3081570435
0&
#3082074935
1&
#3082575935
0&
#3083076935
1&
#3083575185
0&
#3084073435
1&
#3084565685
0&
#3085057935
1&
#3085550185
0&
#3086042435
1&
#3086529435
0&
#3087016435
1&
#3087503435
0&
#3087990435
1&
#3088471435
0&
#3088952435
1&
#3089433435
0&
#3089914435
1&
#3090390435
0&
#3090866435
1&
#3091342435
0&
#3091818435
1&
#3092289185
0&
#3092759935
1&
#3093230685
0&
#3093701435
1&
#3094167185
0&
#3094632935
1&
#3095098685
0&
#3095564435
1&
#3096025935
0&
#3096487435
1&
#3096948935
0&
#3097410435
1&
#3097866935
0&
#3098323435
1&
#3098779935
0&
#3099236435
1&
#3099688435
0&
#3100140435
1&
#3100592435
0&
#3101044435
1&
#3101492435
0&
#3101940435
1&
#3102388435
0&
#3102836435
1&
#3103279935
0&
#3103723435
1&
#3104166935
0&
#3104610435
1&
#3105049935
0&
#3105489435
1&
#3105928935
0&
#3106368435
1&
#3106803685
0&
#3107238935
1&
#3107674185
0&
#3108109435
1&
#3108540685
0&
#3108971935
1&
#3109403185
0&
#3109834435
1&
#3110262185
0&
#3110689935
1&
#3111117685
0&
#3111545435
1&
#3111968935
0&
#3112392435
1&
#3112815935
0&
#3113239435
1&
#3113659685
0&
#3114079935
1&
#3114500185
0&
#3114920435
1&
#3115337185
0&
#3115753935
1&
#3116170685
0&
#3116587435
1&
#3117000935
0&
#3117414435
1&
#3117827935
0&
#3118241435
1&
#3118651435
0&
#3119061435
1&
#3119471435
0&
#3119881435
1&
#3120288185
0&
#3120694935
1&
#3121101685
0&
#3121508435
1&
#3121911935
0&
#3122315435
1&
#3122718935
0&
#3123122435
1&
#3123522685
0&
#3123922935
1&
#3124323185
0&
#3124723435
1&
#3125120935
0&
#3125518435
1&
#3125915935
0&
#3126313435
1&
#3126707685
0&
#3127101935
1&
#3127496185
0&
#3127890435
1&
#3128281935
0&
#3128673435
1&
#3129064935
0&
#3129456435
1&
#3129844935
0&
#3130233435
1&
#3130621935
0&
#3131010435
1&
#3131396185
0&
#3131781935
1&
#3132167685
0&
#3132553435
1&
#3132936685
0&
#3133319935
1&
#3133703185
0&
#3134086435
1&
#3134467185
0&
#3134847935
1&
#3135228685
0&
#3135609435
1&
#3135987435
0&
#3136365435
1&
#3136743435
0&
#3137121435
1&
#3137496935
0&
#3137872435
1&
#3138247935
0&
#3138623435
1&
#3138996435
0&
#3139369435
1&
#3139742435
0&
#3140115435
1&
#3140485935
0&
#3140856435
1&
#3141226935
0&
#3141597435
1&
#3141965435
0&
#3142333435
1&
#3142701435
0&
#3143069435
1&
#3143434935
0&
#3143800435
1&
#3144165935
0&
#3144531435
1&
#3144894435
0&
#3145257435
1&
#3145620435
0&
#3145983435
1&
#3146344435
0&
#3146705435
1&
#3147066435
0&
#3147427435
1&
#3147786185
0&
#3148144935
1&
#3148503685
0&
#3148862435
1&
#3149219185
0&
#3149575935
1&
#3149932685
0&
#3150289435
1&
#3150643685
0&
#3150997935
1&
#3151352185
0&
#3151706435
1&
#3152058685
0&
#3152410935
1&
#3152763185
0&
#3153115435
1&
#3153465435
0&
#3153815435
1&
#3154165435
0&
#3154515435
1&
#3154863685
0&
#3155211935
1&
#3155560185
0&
#3155908435
1&
#3156254685
0&
#3156600935
1&
#3156947185
0&
#3157293435
1&
#3157637935
0&
#3157982435
1&
#3158326935
0&
#3158671435
1&
#3159013435
0&
#3159355435
1&
#3159697435
0&
#3160039435
1&
#3160379685
0&
#3160719935
1&
#3161060185
0&
#3161400435
1&
#3161738685
0&
#3162076935
1&
#3162415185
0&
#3162753435
1&
#3163089935
0&
#3163426435
1&
#3163762935
0&
#3164099435
1&
#3164434185
0&
#3164768935
1&
#3165103685
0&
#3165438435
1&
#3165771435
0&
#3166104435
1&
#3166437435
0&
#3166770435
1&
#3167100685
0&
#3167430935
1&
#3167761185
0&
#3168091435
1&
#3168421685
0&
#3168751935
1&
#3169079935
0&
#3169407935
1&
#3169735935
0&
#3170063935
1&
#3170391935
0&
#3170719935
1&
#3171045435
0&
#3171370935
1&
#3171696435
0&
#3172021935
1&
#3172347435
0&
#3172672935
1&
#3172995685
0&
#3173318435
1&
#3173641185
0&
#3173963935
1&
#3174286685
0&
#3174609435
1&
#3174929935
0&
#3175250435
1&
#3175570935
0&
#3175891435
1&
#3176211935
0&
#3176532435
1&
#3176850435
0&
#3177168435
1&
#3177486435
0&
#3177804435
1&
#3178122435
0&
#3178440435
1&
#3178756185
0&
#3179071935
1&
#3179387685
0&
#3179703435
1&
#3180019185
0&
#3180334935
1&
#3180648685
0&
#3180962435
1&
#3181276185
0&
#3181589935
1&
#3181903685
0&
#3182217435
1&
#3182528935
0&
#3182840435
1&
#3183151935
0&
#3183463435
1&
#3183774935
0&
#3184086435
1&
#3184395435
0&
#3184704435
1&
#3185013435
0&
#3185322435
1&
#3185631435
0&
#3185940435
1&
#3186247435
0&
#3186554435
1&
#3186861435
0&
#3187168435
1&
#3187475435
0&
#3187782435
1&
#3188087435
0&
#3188392435
1&
#3188697435
0&
#3189002435
1&
#3189307435
0&
#3189612435
1&
#3189915685
0&
#3190218935
1&
#3190522185
0&
#3190825435
1&
#3191128685
0&
#3191431935
1&
#3191733185
0&
#3192034435
1&
#3192335685
0&
#3192636935
1&
#3192938185
0&
#3193239435
1&
#3193538685
0&
#3193837935
1&
#3194137185
0&
#3194436435
1&
#3194735685
0&
#3195034935
1&
#3195331935
0&
#3195628935
1&
#3195925935
0&
#3196222935
1&
#3196519935
0&
#3196816935
1&
#3197112435
0&
#3197407935
1&
#3197703435
0&
#3197998935
1&
#3198294435
0&
#3198589935
1&
#3198883435
0&
#3199176935
1&
#3199470435
0&
#3199763935
1&
#3200057435
0&
#3200350935
1&
#3200642435
0&
#3200933935
1&
#3201225435
0&
#3201516935
1&
#3201808435
0&
#3202099935
1&
#3202389935
0&
#3202679935
1&
#3202969935
0&
#3203259935
1&
#3203549935
0&
#3203839935
1&
#3204127935
0&
#3204415935
1&
#3204703935
0&
#3204991935
1&
#3205279935
0&
#3205567935
1&
#3205854435
0&
#3206140935
1&
#3206427435
0&
#3206713935
1&
#3207000435
0&
#3207286935
1&
#3207571935
0&
#3207856935
1&
#3208141935
0&
#3208426935
1&
#3208711935
0&
#3208996935
1&
#3209280435
0&
#3209563935
1&
#3209847435
0&
#3210130935
1&
#3210414435
0&
#3210697935
1&
#3210979435
0&
#3211260935
1&
#3211542435
0&
#3211823935
1&
#3212105435
0&
#3212386935
1&
#3212666935
0&
#3212946935
1&
#3213226935
0&
#3213506935
1&
#3213786935
0&
#3214066935
1&
#3214345435
0&
#3214623935
1&
#3214902435
0&
#3215180935
1&
#3215459435
0&
#3215737935
1&
#3216014935
0&
#3216291935
1&
#3216568935
0&
#3216845935
1&
#3217122935
0&
#3217399935
1&
#3217675435
0&
#3217950935
1&
#3218226435
0&
#3218501935
1&
#3218777435
0&
#3219052935
1&
#3219326935
0&
#3219600935
1&
#3219874935
0&
#3220148935
1&
#3220422935
0&
#3220696935
1&
#3220969435
0&
#3221241935
1&
#3221514435
0&
#3221786935
1&
#3222059435
0&
#3222331935
1&
#3222602935
0&
#3222873935
1&
#3223144935
0&
#3223415935
1&
#3223686935
0&
#3223957935
1&
#3224227435
0&
#3224496935
1&
#3224766435
0&
#3225035935
1&
#3225305435
0&
#3225574935
1&
#3225842935
0&
#3226110935
1&
#3226378935
0&
#3226646935
1&
#3226914935
0&
#3227182935
1&
#3227449935
0&
#3227716935
1&
#3227983935
0&
#3228250935
1&
#3228517935
0&
#3228784935
1&
#3229050685
0&
#3229316435
1&
#3229582185
0&
#3229847935
1&
#3230113685
0&
#3230379435
1&
#3230643685
0&
#3230907935
1&
#3231172185
0&
#3231436435
1&
#3231700685
0&
#3231964935
1&
#3232227685
0&
#3232490435
1&
#3232753185
0&
#3233015935
1&
#3233278685
0&
#3233541435
1&
#3233802935
0&
#3234064435
1&
#3234325935
0&
#3234587435
1&
#3234848935
0&
#3235110435
1&
#3235370685
0&
#3235630935
1&
#3235891185
0&
#3236151435
1&
#3236411685
0&
#3236671935
1&
#3236930685
0&
#3237189435
1&
#3237448185
0&
#3237706935
1&
#3237965685
0&
#3238224435
1&
#3238482185
0&
#3238739935
1&
#3238997685
0&
#3239255435
1&
#3239513185
0&
#3239770935
1&
#3240027435
0&
#3240283935
1&
#3240540435
0&
#3240796935
1&
#3241053435
0&
#3241309935
1&
#3241565185
0&
#3241820435
1&
#3242075685
0&
#3242330935
1&
#3242586185
0&
#3242841435
1&
#3243095685
0&
#3243349935
1&
#3243604185
0&
#3243858435
1&
#3244112685
0&
#3244366935
1&
#3244619810
0&
#3244872685
1&
#3245125560
0&
#3245378435
1&
#3245631310
0&
#3245884185
1&
#3246136060
0&
#3246387935
1&
#3246639810
0&
#3246891685
1&
#3247143560
0&
#3247395435
1&
#3247645935
0&
#3247896435
1&
#3248146935
0&
#3248397435
1&
#3248647935
0&
#3248898435
1&
#3249147935
0&
#3249397435
1&
#3249646935
0&
#3249896435
1&
#3250145935
0&
#3250395435
1&
#3250643685
0&
#3250891935
1&
#3251140185
0&
#3251388435
1&
#3251636685
0&
#3251884935
1&
#3252133185
0&
#3252381435
1&
#3252627935
0&
#3252874435
1&
#3253120935
0&
#3253367435
1&
#3253613935
0&
#3253860435
1&
#3254106935
0&
#3254353435
1&
#3254598560
0&
#3254843685
1&
#3255088810
0&
#3255333935
1&
#3255579060
0&
#3255824185
1&
#3256069310
0&
#3256314435
1&
#3256558310
0&
#3256802185
1&
#3257046060
0&
#3257289935
1&
#3257533810
0&
#3257777685
1&
#3258021560
0&
#3258265435
1&
#3258507935
0&
#3258750435
1&
#3258992935
0&
#3259235435
1&
#3259477935
0&
#3259720435
1&
#3259962935
0&
#3260205435
1&
#3260446310
0&
#3260687185
1&
#3260928060
0&
#3261168935
1&
#3261409810
0&
#3261650685
1&
#3261891560
0&
#3262132435
1&
#3262372060
0&
#3262611685
1&
#3262851310
0&
#3263090935
1&
#3263330560
0&
#3263570185
1&
#3263809810
0&
#3264049435
1&
#3264287810
0&
#3264526185
1&
#3264764560
0&
#3265002935
1&
#3265241310
0&
#3265479685
1&
#3265718060
0&
#3265956435
1&
#3266193435
0&
#3266430435
1&
#3266667435
0&
#3266904435
1&
#3267141435
0&
#3267378435
1&
#3267615435
0&
#3267852435
1&
#3268088185
0&
#3268323935
1&
#3268559685
0&
#3268795435
1&
#3269031185
0&
