src/vcds/simulation3.vcd
$version Generated by Wokwi.com $end
$date Wed, 17 Jun 2026 20:29:24 GMT $end
$timescale 1ns $end
$scope module logic $end
$var wire 1 ! D0 $end
$var wire 1 " D1 $end
$var wire 1 # D2 $end
$var wire 1 $ D3 $end
$var wire 1 % D4 $end
$var wire 1 & D5 $end
$upscope $end
$enddefinitions $end
#0
1!
#0
0"
#0
1#
#0
1$
#0
1%
#0
0&
#2394352810
0!
#2396635531
0#
#2397653669
0$
#2398853260
0%
#2402066719
1&
#2404114656
0&
#2411194719
1&
#2412808719
0&
#2417650719
1&
#2418967719
0&
#2422918719
1&
#2424059719
0&
#2427482719
1&
#2429524719
0&
#2431566719
1&
#2433429719
0&
#2435292719
1&
#2437017719
0&
#2438742719
1&
#2440356719
0&
#2441970719
1&
#2443493719
0&
#2445016719
1&
#2446460719
0&
#2447904719
1&
#2449282719
0&
#2450660719
1&
#2451977719
0&
#2453294719
1&
#2454561719
0&
#2455828719
1&
#2457048719
0&
#2458268719
1&
#2459447719
0&
#2460626719
1&
#2461767719
0&
#2462908719
1&
#2464016719
0&
#2465124719
1&
#2466201719
0&
#2467278719
1&
#2468326719
0&
#2469374719
1&
#2470395719
0&
#2471416719
1&
#2472413219
0&
#2473409719
1&
#2474383719
0&
#2475357719
1&
#2476309719
0&
#2477261719
1&
#2478193219
0&
#2479124719
1&
#2480037719
0&
#2480950719
1&
#2481846719
0&
#2482742719
1&
#2483621719
0&
#2484500719
1&
#2485363219
0&
#2486225719
1&
#2487072719
0&
#2487919719
1&
#2488753219
0&
#2489586719
1&
#2490406719
0&
#2491226719
1&
#2492033719
0&
#2492840719
1&
#2493635719
0&
#2494430719
1&
#2495213719
0&
#2495996719
1&
#2496768219
0&
#2497539719
1&
#2498301219
0&
#2499062719
1&
#2499813719
0&
#2500564719
1&
#2501305719
0&
#2502046719
1&
#2502777719
0&
#2503508719
1&
#2504230719
0&
#2504952719
1&
#2505666219
0&
#2506379719
1&
#2507084219
0&
#2507788719
1&
#2508485219
0&
#2509181719
1&
#2509870719
0&
#2510559719
1&
#2511240219
0&
#2511920719
1&
#2512593719
0&
#2513266719
1&
#2513932719
0&
#2514598719
1&
#2515257219
0&
#2515915719
1&
#2516568219
0&
#2517220719
1&
#2517866219
0&
#2518511719
1&
#2519164219
0&
#2519816719
1&
#2520475219
0&
#2521133719
1&
#2521799719
0&
#2522465719
1&
#2523138719
0&
#2523811719
1&
#2524492219
0&
#2525172719
1&
#2525861719
0&
#2526550719
1&
#2527247219
0&
#2527943719
1&
#2528648219
0&
#2529352719
1&
#2530066219
0&
#2530779719
1&
#2531501719
0&
#2532223719
1&
#2532954719
0&
#2533685719
1&
#2534426719
0&
#2535167719
1&
#2535918719
0&
#2536669719
1&
#2537431219
0&
#2538192719
1&
#2538964219
0&
#2539735719
1&
#2540518719
0&
#2541301719
1&
#2542096719
0&
#2542891719
1&
#2543698719
0&
#2544505719
1&
#2545325719
0&
#2546145719
1&
#2546979219
0&
#2547812719
1&
#2548659719
0&
#2549506719
1&
#2550369219
0&
#2551231719
1&
#2552110719
0&
#2552989719
1&
#2553885719
0&
#2554781719
1&
#2555694719
0&
#2556607719
1&
#2557539219
0&
#2558470719
1&
#2559422719
0&
#2560374719
1&
#2561348719
0&
#2562322719
1&
#2563319219
0&
#2564315719
1&
#2565336719
0&
#2566357719
1&
#2567405719
0&
#2568453719
1&
#2569530719
0&
#2570607719
1&
#2571715719
0&
#2572823719
1&
#2573964719
0&
#2575105719
1&
#2576284719
0&
#2577463719
1&
#2578683719
0&
#2579903719
1&
#2581170719
0&
#2582437719
1&
#2583754719
0&
#2585071719
1&
#2586449719
0&
#2587827719
1&
#2589271719
0&
#2590715719
1&
#2592238719
0&
#2593761719
1&
#2595375719
0&
#2596989719
1&
#2598714719
0&
#2600439719
1&
#2602302719
0&
#2604165719
1&
#2606207719
0&
#2608249719
1&
#2609390719
0&
#2612813719
1&
#2614130719
0&
#2618081719
1&
#2619695719
0&
#2624537719
1&
#2626585656
0&
#2633665719
1&
#2635713656
0&
#3402053498
1&
#3404101435
0&
#3411181498
1&
#3412795498
0&
#3417637498
1&
#3418954498
0&
#3422905498
1&
#3424046498
0&
#3427469498
1&
#3429511498
0&
#3431553498
1&
#3433416498
0&
#3435279498
1&
#3437004498
0&
#3438729498
1&
#3440343498
0&
#3441957498
1&
#3443480498
0&
#3445003498
1&
#3446447498
0&
#3447891498
1&
#3449269498
0&
#3450647498
1&
#3451964498
0&
#3453281498
1&
#3454548498
0&
#3455815498
1&
#3457035498
0&
#3458255498
1&
#3459434498
0&
#3460613498
1&
#3461754498
0&
#3462895498
1&
#3464003498
0&
#3465111498
1&
#3466188498
0&
#3467265498
1&
#3468313498
0&
#3469361498
1&
#3470382498
0&
#3471403498
1&
#3472399998
0&
#3473396498
1&
#3474370498
0&
#3475344498
1&
#3476296498
0&
#3477248498
1&
#3478179998
0&
#3479111498
1&
#3480024498
0&
#3480937498
1&
#3481833498
0&
#3482729498
1&
#3483608498
0&
#3484487498
1&
#3485349998
0&
#3486212498
1&
#3487059498
0&
#3487906498
1&
#3488739998
0&
#3489573498
1&
#3490393498
0&
#3491213498
1&
#3492020498
0&
#3492827498
1&
#3493622498
0&
#3494417498
1&
#3495200498
0&
#3495983498
1&
#3496754998
0&
#3497526498
1&
#3498287998
0&
#3499049498
1&
#3499800498
0&
#3500551498
1&
#3501292498
0&
#3502033498
1&
#3502764498
0&
#3503495498
1&
#3504217498
0&
#3504939498
1&
#3505652998
0&
#3506366498
1&
#3507070998
0&
#3507775498
1&
#3508471998
0&
#3509168498
1&
#3509857498
0&
#3510546498
1&
#3511226998
0&
#3511907498
1&
#3512580498
0&
#3513253498
1&
#3513919498
0&
#3514585498
1&
#3515243998
0&
#3515902498
1&
#3516554998
0&
#3517207498
1&
#3517852998
0&
#3518498498
1&
#3519150998
0&
#3519803498
1&
#3520461998
0&
#3521120498
1&
#3521786498
0&
#3522452498
1&
#3523125498
0&
#3523798498
1&
#3524478998
0&
#3525159498
1&
#3525848498
0&
#3526537498
1&
#3527233998
0&
#3527930498
1&
#3528634998
0&
#3529339498
1&
#3530052998
0&
#3530766498
1&
#3531488498
0&
#3532210498
1&
#3532941498
0&
#3533672498
1&
#3534413498
0&
#3535154498
1&
#3535905498
0&
#3536656498
1&
#3537417998
0&
#3538179498
1&
#3538950998
0&
#3539722498
1&
#3540505498
0&
#3541288498
1&
#3542083498
0&
#3542878498
1&
#3543685498
0&
#3544492498
1&
#3545312498
0&
#3546132498
1&
#3546965998
0&
#3547799498
1&
#3548646498
0&
#3549493498
1&
#3550355998
0&
#3551218498
1&
#3552097498
0&
#3552976498
1&
#3553872498
0&
#3554768498
1&
#3555681498
0&
#3556594498
1&
#3557525998
0&
#3558457498
1&
#3559409498
0&
#3560361498
1&
#3561335498
0&
#3562309498
1&
#3563305998
0&
#3564302498
1&
#3565323498
0&
#3566344498
1&
#3567392498
0&
#3568440498
1&
#3569517498
0&
#3570594498
1&
#3571702498
0&
#3572810498
1&
#3573951498
0&
#3575092498
1&
#3576271498
0&
#3577450498
1&
#3578670498
0&
#3579890498
1&
#3581157498
0&
#3582424498
1&
#3583741498
0&
#3585058498
1&
#3586436498
0&
#3587814498
1&
#3589258498
0&
#3590702498
1&
#3592225498
0&
#3593748498
1&
#3595362498
0&
#3596976498
1&
#3598701498
0&
#3600426498
1&
#3602289498
0&
#3604152498
1&
#3606194498
0&
#3608236498
1&
#3609377498
0&
#3612800498
1&
#3614117498
0&
#3618068498
1&
#3619682498
0&
#3624524498
1&
#3626572435
0&
#3633652498
1&
#3635700435
0&
#9682608827
1"
#9682658827
0"
#9682658877
1#
#9682708827
1"
#9682758827
0"
#9682781452
1%
#9682808827
1"
#9682825502
0#
#9682836952
0%
#9682858827
0"
#9682892515
1%
#9682908827
1"
#9682948015
0%
#9682958827
0"
#9682992190
1#
#9683003577
1%
#9683008827
1"
#9683058827
0"
#9683059077
0%
#9683108827
1"
#9683114640
1%
#9683158815
0#
#9683158827
0"
#9683170140
0%
#9683208827
1"
#9683225702
1%
#9683258827
0"
#9683281202
0%
#9683308827
1"
#9683325502
1#
#9683336765
1%
#9683358827
0"
#9683392265
0%
#9683408827
1"
#9683447827
1%
#9683458827
0"
#9683492127
0#
#9683503327
0%
#9683508827
1"
#9683558827
0"
#9683558890
1%
#9683614390
0%
#9683669952
1%
#9683725452
0%
#9687658877
1#
#9687781452
1%
#9687808827
1"
#9687825502
0#
#9687834077
0%
#9687854265
0"
#9687886702
1%
#9687899702
1"
#9687939327
0%
#9687945140
0"
#9687990577
1"
#9687991952
1%
#9687992190
1#
#9688036015
0"
#9688044577
0%
#9688081452
1"
#9688097202
1%
#9688126890
0"
#9688149827
0%
#9688158815
0#
#9688172327
1"
#9688202452
1%
#9688217765
0"
#9688255077
0%
#9688263202
1"
#9688307702
1%
#9688308640
0"
#9688325502
1#
#9688354077
1"
#9688360327
0%
#9688399515
0"
#9688412952
1%
#9688444952
1"
#9688465577
0%
#9688490390
0"
#9688492127
0#
#9688518202
1%
#9688535827
1"
#9688570827
0%
#9688581265
0"
#9688623452
1%
#9688626702
1"
#9688658815
1#
#9688672140
0"
#9688676077
0%
#9688717577
1"
#9688728702
1%
#9688763015
0"
#9688781327
0%
#9688808452
1"
#9688825440
0#
#9688833952
1%
#9688853890
0"
#9688886577
0%
#9688899327
1"
#9688939202
1%
#9688944765
0"
#9688990202
1"
#9688991827
0%
#9688992127
1#
#9689035640
0"
#9689044452
1%
#9689081077
1"
#9689097077
0%
#9689126515
0"
#9689149702
1%
#9689158752
0#
#9689171952
1"
#9689202327
0%
#9689217390
0"
#9689254952
1%
#9689262827
1"
#9689307577
0%
#9689308265
0"
#9689325440
1#
#9689353702
1"
#9689360202
1%
#9689399140
0"
#9689412827
0%
#9689444577
1"
#9689465452
1%
#9689490015
0"
#9689492065
0#
#9689518077
0%
#9689535452
1"
#9689570702
1%
#9689580890
0"
#9689623327
0%
#9689626327
1"
#9689658752
1#
#9689671765
0"
#9689675952
1%
#9689717202
1"
#9689728577
0%
#9689762640
0"
#9689781202
1%
#9689808077
1"
#9689825440
0#
#9689836765
0%
#9689858077
0"
#9689892327
1%
#9689908140
1"
#9689947890
0%
#9689958140
0"
#9689992127
1#
#9690003452
1%
#9690008202
1"
#9690058202
0"
#9690059015
0%
#9690108265
1"
#9690114577
1%
#9690158265
0"
#9690158815
0#
#9690170140
0%
#9690208327
1"
#9690225702
1%
#9690258327
0"
#9690281265
0%
#9690308390
1"
#9690325502
1#
#9690336827
1%
#9690358390
0"
#9690392390
0%
#9690408452
1"
#9690447952
1%
#9690458452
0"
#9690492190
0#
#9690503515
0%
#9690508515
1"
#9690558515
0"
#9690559077
1%
#9690608577
1"
#9690614640
0%
#9690658577
0"
#9690670202
1%
#9690708640
1"
#9690725765
0%
#9690758640
0"
#9694658877
1#
#9694781452
1%
#9694836952
0%
#9694858877
0#
#9694892515
1%
#9694948015
0%
#9695003577
1%
#9695008827
1"
#9695058827
0"
#9695058877
1#
#9695059077
0%
#9695108827
1"
#9695114640
1%
#9695158827
0"
#9695170140
0%
#9695208827
1"
#9695225702
1%
#9695258827
0"
#9695258877
0#
#9695281202
0%
#9695308827
1"
#9695336765
1%
#9695358827
0"
#9695392265
0%
#9695408827
1"
#9695447827
1%
#9695458827
0"
#9695458877
1#
#9695503327
0%
#9695508827
1"
#9695558827
0"
#9695558890
1%
#9695608827
1"
#9695614390
0%
#9695658827
0"
#9695658877
0#
#9695669952
1%
#9695708827
1"
#9695725452
0%
#9695758827
0"
#9695781015
1%
#9695808827
1"
#9695836515
0%
#9695858827
0"
#9695858877
1#
#9695892077
1%
#9695908827
1"
#9695947577
0%
#9695958827
0"
#9696003140
1%
#9696008827
1"
#9696058640
0%
#9696058827
0"
#9696058877
0#
#9696108827
1"
#9696114202
1%
#9696158827
0"
#9696169702
0%
#9696208827
1"
#9696225265
1%
#9696258827
0"
#9696258877
1#
#9696280765
0%
#9696308827
1"
#9696336327
1%
#9696358827
0"
#9696391827
0%
#9696408827
1"
#9696447390
1%
#9696458827
0"
#9696458877
0#
#9696502890
0%
#9696508827
1"
#9696558452
1%
#9696558827
0"
#9696608827
1"
#9696613952
0%
#9696658827
0"
#9696669515
1%
#9696708827
1"
#9696725015
0%
#9696758827
0"
#9696808827
1"
#9696858827
0"
#9696908827
1"
#9696958827
0"
#9700658877
1#
#9700781452
1%
#9700834077
0%
#9700886702
1%
#9700908877
0#
#9700939327
0%
#9700991952
1%
#9701044577
0%
#9701097202
1%
#9701149827
0%
#9701158877
1#
#9701202452
1%
#9701208827
1"
#9701255077
0%
#9701261452
0"
#9701307702
1%
#9701314077
1"
#9701360327
0%
#9701366702
0"
#9701408877
0#
#9701412952
1%
#9701419327
1"
#9701465577
0%
#9701471952
0"
#9701518202
1%
#9701524577
1"
#9701570827
0%
#9701577202
0"
#9701623452
1%
#9701629827
1"
#9701658877
1#
#9701676077
0%
#9701682452
0"
#9701728702
1%
#9701735077
1"
#9701781327
0%
#9701787702
0"
#9701833952
1%
#9701840327
1"
#9701886577
0%
#9701892952
0"
#9701908877
0#
#9701939202
1%
#9701945577
1"
#9701991827
0%
#9701998202
0"
#9702044452
1%
#9702050827
1"
#9702097077
0%
#9702103452
0"
#9702149702
1%
#9702156077
1"
#9702158877
1#
#9702202327
0%
#9702208702
0"
#9702254952
1%
#9702261327
1"
#9702307577
0%
#9702313952
0"
#9702360202
1%
#9702366577
1"
#9702408877
0#
#9702412827
0%
#9702419202
0"
#9702465452
1%
#9702471827
1"
#9702518077
0%
#9702524452
0"
#9702570702
1%
#9702577077
1"
#9702623327
0%
#9702629702
0"
#9702675952
1%
#9702682327
1"
#9702728577
0%
#9702734952
0"
#9702787577
1"
#9702840202
0"
#9702892827
1"
#9702945452
0"
#9702998077
1"
#9703050702
0"
#9703103327
1"
#9703155952
0"
#9706658877
1#
#9706781452
1%
#9706836952
0%
#9706892515
1%
#9706908877
0#
#9706948015
0%
#9707003577
1%
#9707059077
0%
#9707114640
1%
#9707158877
1#
#9707170140
0%
#9707225702
1%
#9707281202
0%
#9707336765
1%
#9707392265
0%
#9707408827
1"
#9707408877
0#
#9707447827
1%
#9707464327
0"
#9707503327
0%
#9707519890
1"
#9707558890
1%
#9707575390
0"
#9707614390
0%
#9707630952
1"
#9707669952
1%
#9707686452
0"
#9707725452
0%
#9707742015
1"
#9707797515
0"
#9707853077
1"
#9707908577
0"
#9707964140
1"
#9708019640
0"
#9708075202
1"
#9708130702
0"
#9708186265
1"
#9708241765
0"
#9708297327
1"
#9708352827
0"
#9711658877
1#
#9711781452
1%
#9711836952
0%
#9711892515
1%
#9711908877
0#
#9711948015
0%
#9712003577
1%
#9712059077
0%
#9712114640
1%
#9712158877
1#
#9712170140
0%
#9712225702
1%
#9712281202
0%
#9712336765
1%
#9712392265
0%
#9712408877
0#
#9712447827
1%
#9712503327
0%
#9712558890
1%
#9712608827
1"
#9712614390
0%
#9712664327
0"
#9712669952
1%
#9712719890
1"
#9712725452
0%
#9712775390
0"
#9712830952
1"
#9712886452
0"
#9712942015
1"
#9712997515
0"
#9713053077
1"
#9713108577
0"
#9713164140
1"
#9713219640
0"
#9713275202
1"
#9713330702
0"
#9713386265
1"
#9713441765
0"
#9713497327
1"
#9713552827
0"
#9716658877
1#
#9716781452
1%
#9716836952
0%
#9716892515
1%
#9716948015
0%
#9716992190
0#
#9717003577
1%
#9717059077
0%
#9717114640
1%
#9717170140
0%
#9717225702
1%
#9717281202
0%
#9717325502
1#
#9717336765
1%
#9717392265
0%
#9717447827
1%
#9717503327
0%
#9717558890
1%
#9717614390
0%
#9717658815
0#
#9717669952
1%
#9717725452
0%
#9717781015
1%
#9717808827
1"
#9717836515
0%
#9717867640
0"
#9717892077
1%
#9717926452
1"
#9717947577
0%
#9717985265
0"
#9717992127
1#
#9718003140
1%
#9718044077
1"
#9718058640
0%
#9718102890
0"
#9718114202
1%
#9718161702
1"
#9718169702
0%
#9718220515
0"
#9718225265
1%
#9718279327
1"
#9718280765
0%
#9718325440
0#
#9718336327
1%
#9718338140
0"
#9718391827
0%
#9718396952
1"
#9718447390
1%
#9718455765
0"
#9718502890
0%
#9718514577
1"
#9718558452
1%
#9718573390
0"
#9718613952
0%
#9718632202
1"
#9718669515
1%
#9718691015
0"
#9718725015
0%
#9718749827
1"
#9718808640
0"
#9718867452
1"
#9718926265
0"
#9718985077
1"
#9719043890
0"
#9719102702
1"
#9719161515
0"
#9719220327
1"
#9719279140
0"
#9719337952
1"
#9719396765
0"
#9719455577
1"
#9719514390
0"
#9719573202
1"
#9719632015
0"
#9719690827
1"
#9719749640
0"
#9722658877
1#
#9722781452
1%
#9722836952
0%
#9722892515
1%
#9722908877
0#
#9722948015
0%
#9723003577
1%
#9723059077
0%
#9723114640
1%
#9723158877
1#
#9723170140
0%
#9723225702
1%
#9723281202
0%
#9723336765
1%
#9723392265
0%
#9723408877
0#
#9723447827
1%
#9723503327
0%
#9723558890
1%
#9723614390
0%
#9723669952
1%
#9723725452
0%
#9724008827
1"
#9724064327
0"
#9724119890
1"
#9724175390
0"
#9724230952
1"
#9724286452
0"
#9724342015
1"
#9724397515
0"
#9724453077
1"
#9724508577
0"
#9724564140
1"
#9724619640
0"
#9724675202
1"
#9724730702
0"
#9724786265
1"
#9724841765
0"
#9724897327
1"
#9724952827
0"
#9725008390
1"
#9725070890
0"
#9725133390
1"
#9725195890
0"
#9725258390
1"
#9725320890
0"
#9725383390
1"
#9725445890
0"
#9725508390
1"
#9725570890
0"
#9725633390
1"
#9725695890
0"
#9725758390
1"
#9725820890
0"
#9725883390
1"
#9725945890
0"
#9727658877
1#
#9727781452
1%
#9727836952
0%
#9727892515
1%
#9727948015
0%
#9728003577
1%
#9728059077
0%
#9728114640
1%
#9728158877
0#
#9728170140
0%
#9728225702
1%
#9728281202
0%
#9728336765
1%
#9728392265
0%
#9728447827
1%
#9728503327
0%
#9728558890
1%
#9728614390
0%
#9728658877
1#
#9728669952
1%
#9728725452
0%
#9728781015
1%
#9728843515
0%
#9728906015
1%
#9728968515
0%
#9729031015
1%
#9729093515
0%
#9729156015
1%
#9729158877
0#
#9729218515
0%
#9729281015
1%
#9729343515
0%
#9729406015
1%
#9729468515
0%
#9729531015
1%
#9729593515
0%
#9729656015
1%
#9729718515
0%
#9730208827
1"
#9730271327
0"
#9730333827
1"
#9730396327
0"
#9730458827
1"
#9730521327
0"
#9730583827
1"
#9730646327
0"
#9730708827
1"
#9730771327
0"
#9730833827
1"
#9730896327
0"
#9730958827
1"
#9731021327
0"
#9731083827
1"
#9731146327
0"
#9733658877
1#
#9733781452
1%
#9733836952
0%
#9733892515
1%
#9733948015
0%
#9734003577
1%
#9734059077
0%
#9734114640
1%
#9734158877
0#
#9734170140
0%
#9734225702
1%
#9734281202
0%
#9734336765
1%
#9734392265
0%
#9734447827
1%
#9734503327
0%
#9734558890
1%
#9734614390
0%
#9734669952
1%
#9734725452
0%
#9735408827
1"
#9735471327
0"
#9735533827
1"
#9735596327
0"
#9735658827
1"
#9735721327
0"
#9735783827
1"
#9735846327
0"
#9735908827
1"
#9735971327
0"
#9736033827
1"
#9736096327
0"
#9736158827
1"
#9736221327
0"
#9736283827
1"
#9736346327
0"
#9736408827
1"
#9736471327
0"
#9736533827
1"
#9736596327
0"
#9736658827
1"
#9736721327
0"
#9736783827
1"
#9736846327
0"
#9736908827
1"
#9736971327
0"
#9737033827
1"
#9737096327
0"
#9737158827
1"
#9737221327
0"
#9737283827
1"
#9737346327
0"
#9738658877
1#
#9738781452
1%
#9738836952
0%
#9738892515
1%
#9738948015
0%
#9739003577
1%
#9739059077
0%
#9739114640
1%
#9739158877
0#
#9739170140
0%
#9739225702
1%
#9739281202
0%
#9739336765
1%
#9739392265
0%
#9739447827
1%
#9739503327
0%
#9739558890
1%
#9739614390
0%
#9739658877
1#
#9739669952
1%
#9739725452
0%
#9739781015
1%
#9739836577
0%
#9739892140
1%
#9739947702
0%
#9740003265
1%
#9740058827
0%
#9740114390
1%
#9740158877
0#
#9740169952
0%
#9740225515
1%
#9740281077
0%
#9740336640
1%
#9740392202
0%
#9740447765
1%
#9740503327
0%
#9740558890
1%
#9740614452
0%
#9740670015
1%
#9740725577
0%
#9741608827
1"
#9741680202
0"
#9741751640
1"
#9741823015
0"
#9741894452
1"
#9741965827
0"
#9742037265
1"
#9742108640
0"
#9742180077
1"
#9742251452
0"
#9742322890
1"
#9742394265
0"
#9742465702
1"
#9742537077
0"
#9744781452
1%
#9744843952
0%
#9744906452
1%
#9744968952
0%
#9745031452
1%
#9745093952
0%
#9745156452
1%
#9745218952
0%
#9745281452
1%
#9745343952
0%
#9745406452
1%
#9745468952
0%
#9745531452
1%
#9745593952
0%
#9745656452
1%
#9745718952
0%
#9746808827
1"
#9746871327
0"
#9746933827
1"
#9746996327
0"
#9747058827
1"
#9747121327
0"
#9747183827
1"
#9747246327
0"
#9747308827
1"
#9747371327
0"
#9747433827
1"
#9747496327
0"
#9747558827
1"
#9747621327
0"
#9747683827
1"
#9747746327
0"
#9747808827
1"
#9747880202
0"
#9747951640
1"
#9748023015
0"
#9748094452
1"
#9748165827
0"
#9748237265
1"
#9748308640
0"
#9748380077
1"
#9748451452
0"
#9748522890
1"
#9748594265
0"
#9748665702
1"
#9748737077
0"
#9749658877
1#
#9749781452
1%
#9749836952
0%
#9749892515
1%
#9749948015
0%
#9750003577
1%
#9750059077
0%
#9750114640
1%
#9750158877
0#
#9750170140
0%
#9750225702
1%
#9750281202
0%
#9750336765
1%
#9750392265
0%
#9750447827
1%
#9750503327
0%
#9750558890
1%
#9750614390
0%
#9750669952
1%
#9750725452
0%
#9753008827
1"
#9753080202
0"
#9753151640
1"
#9753223015
0"
#9753294452
1"
#9753365827
0"
#9753437265
1"
#9753508640
0"
#9753580077
1"
#9753651452
0"
#9753722890
1"
#9753794265
0"
#9753865702
1"
#9753937077
0"
#9754781452
1%
#9754843952
0%
#9754906452
1%
#9754968952
0%
#9755031452
1%
#9755093952
0%
#9755156452
1%
#9755218952
0%
#9755281452
1%
#9755343952
0%
#9755406452
1%
#9755468952
0%
#9755531452
1%
#9755593952
0%
#9755656452
1%
#9755718952
0%
#9755781452
1%
#9755836952
0%
#9755892515
1%
#9755948015
0%
#9756003577
1%
#9756059077
0%
#9756114640
1%
#9756170140
0%
#9756225702
1%
#9756281202
0%
#9756336765
1%
#9756392265
0%
#9756447827
1%
#9756503327
0%
#9756558890
1%
#9756614390
0%
#9756669952
1%
#9756725452
0%
#9758208827
1"
#9758280202
0"
#9758351640
1"
#9758423015
0"
#9758494452
1"
#9758565827
0"
#9758637265
1"
#9758708640
0"
#9758780077
1"
#9758851452
0"
#9758922890
1"
#9758994265
0"
#9759065702
1"
#9759137077
0"
#9759208515
1"
#9759291827
0"
#9759375202
1"
#9759458515
0"
#9759541890
1"
#9759625202
0"
#9759708577
1"
#9759791890
0"
#9759875265
1"
#9759958577
0"
#9760041952
1"
#9760125265
0"
#9760658877
1#
#9760781452
1%
#9760843952
0%
#9760906452
1%
#9760968952
0%
#9761031452
1%
#9761093952
0%
#9761156452
1%
#9761158877
0#
#9761218952
0%
#9761281452
1%
#9761343952
0%
#9761406452
1%
#9761468952
0%
#9761531452
1%
#9761593952
0%
#9761656452
1%
#9761718952
0%
#9764408827
1"
#9764480202
0"
#9764551640
1"
#9764623015
0"
#9764694452
1"
#9764765827
0"
#9764837265
1"
#9764908640
0"
#9764980077
1"
#9765051452
0"
#9765122890
1"
#9765194265
0"
#9765265702
1"
#9765337077
0"
#9765781452
1%
#9765836952
0%
#9765892515
1%
#9765948015
0%
#9766003577
1%
#9766059077
0%
#9766114640
1%
#9766170140
0%
#9766225702
1%
#9766281202
0%
#9766336765
1%
#9766392265
0%
#9766447827
1%
#9766503327
0%
#9766558890
1%
#9766614390
0%
#9766669952
1%
#9766725452
0%
#9766781015
1%
#9766843515
0%
#9766906015
1%
#9766968515
0%
#9767031015
1%
#9767093515
0%
#9767156015
1%
#9767218515
0%
#9767281015
1%
#9767343515
0%
#9767406015
1%
#9767468515
0%
#9767531015
1%
#9767593515
0%
#9767656015
1%
#9767718515
0%
#9769608827
1"
#9769692140
0"
#9769775452
1"
#9769858765
0"
#9769942077
1"
#9770025390
0"
#9770108702
1"
#9770192015
0"
#9770275327
1"
#9770358640
0"
#9770441952
1"
#9770525265
0"
#9771781452
1%
#9771836952
0%
#9771892515
1%
#9771948015
0%
#9772003577
1%
#9772059077
0%
#9772114640
1%
#9772170140
0%
#9772225702
1%
#9772281202
0%
#9772336765
1%
#9772392265
0%
#9772447827
1%
#9772503327
0%
#9772558890
1%
#9772614390
0%
#9772658877
1#
#9772669952
1%
#9772725452
0%
#9773158877
0#
#9774808827
1"
#9774880202
0"
#9774951640
1"
#9775023015
0"
#9775094452
1"
#9775165827
0"
#9775237265
1"
#9775308640
0"
#9775380077
1"
#9775451452
0"
#9775522890
1"
#9775594265
0"
#9775665702
1"
#9775737077
0"
#9775808515
1"
#9775891827
0"
#9775975202
1"
#9776058515
0"
#9776141890
1"
#9776225202
0"
#9776308577
1"
#9776391890
0"
#9776475265
1"
#9776558577
0"
#9776641952
1"
#9776725265
0"
#9776781452
1%
#9776843952
0%
#9776906452
1%
#9776968952
0%
#9777031452
1%
#9777093952
0%
#9777156452
1%
#9777218952
0%
#9777281452
1%
#9777343952
0%
#9777406452
1%
#9777468952
0%
#9777531452
1%
#9777593952
0%
#9777656452
1%
#9777718952
0%
#9777781452
1%
#9777843952
0%
#9777906452
1%
#9777968952
0%
#9778031452
1%
#9778093952
0%
#9778156452
1%
#9778218952
0%
#9778281452
1%
#9778343952
0%
#9778406452
1%
#9778468952
0%
#9778531452
1%
#9778593952
0%
#9778656452
1%
#9778718952
0%
#9781008827
1"
#9781092140
0"
#9781175452
1"
#9781258765
0"
#9781342077
1"
#9781425390
0"
#9781508702
1"
#9781592015
0"
#9781675327
1"
#9781758640
0"
#9781841952
1"
#9781925265
0"
#9786208827
1"
#9786308827
0"
#9786408827
1"
#9786508827
0"
#9786608827
1"
#9786708827
0"
#9786781452
1%
#9786808827
1"
#9786843952
0%
#9786906452
1%
#9786908827
0"
#9786968952
0%
#9787008827
1"
#9787031452
1%
#9787093952
0%
#9787108827
0"
#9787156452
1%
#9787208827
1"
#9787218952
0%
#9787281452
1%
#9787292140
0"
#9787343952
0%
#9787375452
1"
#9787406452
1%
#9787458765
0"
#9787468952
0%
#9787531452
1%
#9787542077
1"
#9787593952
0%
#9787625390
0"
#9787656452
1%
#9787708702
1"
#9787718952
0%
#9787781452
1%
#9787792015
0"
#9787843952
0%
#9787858877
1#
#9787875327
1"
#9787906452
1%
#9787958640
0"
#9787968952
0%
#9788031452
1%
#9788041952
1"
#9788093952
0%
#9788125265
0"
#9788156452
1%
#9788218952
0%
#9788281452
1%
#9788343952
0%
#9788358877
0#
#9788406452
1%
#9788468952
0%
#9788531452
1%
#9788593952
0%
#9788656452
1%
#9788718952
0%
#9788781452
1%
#9788843952
0%
#9788906452
1%
#9788968952
0%
#9789031452
1%
#9789093952
0%
#9789156452
1%
#9789218952
0%
#9789281452
1%
#9789343952
0%
#9789406452
1%
#9789468952
0%
#9789531452
1%
#9789593952
0%
#9789656452
1%
#9789718952
0%
#9792408827
1"
#9792492140
0"
#9792575452
1"
#9792658765
0"
#9792742077
1"
#9792825390
0"
#9792908702
1"
#9792992015
0"
#9793075327
1"
#9793158640
0"
#9793241952
1"
#9793325265
0"
#9794058877
1#
#9794558877
0#
#9797608827
1"
#9797708827
0"
#9797781452
1%
#9797808827
1"
#9797843952
0%
#9797906452
1%
#9797908827
0"
#9797968952
0%
#9798008827
1"
#9798031452
1%
#9798093952
0%
#9798108827
0"
#9798156452
1%
#9798208827
1"
#9798218952
0%
#9798281452
1%
#9798308827
0"
#9798343952
0%
#9798406452
1%
#9798408827
1"
#9798468952
0%
#9798508827
0"
#9798531452
1%
#9798593952
0%
#9798608827
1"
#9798656452
1%
#9798708827
0"
#9798718952
0%
#9798781452
1%
#9798808827
1"
#9798843952
0%
#9798906452
1%
#9798908827
0"
#9798968952
0%
#9799008827
1"
#9799031452
1%
#9799093952
0%
#9799108827
0"
#9799156452
1%
#9799208827
1"
#9799218952
0%
#9799281452
1%
#9799308827
0"
#9799343952
0%
#9799406452
1%
#9799408827
1"
#9799468952
0%
#9799508827
0"
#9799531452
1%
#9799593952
0%
#9799656452
1%
#9799718952
0%
#9799781452
1%
#9799843952
0%
#9799906452
1%
#9799968952
0%
#9800031452
1%
#9800093952
0%
#9800156452
1%
#9800218952
0%
#9800281452
1%
#9800343952
0%
#9800406452
1%
#9800468952
0%
#9800531452
1%
#9800593952
0%
#9800656452
1%
#9800718952
0%
#9803258877
1#
#9803758877
0#
#9803808827
1"
#9803908827
0"
#9804008827
1"
#9804108827
0"
#9804208827
1"
#9804308827
0"
#9804408827
1"
#9804508827
0"
#9804608827
1"
#9804708827
0"
#9805458877
1#
#9805958877
0#
#9808781452
1%
#9808843952
0%
#9808906452
1%
#9808968952
0%
#9809008827
1"
#9809031452
1%
#9809093952
0%
#9809108827
0"
#9809156452
1%
#9809208827
1"
#9809218952
0%
#9809281452
1%
#9809308827
0"
#9809343952
0%
#9809406452
1%
#9809408827
1"
#9809468952
0%
#9809508827
0"
#9809531452
1%
#9809593952
0%
#9809608827
1"
#9809656452
1%
#9809708827
0"
#9809718952
0%
#9809781452
1%
#9809808827
1"
#9809843952
0%
#9809906452
1%
#9809908827
0"
#9809968952
0%
#9810008827
1"
#9810031452
1%
#9810093952
0%
#9810108827
0"
#9810156452
1%
#9810208827
1"
#9810218952
0%
#9810281452
1%
