src/vcds/simulation2.vcd
$version Generated by Wokwi.com $end
$date Wed, 17 Jun 2026 20:22:54 GMT $end
$timescale 1ns $end
$scope module logic $end
$var wire 1 ! D0 $end
$var wire 1 " D1 $end
$var wire 1 # D2 $end
$var wire 1 $ D3 $end
$var wire 1 % D4 $end
$var wire 1 & D5 $end
$upscope $end
$enddefinitions $end
#0
0!
#0
0"
#0
0#
#0
0$
#0
0%
#0
1&
#2375872779
1$
#2375885696
0$
#2378302292
0&
#2380288850
1&
#2382336787
0&
#2389416850
1&
#2391030850
0&
#2395872850
1&
#2397189850
0&
#2401140850
1&
#2402281850
0&
#2405704850
1&
#2407746850
0&
#2409788850
1&
#2411651850
0&
#2413514850
1&
#2415239850
0&
#2416964850
1&
#2418578850
0&
#2420192850
1&
#2421715850
0&
#2423238850
1&
#2424682850
0&
#2426126850
1&
#2427504850
0&
#2428882850
1&
#2430199850
0&
#2431516850
1&
#2432783850
0&
#2434050850
1&
#2435270850
0&
#2436490850
1&
#2437669850
0&
#2438848850
1&
#2439989850
0&
#2441130850
1&
#2442238850
0&
#2443346850
1&
#2444423850
0&
#2445500850
1&
#2446548850
0&
#2447596850
1&
#2448617850
0&
#2449638850
1&
#2450635350
0&
#2451631850
1&
#2452605850
0&
#2453579850
1&
#2454531850
0&
#2455483850
1&
#2456415350
0&
#2457346850
1&
#2458259850
0&
#2459172850
1&
#2460068850
0&
#2460964850
1&
#2461843850
0&
#2462722850
1&
#2463585350
0&
#2464447850
1&
#2465294850
0&
#2466141850
1&
#2466975350
0&
#2467808850
1&
#2468628850
0&
#2469448850
1&
#2470255850
0&
#2471062850
1&
#2471857850
0&
#2472652850
1&
#2473435850
0&
#2474218850
1&
#2474990350
0&
#2475761850
1&
#2476523350
0&
#2477284850
1&
#2478035850
0&
#2478786850
1&
#2479527850
0&
#2480268850
1&
#2480999850
0&
#2481730850
1&
#2482452850
0&
#2483174850
1&
#2483888350
0&
#2484601850
1&
#2485306350
0&
#2486010850
1&
#2486707350
0&
#2487403850
1&
#2488092850
0&
#2488781850
1&
#2489462350
0&
#2490142850
1&
#2490815850
0&
#2491488850
1&
#2492154850
0&
#2492820850
1&
#2493479350
0&
#2494137850
1&
#2494790350
0&
#2495442850
1&
#2496088350
0&
#2496733850
1&
#2497386350
0&
#2498038850
1&
#2498697350
0&
#2499355850
1&
#2500021850
0&
#2500687850
1&
#2501360850
0&
#2502033850
1&
#2502714350
0&
#2503394850
1&
#2504083850
0&
#2504772850
1&
#2505469350
0&
#2506165850
1&
#2506870350
0&
#2507574850
1&
#2508288350
0&
#2509001850
1&
#2509723850
0&
#2510445850
1&
#2511176850
0&
#2511907850
1&
#2512648850
0&
#2513389850
1&
#2514140850
0&
#2514891850
1&
#2515653350
0&
#2516414850
1&
#2517186350
0&
#2517957850
1&
#2518740850
0&
#2519523850
1&
#2520318850
0&
#2521113850
1&
#2521920850
0&
#2522727850
1&
#2523547850
0&
#2524367850
1&
#2525201350
0&
#2526034850
1&
#2526881850
0&
#2527728850
1&
#2528591350
0&
#2529453850
1&
#2530332850
0&
#2531211850
1&
#2532107850
0&
#2533003850
1&
#2533916850
0&
#2534829850
1&
#2535761350
0&
#2536692850
1&
#2537644850
0&
#2538596850
1&
#2539570850
0&
#2540544850
1&
#2541541350
0&
#2542537850
1&
#2543558850
0&
#2544579850
1&
#2545627850
0&
#2546675850
1&
#2547752850
0&
#2548829850
1&
#2549937850
0&
#2551045850
1&
#2552186850
0&
#2553327850
1&
#2554506850
0&
#2555685850
1&
#2556905850
0&
#2558125850
1&
#2559392850
0&
#2560659850
1&
#2561976850
0&
#2563293850
1&
#2564671850
0&
#2566049850
1&
#2567493850
0&
#2568937850
1&
#2570460850
0&
#2571983850
1&
#2573597850
0&
#2575211850
1&
#2576936850
0&
#2578661850
1&
#2580524850
0&
#2582387850
1&
#2584429850
0&
#2586471850
1&
#2587612850
0&
#2591035850
1&
#2592352850
0&
#2596303850
1&
#2597917850
0&
#2602759850
1&
#2604807787
0&
#2611887850
1&
#2613935787
0&
#3379787537
1&
#3381835475
0&
#3388915537
1&
#3390529537
0&
#3395371537
1&
#3396688537
0&
#3400639537
1&
#3401780537
0&
#3405203537
1&
#3407245537
0&
#3409287537
1&
#3411150537
0&
#3413013537
1&
#3414738537
0&
#3416463537
1&
#3418077537
0&
#3419691537
1&
#3421214537
0&
#3422737537
1&
#3424181537
0&
#3425625537
1&
#3427003537
0&
#3428381537
1&
#3429698537
0&
#3431015537
1&
#3432282537
0&
#3433549537
1&
#3434769537
0&
#3435989537
1&
#3437168537
0&
#3438347537
1&
#3439488537
0&
#3440629537
1&
#3441737537
0&
#3442845537
1&
#3443922537
0&
#3444999537
1&
#3446047537
0&
#3447095537
1&
#3448116537
0&
#3449137537
1&
#3450134037
0&
#3451130537
1&
#3452104537
0&
#3453078537
1&
#3454030537
0&
#3454982537
1&
#3455914037
0&
#3456845537
1&
#3457758537
0&
#3458671537
1&
#3459567537
0&
#3460463537
1&
#3461342537
0&
#3462221537
1&
#3463084037
0&
#3463946537
1&
#3464793537
0&
#3465640537
1&
#3466474037
0&
#3467307537
1&
#3468127537
0&
#3468947537
1&
#3469754537
0&
#3470561537
1&
#3471356537
0&
#3472151537
1&
#3472934537
0&
#3473717537
1&
#3474489037
0&
#3475260537
1&
#3476022037
0&
#3476783537
1&
#3477534537
0&
#3478285537
1&
#3479026537
0&
#3479767537
1&
#3480498537
0&
#3481229537
1&
#3481951537
0&
#3482673537
1&
#3483387037
0&
#3484100537
1&
#3484805037
0&
#3485509537
1&
#3486206037
0&
#3486902537
1&
#3487591537
0&
#3488280537
1&
#3488961037
0&
#3489641537
1&
#3490314537
0&
#3490987537
1&
#3491653537
0&
#3492319537
1&
#3492978037
0&
#3493636537
1&
#3494289037
0&
#3494941537
1&
#3495587037
0&
#3496232537
1&
#3496885037
0&
#3497537537
1&
#3498196037
0&
#3498854537
1&
#3499520537
0&
#3500186537
1&
#3500859537
0&
#3501532537
1&
#3502213037
0&
#3502893537
1&
#3503582537
0&
#3504271537
1&
#3504968037
0&
#3505664537
1&
#3506369037
0&
#3507073537
1&
#3507787037
0&
#3508500537
1&
#3509222537
0&
#3509944537
1&
#3510675537
0&
#3511406537
1&
#3512147537
0&
#3512888537
1&
#3513639537
0&
#3514390537
1&
#3515152037
0&
#3515913537
1&
#3516685037
0&
#3517456537
1&
#3518239537
0&
#3519022537
1&
#3519817537
0&
#3520612537
1&
#3521419537
0&
#3522226537
1&
#3523046537
0&
#3523866537
1&
#3524700037
0&
#3525533537
1&
#3526380537
0&
#3527227537
1&
#3528090037
0&
#3528952537
1&
#3529831537
0&
#3530710537
1&
#3531606537
0&
#3532502537
1&
#3533415537
0&
#3534328537
1&
#3535260037
0&
#3536191537
1&
#3537143537
0&
#3538095537
1&
#3539069537
0&
#3540043537
1&
#3541040037
0&
#3542036537
1&
#3543057537
0&
#3544078537
1&
#3545126537
0&
#3546174537
1&
#3547251537
0&
#3548328537
1&
#3549436537
0&
#3550544537
1&
#3551685537
0&
#3552826537
1&
#3554005537
0&
#3555184537
1&
#3556404537
0&
#3557624537
1&
#3558891537
0&
#3560158537
1&
#3561475537
0&
#3562792537
1&
#3564170537
0&
#3565548537
1&
#3566992537
0&
#3568436537
1&
#3569959537
0&
#3571482537
1&
#3573096537
0&
#3574710537
1&
#3576435537
0&
#3578160537
1&
#3580023537
0&
#3581886537
1&
#3583928537
0&
#3585970537
1&
#3587111537
0&
#3590534537
1&
#3591851537
0&
#3595802537
1&
#3597416537
0&
#3602258537
1&
#3604306475
0&
#3611386537
1&
#3613434475
0&
#16381943857
1&
#16382443857
0&
#16413945098
1&
#16414445098
0&
#16437944164
1&
#16438444164
0&
#16456216756
1&
#16456716756
0&
#16469944505
1&
#16470444505
0&
#16484215480
1&
#16484715480
0&
#16496216726
1&
#16496716726
0&
#16505943821
1&
#16506443821
0&
#16516215955
1&
#16516715955
0&
#16525941404
1&
#16526441404
0&
#16533943829
1&
#16534443829
0&
#16541943437
1&
#16542443437
0&
#16549943141
1&
#16550443141
0&
#16556212175
1&
#16556712175
0&
#16564214025
1&
#16564714025
0&
#16569943391
1&
#16570443391
0&
#16576205699
1&
#16576705699
0&
#16581942028
1&
#16582442028
0&
#16588205270
1&
#16588705270
0&
#16593944524
1&
#16594444524
0&
#16600216107
1&
#16600716107
0&
#16605942982
1&
#16606442982
0&
#16609944836
1&
#16610444836
0&
#16616209049
1&
#16616709049
0&
#16620218886
1&
#16620718886
0&
#16624214694
1&
#16624714694
0&
#16629942715
1&
#16630442715
0&
#16633944207
1&
#16634444207
0&
#16637943002
1&
#16638443002
0&
#16641944581
1&
#16642444581
0&
#16648214702
1&
#16648714702
0&
#16652216219
1&
#16652716219
0&
#16656219490
1&
#16656719490
0&
#16660221573
1&
#16660721573
0&
#16664222277
1&
#16664722277
0&
#16665943635
1&
#16666443635
0&
#16669944494
1&
#16670444494
0&
#16673944114
1&
#16674444114
0&
#16677943385
1&
#16678443385
0&
#16681943502
1&
#16682443502
0&
#16684219422
1&
#16684719422
0&
#16688220693
1&
#16688720693
0&
#16692210743
1&
#16692710743
0&
#16696205739
1&
#16696705739
0&
#16697943651
1&
#16698443651
0&
#16701943810
1&
#16702443810
0&
#16704219864
1&
#16704719864
0&
#16708212176
1&
#16708712176
0&
#16712206180
1&
#16712706180
0&
#16713943243
1&
#16714443243
0&
#16717943401
1&
#16718443401
0&
#16720216126
1&
#16720716126
0&
#16724200634
1&
#16724700634
0&
#16725944663
1&
#16726444663
0&
#16728216747
1&
#16728716747
0&
#16732216780
1&
#16732716780
0&
#16733944551
1&
#16734444551
0&
#16737941042
1&
#16738441042
0&
#16740212067
1&
#16740712067
0&
#16741942092
1&
#16742442092
0&
#16745942759
1&
#16746442759
0&
#16748220709
1&
#16748720709
0&
#16749944642
1&
#16750444642
0&
#16753943725
1&
#16754443725
0&
#16756205721
1&
#16756705721
0&
#16757944292
1&
#16758444292
0&
#16761944471
1&
#16762444471
0&
#16764207709
1&
#16764707709
0&
#16765944888
1&
#16766444888
0&
#16768206129
1&
#16768706129
0&
#16772212117
1&
#16772712117
0&
#16773941692
1&
#16774441692
0&
#16776209196
1&
#16776709196
0&
#16777944567
1&
#16778444567
0&
#16780206233
1&
#16780706233
0&
#16784206179
1&
#16784706179
0&
#16785943154
1&
#16786443154
0&
#16788211771
1&
#16788711771
0&
#16789942729
1&
#16790442729
0&
#16792203475
1&
#16792703475
0&
#16796215683
1&
#16796715683
0&
#16797944616
1&
#16798444616
0&
#16800203258
1&
#16800703258
0&
#16801943491
1&
#16802443491
0&
#16804218512
1&
#16804718512
0&
#16805944474
1&
#16806444474
0&
#16808206862
1&
#16808706862
0&
#16809942749
1&
#16810442749
0&
#16813944208
1&
#16814444208
0&
#16816207049
1&
#16816707049
0&
#16817941691
1&
#16818441691
0&
#16820212824
1&
#16820712824
0&
#16821943387
1&
#16822443387
0&
#16824211728
1&
#16824711728
0&
#16825943420
1&
#16826443420
0&
#16828205766
1&
#16828705766
0&
#16829944245
1&
#16830444245
0&
#16832219816
1&
#16832719816
0&
#16833944532
1&
#16834444532
0&
#16836217361
1&
#16836717361
0&
#16837944482
1&
#16838444482
0&
#16841944549
1&
#16842444549
0&
#16844217453
1&
#16844717453
0&
#16845942103
1&
#16846442103
0&
#16848203490
1&
#16848703490
0&
#16849943411
1&
#16850443411
0&
#16852216724
1&
#16852716724
0&
#16853943386
1&
#16854443386
0&
#16856216699
1&
#16856716699
0&
#16857943869
1&
#16858443869
0&
#16860214857
1&
#16860714857
0&
#16861945078
1&
#16862445078
0&
#16864210153
1&
#16864710153
0&
#16865942019
1&
#16866442019
0&
#16868216057
1&
#16868716057
0&
#16869942740
1&
#16870442740
0&
#16872205773
1&
#16872705773
0&
#16873944252
1&
#16874444252
0&
#16876208123
1&
#16876708123
0&
#16877943673
1&
#16878443673
0&
#16880219652
1&
#16880719652
0&
#16881943661
1&
#16882193661
0&
#16882443661
1&
#16882693661
0&
#16884220698
1&
#16884720698
0&
#16885944665
1&
#16886444665
0&
#16888216823
1&
#16888716823
0&
#16889944644
1&
#16890444644
0&
#16892216802
1&
#16892716802
0&
#16893943144
1&
#16894443144
0&
#16896205598
1&
#16896705598
0&
#16897944277
1&
#16898444277
0&
#16900220848
1&
#16900720848
0&
#16901944644
1&
#16902444644
0&
#16904219889
1&
#16904719889
0&
#16905944548
1&
#16906444548
0&
#16908219793
1&
#16908719793
0&
#16909944939
1&
#16910444939
0&
#16912206114
1&
#16912456114
0&
#16912706114
1&
#16912956114
0&
#16913943535
1&
#16914443535
0&
#16916201306
1&
#16916701306
0&
#16917943660
1&
#16918443660
0&
#16920216135
1&
#16920716135
0&
#16921941985
1&
#16922441985
0&
#16924212039
1&
#16924712039
0&
#16925943485
1&
#16926443485
0&
#16928222343
1&
#16928722343
0&
#16929943743
1&
#16930443743
0&
#16932222431
1&
#16932472431
0&
#16932722431
1&
#16932972431
0&
#16933943414
1&
#16934443414
0&
#16936205543
1&
#16936705543
0&
#16937944247
1&
#16938444247
0&
#16940220514
1&
#16940720514
0&
#16941944747
1&
#16942444747
0&
#16944210080
1&
#16944710080
0&
#16945944272
1&
#16946444272
0&
#16948216593
1&
#16948466593
0&
#16948716593
1&
#16948966593
0&
#16949942659
1&
#16950442659
0&
#16952220955
1&
#16952720955
0&
#16953944522
1&
#16954444522
0&
#16956199009
1&
#16956699009
0&
#16957941043
1&
#16958441043
0&
#16960207155
1&
#16960707155
0&
#16961942776
1&
#16962192776
0&
#16962442776
1&
#16962692776
0&
#16964221330
1&
#16964721330
0&
#16965943484
1&
#16966443484
0&
#16968205930
1&
#16968705930
0&
#16969943142
1&
#16970443142
0&
#16972211759
1&
#16972711759
0&
#16973944201
1&
#16974194201
0&
#16974444201
1&
#16974694201
0&
#16976215442
1&
#16976715442
0&
#16977944555
1&
#16978444555
0&
#16980207976
1&
#16980707976
0&
#16981943746
1&
#16982443746
0&
#16984216842
1&
#16984466842
0&
#16984716842
1&
#16984966842
0&
#16985940075
1&
#16986440075
0&
#16988208559
1&
#16988708559
0&
#16989943696
1&
#16990443696
0&
#16992211975
1&
#16992711975
0&
#16993943200
1&
#16994443200
0&
#16996212684
1&
#16996462684
0&
#16996712684
1&
#16996962684
0&
#16997942775
1&
#16998442775
0&
#17000217259
1&
#17000717259
0&
#17001942950
1&
#17002442950
0&
#17004210367
1&
#17004710367
0&
#17005945363
1&
#17006195363
0&
#17006445363
1&
#17006695363
0&
#17008209063
1&
#17008709063
0&
#17009942588
1&
#17010442588
0&
#17012211950
1&
#17012711950
0&
#17013942758
1&
#17014442758
0&
#17016216367
1&
#17016466367
0&
#17016716367
1&
#17016966367
0&
#17017943429
1&
#17018443429
0&
#17020218037
1&
#17020718037
0&
#17021942041
1&
#17022442041
0&
#17024217475
1&
#17024467475
0&
#17024717475
1&
#17024967475
0&
#17025944841
1&
#17026444841
0&
#17028221800
1&
#17028721800
0&
#17029943633
1&
#17030443633
0&
#17032201304
1&
#17032701304
0&
#17033942758
1&
#17034192758
0&
#17034442758
1&
#17034692758
0&
#17036222379
1&
#17036722379
0&
#17037942637
1&
#17038442637
0&
#17040199824
1&
#17040699824
0&
#17041944195
1&
#17042194195
0&
#17042444195
1&
#17042694195
0&
#17044216804
1&
#17044716804
0&
#17045941329
1&
#17046441329
0&
#17048209199
1&
#17048709199
0&
#17049944270
1&
#17050194270
0&
#17050444270
1&
#17050694270
0&
#17052220645
1&
#17052720645
0&
#17053943253
1&
#17054443253
0&
#17056216658
1&
#17056716658
0&
#17057944578
1&
#17058194578
0&
#17058444578
1&
#17058694578
0&
#17060222070
1&
#17060722070
0&
#17061943462
1&
#17062443462
0&
#17064216528
1&
#17064716528
0&
#17065943695
1&
#17066193695
0&
#17066443695
1&
#17066693695
0&
#17068201303
1&
#17068701303
0&
#17069944278
1&
#17070444278
0&
#17072214628
1&
#17072714628
0&
#17073945428
1&
#17074195428
0&
#17074445428
1&
#17074695428
0&
#17076205749
1&
#17076705749
0&
#17077944320
1&
#17078444320
0&
#17080219057
1&
#17080719057
0&
#17081945232
1&
#17082195232
0&
#17082445232
1&
#17082695232
0&
#17084210853
1&
#17084710853
0&
#17085943674
1&
#17086443674
0&
#17088215486
1&
#17088715486
0&
#17089945061
1&
#17090195061
0&
#17090445061
1&
#17090695061
0&
#17092210007
1&
#17092710007
0&
#17093944153
1&
#17094444153
0&
#17096216665
1&
#17096716665
0&
#17097943698
1&
#17098193698
0&
#17098443698
1&
#17098693698
0&
#17100202523
1&
#17100702523
0&
#17101943682
1&
#17102443682
0&
#17104210069
1&
#17104710069
0&
#17105945002
1&
#17106195002
0&
#17106445002
1&
#17106695002
0&
#17108205965
1&
#17108705965
0&
#17109942557
1&
#17110442557
0&
#17112206807
1&
#17112456807
0&
#17112706807
1&
#17112956807
0&
#17113945048
1&
#17114445048
0&
#17116206211
1&
#17116706211
0&
#17117944573
1&
#17118444573
0&
#17120202911
1&
#17120452911
0&
#17120702911
1&
#17120952911
0&
#17121944956
1&
#17122444956
0&
#17124218565
1&
#17124718565
0&
#17125942106
1&
#17126442106
0&
#17128212173
1&
#17128462173
0&
#17128712173
1&
#17128962173
0&
#17129943015
1&
#17130443015
0&
#17132200448
1&
#17132700448
0&
#17133942598
1&
#17134442598
0&
#17136212744
1&
#17136462744
0&
#17136712744
1&
#17136962744
0&
#17137942710
1&
#17138442710
0&
#17140220064
1&
#17140720064
0&
#17141945348
1&
#17142195348
0&
#17142445348
1&
#17142695348
0&
#17144214635
1&
#17144714635
0&
#17145944493
1&
#17146444493
0&
#17148215685
1&
#17148715685
0&
#17149942852
1&
#17150192852
0&
#17150442852
1&
#17150692852
0&
#17152215510
1&
#17152715510
0&
#17153945081
1&
#17154445081
0&
#17156205943
1&
#17156705943
0&
#17157943335
1&
#17158193335
0&
#17158443335
1&
#17158693335
0&
#17160206168
1&
#17160706168
0&
#17161943243
1&
#17162443243
0&
#17164203547
1&
#17164453547
0&
#17164703547
1&
#17164953547
0&
#17165944764
1&
#17166444764
0&
#17168217406
1&
#17168717406
0&
#17169943797
1&
#17170443797
0&
#17172207043
1&
#17172457043
0&
#17172707043
1&
#17172957043
0&
#17173943385
1&
#17174443385
0&
#17176219530
1&
#17176719530
0&
#17177944489
1&
#17178444489
0&
#17180219030
1&
#17180469030
0&
#17180719030
1&
#17180969030
0&
#17181943576
1&
#17182443576
0&
#17184205756
1&
#17184705756
0&
#17185943785
1&
#17186193785
0&
#17186443785
1&
#17186693785
0&
#17188222256
1&
#17188722256
0&
#17189943443
1&
#17190443443
0&
#17192219435
1&
#17192719435
0&
#17193945664
1&
#17194195664
0&
#17194445664
1&
#17194695664
0&
#17196205956
1&
#17196705956
0&
#17197943206
1&
#17198443206
0&
#17200222939
1&
#17200722939
0&
#17201945044
1&
#17202195044
0&
#17202445044
1&
#17202695044
0&
#17204208310
1&
#17204708310
0&
#17205944140
1&
#17206444140
0&
#17208222877
1&
#17208472877
0&
#17208722877
1&
#17208972877
0&
#17209943623
1&
#17210443623
0&
#17212209244
1&
#17212709244
0&
#17213944569
1&
#17214444569
0&
#17216209061
1&
#17216459061
0&
#17216709061
1&
#17216959061
0&
#17217942736
1&
#17218442736
0&
#17220217273
1&
#17220717273
0&
#17221943390
1&
#17222443390
0&
#17224222432
1&
#17224472432
0&
#17224722432
1&
#17224972432
0&
#17225943228
1&
#17226443228
0&
#17228201907
1&
#17228701907
0&
#17229943440
1&
#17230193440
0&
#17230443440
1&
#17230693440
0&
#17232221299
1&
#17232721299
0&
#17233942699
1&
#17234442699
0&
#17236219874
1&
#17236719874
0&
#17237945003
1&
#17238195003
0&
#17238445003
1&
#17238695003
0&
#17240208607
1&
#17240708607
0&
#17241944137
1&
#17242444137
0&
#17244211933
1&
#17244711933
0&
#17245942799
1&
#17246192799
0&
#17246442799
1&
#17246692799
0&
#17248219516
1&
#17248719516
0&
#17249944808
1&
#17250444808
0&
#17252208695
1&
#17252458695
0&
#17252708695
1&
#17252958695
0&
#17253944741
1&
#17254444741
0&
#17256207087
1&
#17256707087
0&
#17257942575
1&
#17258442575
0&
#17260220779
1&
#17260470779
0&
#17260720779
1&
#17260970779
0&
#17261944929
1&
#17262444929
0&
#17264205563
1&
#17264705563
0&
#17265943500
1&
#17266193500
0&
#17266443500
1&
#17266693500
0&
#17268220692
1&
#17268720692
0&
#17269944659
1&
#17270444659
0&
#17272210054
1&
#17272710054
0&
#17273942488
1&
#17274192488
0&
#17274442488
1&
#17274692488
0&
#17276215930
1&
#17276715930
0&
#17277942546
1&
#17278442546
0&
#17280220776
1&
#17280720776
0&
#17281945051
1&
#17282195051
0&
#17282445051
1&
#17282695051
0&
#17284212134
1&
#17284712134
0&
#17285942534
1&
#17286442534
0&
#17288201113
1&
#17288451113
0&
#17288701113
1&
#17288951113
0&
#17289943434
1&
#17290443434
0&
#17292214659
1&
#17292714659
0&
#17293944805
1&
#17294444805
0&
#17296216547
1&
#17296466547
0&
#17296716547
1&
#17296966547
0&
#17297942639
1&
#17298442639
0&
#17300216072
1&
#17300716072
0&
#17301943239
1&
#17302443239
0&
#17304203543
1&
#17304453543
0&
#17304703543
1&
#17304953543
0&
#17305944931
1&
#17306444931
0&
#17308205564
1&
#17308705564
0&
#17309943502
1&
#17310193502
0&
#17310443502
1&
#17310693502
0&
#17312221656
1&
#17312721656
0&
#17313942731
1&
#17314442731
0&
#17316214631
1&
#17316714631
0&
#17317945010
1&
#17318195010
0&
#17318445010
1&
#17318695010
0&
#17320205960
1&
#17320705960
0&
#17321943390
1&
#17322443390
0&
#17324207081
1&
#17324707081
0&
#17325943381
1&
#17326193381
0&
#17326443381
1&
#17326693381
0&
#17328208190
1&
#17328708190
0&
#17329944515
1&
#17330444515
0&
#17332221707
1&
#17332471707
0&
#17332721707
1&
#17332971707
0&
#17333943011
1&
#17334443011
0&
#17336217465
1&
#17336717465
0&
#17337943857
1&
#17338443857
0&
#17340214990
1&
#17340464990
0&
#17340714990
1&
#17340964990
0&
#17341943532
1&
#17342443532
0&
#17344215499
1&
#17344715499
0&
#17345944490
1&
#17346444490
0&
#17348199757
1&
#17348449757
0&
#17348699757
1&
#17348949757
0&
#17349942907
1&
#17350442907
0&
#17352208432
1&
#17352708432
0&
#17353944470
1&
#17354194470
0&
#17354444470
1&
#17354694470
0&
#17356222787
1&
#17356722787
0&
#17357943653
1&
#17358443653
0&
#17360223199
1&
#17360723199
0&
#17361944108
1&
#17362194108
0&
#17362444108
1&
#17362694108
0&
#17364211945
1&
#17364711945
0&
#17365941687
1&
#17366441687
0&
#17368214050
1&
#17368714050
0&
#17369945279
1&
#17370195279
0&
#17370445279
1&
#17370695279
0&
#17372214654
1&
#17372714654
0&
#17373944804
1&
#17374444804
0&
#17376221333
1&
#17376471333
0&
#17376721333
1&
#17376971333
0&
#17377942754
1&
#17378442754
0&
#17380203417
1&
#17380703417
0&
#17381943800
1&
#17382443800
0&
#17384207054
1&
#17384457054
0&
#17384707054
1&
#17384957054
0&
#17385943683
1&
#17386443683
0&
#17388222392
1&
#17388722392
0&
#17389944325
1&
#17390444325
0&
#17392216875
1&
#17392466875
0&
#17392716875
1&
#17392966875
0&
#17393941159
1&
#17394441159
0&
#17396216317
1&
#17396716317
0&
#17397945063
1&
#17398195063
0&
#17398445063
1&
#17398695063
0&
#17400205913
1&
#17400705913
0&
#17401944338
1&
#17402444338
0&
#17404216517
1&
#17404716517
0&
#17405943738
1&
#17406193738
0&
#17406443738
1&
#17406693738
0&
#17408221647
1&
#17408721647
0&
#17409944193
1&
#17410444193
0&
#17412216676
1&
#17412716676
0&
#17413942772
1&
#17414192772
0&
#17414442772
1&
#17414692772
0&
#17416222318
1&
#17416722318
0&
#17417943685
1&
#17418443685
0&
#17420223256
1&
#17420473256
0&
#17420723256
1&
#17420973256
0&
#17421943243
1&
#17422443243
0&
#17424210068
1&
#17424710068
0&
#17425944260
1&
#17426444260
0&
#17428206410
1&
#17428456410
0&
#17428706410
1&
#17428956410
0&
#17429943631
1&
#17430443631
0&
#17432222381
1&
#17432722381
0&
#17433943677
1&
#17434443677
0&
#17436216256
1&
#17436466256
0&
#17436716256
1&
#17436966256
0&
#17437943406
1&
#17438443406
0&
#17440217360
1&
#17440717360
0&
#17441944152
1&
#17442194152
0&
#17442444152
1&
#17442694152
0&
#17444219461
1&
#17444719461
0&
#17445945073
1&
#17446445073
0&
#17448214681
1&
#17448714681
0&
#17449945461
1&
#17450195461
0&
#17450445461
1&
#17450695461
0&
#17452214648
1&
#17452714648
0&
#17453944544
1&
#17454444544
0&
#17456217369
1&
#17456717369
0&
#17457944348
1&
#17458194348
0&
#17458444348
1&
#17458694348
0&
#17460223224
1&
#17460723224
0&
#17461943503
1&
#17462443503
0&
#17464217690
1&
#17464467690
0&
#17464717690
1&
#17464967690
0&
#17465942028
1&
#17466442028
0&
#17468215641
1&
#17468715641
0&
#17469943153
1&
#17470443153
0&
#17472219849
1&
#17472469849
0&
#17472719849
1&
#17472969849
0&
#17473944570
1&
#17474444570
0&
#17476206737
1&
#17476706737
0&
#17477943412
1&
#17478443412
0&
#17480206899
1&
#17480456899
0&
#17480706899
1&
#17480956899
0&
#17481941949
1&
#17482441949
0&
#17484212008
1&
#17484712008
0&
#17485942712
1&
#17486192712
0&
#17486442712
1&
#17486692712
0&
#17488203483
1&
#17488703483
0&
#17489944533
1&
#17490444533
0&
#17492205950
1&
#17492705950
0&
#17493943346
1&
#17494193346
0&
#17494443346
1&
#17494693346
0&
#17496210846
1&
#17496710846
0&
#17497943658
1&
#17498443658
0&
#17500219637
1&
#17500719637
0&
#17501944358
1&
#17502194358
0&
#17502444358
1&
#17502694358
0&
#17504221604
1&
#17504721604
0&
#17505942679
1&
#17506442679
0&
#17508206754
1&
#17508456754
0&
#17508706754
1&
#17508956754
0&
#17509943392
1&
#17510443392
0&
#17512222396
1&
#17512722396
0&
#17513942650
1&
#17514442650
0&
#17516220976
1&
#17516470976
0&
#17516720976
1&
#17516970976
0&
#17517945184
1&
#17518445184
0&
#17520205905
1&
#17520705905
0&
#17521942534
1&
#17522442534
0&
#17524222430
1&
#17524472430
0&
#17524722430
1&
#17524972430
0&
#17525942093
1&
#17526442093
0&
#17528213447
1&
#17528713447
0&
#17529942647
1&
#17530192647
0&
#17530442647
1&
#17530692647
0&
#17532208043
1&
#17532708043
0&
#17533943855
1&
#17534443855
0&
#17536217368
1&
#17536717368
0&
#17537944347
1&
#17538194347
0&
#17538444347
1&
#17538694347
0&
#17540209951
1&
#17540709951
0&
#17541942535
1&
#17542442535
0&
#17544205610
1&
#17544705610
0&
#17545942581
1&
#17546192581
0&
#17546442581
1&
#17546692581
0&
#17548200602
1&
#17548700602
0&
#17549943789
1&
#17550443789
0&
#17552216181
1&
#17552466181
0&
#17552716181
1&
#17552966181
0&
#17553943577
1&
#17554443577
0&
#17556208189
1&
#17556708189
0&
#17557944144
1&
#17558444144
0&
#17560209940
1&
#17560459940
0&
#17560709940
1&
#17560959940
0&
#17561944310
1&
#17562444310
0&
#17564216836
1&
#17564716836
0&
#17565943244
1&
#17566443244
0&
#17568222823
1&
#17568472823
0&
#17568722823
1&
#17568972823
0&
#17569944307
1&
#17570444307
0&
#17572216853
1&
#17572716853
0&
#17573944411
1&
#17574194411
0&
#17574444411
1&
#17574694411
0&
#17576222253
1&
#17576722253
0&
#17577940965
1&
#17578440965
0&
#17580211978
1&
#17580711978
0&
#17581944440
1&
#17582194440
0&
#17582444440
1&
#17582694440
0&
#17584199974
1&
#17584699974
0&
#17585943741
1&
#17586443741
0&
#17588222332
1&
#17588722332
0&
#17589943361
1&
#17590193361
0&
#17590443361
1&
#17590693361
0&
#17592210482
1&
#17592710482
0&
#17593944603
1&
#17594444603
0&
#17596222928
1&
#17596472928
0&
#17596722928
1&
#17596972928
0&
#17597943708
1&
#17598443708
0&
#17600223274
1&
#17600723274
0&
#17601941841
1&
#17602441841
0&
#17604220666
1&
#17604470666
0&
#17604720666
1&
#17604970666
0&
#17605944166
1&
#17606444166
0&
#17608212150
1&
#17608712150
0&
#17609942000
1&
#17610442000
0&
#17612217446
1&
#17612467446
0&
#17612717446
1&
#17612967446
0&
#17613944537
1&
#17614444537
0&
#17616207012
1&
#17616707012
0&
#17617943804
1&
#17618193804
0&
#17618443804
1&
#17618693804
0&
#17620216054
1&
#17620716054
0&
#17621944225
1&
#17622444225
0&
#17624216817
1&
#17624716817
0&
#17625943854
1&
#17626193854
0&
#17626443854
1&
#17626693854
0&
#17628215513
1&
#17628715513
0&
#17629943567
1&
#17630443567
0&
#17632209596
1&
#17632459596
0&
#17632709596
1&
#17632959596
0&
#17633944134
1&
#17634444134
0&
#17636222234
1&
#17636722234
0&
#17637941688
1&
#17638441688
0&
#17640212838
1&
#17640462838
0&
#17640712838
1&
#17640962838
0&
#17641943680
1&
#17642443680
0&
#17644204563
1&
#17644704563
0&
#17645943018
1&
#17646443018
0&
#17648210164
1&
#17648460164
0&
#17648710164
1&
#17648960164
0&
#17649941801
1&
#17650441801
0&
#17652220626
1&
#17652720626
0&
#17653943380
1&
#17654193380
0&
#17654443380
1&
#17654693380
0&
#17656222310
1&
#17656722310
0&
#17657943722
1&
#17658443722
0&
#17660220747
1&
#17660720747
0&
#17661945943
1&
#17662195943
0&
#17662445943
1&
#17662695943
0&
#17664212077
1&
#17664712077
0&
#17665942877
1&
#17666442877
0&
#17668203514
1&
#17668703514
0&
#17669944389
1&
#17670194389
0&
#17670444389
1&
#17670694389
0&
#17672216864
1&
#17672716864
0&
#17673943410
1&
#17674443410
0&
#17676207127
1&
#17676457127
0&
#17676707127
1&
#17676957127
0&
#17677943173
1&
#17678443173
0&
#17680214848
1&
