misc_scripts/vcds/simulation8.vcd
$version Generated by Wokwi.com $end
$date Thu, 18 Jun 2026 21:05:24 GMT $end
$timescale 1ns $end
$scope module logic $end
$var wire 1 ! D0 $end
$var wire 1 " D1 $end
$var wire 1 # D2 $end
$var wire 1 $ D3 $end
$var wire 1 % D4 $end
$var wire 1 & D5 $end
$upscope $end
$enddefinitions $end
#0
0!
#0
1"
#0
0#
#0
0$
#0
1%
#0
0&
#2394988873
0"
#2397145794
1$
#2397158710
0$
#2398358302
0%
#2401670673
1&
#2403718610
0&
#2410798673
1&
#2412412673
0&
#2417254673
1&
#2418571673
0&
#2422522673
1&
#2423663673
0&
#2427086673
1&
#2429128673
0&
#2431170673
1&
#2433033673
0&
#2434896673
1&
#2436621673
0&
#2438346673
1&
#2439960673
0&
#2441574673
1&
#2443097673
0&
#2444620673
1&
#2446064673
0&
#2447508673
1&
#2448886673
0&
#2450264673
1&
#2451581673
0&
#2452898673
1&
#2454165673
0&
#2455432673
1&
#2456652673
0&
#2457872673
1&
#2459051673
0&
#2460230673
1&
#2461371673
0&
#2462512673
1&
#2463620673
0&
#2464728673
1&
#2465805673
0&
#2466882673
1&
#2467930673
0&
#2468978673
1&
#2469999673
0&
#2471020673
1&
#2472017173
0&
#2473013673
1&
#2473987673
0&
#2474961673
1&
#2475913673
0&
#2476865673
1&
#2477797173
0&
#2478728673
1&
#2479641673
0&
#2480554673
1&
#2481450673
0&
#2482346673
1&
#2483225673
0&
#2484104673
1&
#2484967173
0&
#2485829673
1&
#2486676673
0&
#2487523673
1&
#2488357173
0&
#2489190673
1&
#2490010673
0&
#2490830673
1&
#2491637673
0&
#2492444673
1&
#2493239673
0&
#2494034673
1&
#2494817673
0&
#2495600673
1&
#2496372173
0&
#2497143673
1&
#2497905173
0&
#2498666673
1&
#2499417673
0&
#2500168673
1&
#2500909673
0&
#2501650673
1&
#2502381673
0&
#2503112673
1&
#2503834673
0&
#2504556673
1&
#2505270173
0&
#2505983673
1&
#2506688173
0&
#2507392673
1&
#2508089173
0&
#2508785673
1&
#2509474673
0&
#2510163673
1&
#2510844173
0&
#2511524673
1&
#2512197673
0&
#2512870673
1&
#2513536673
0&
#2514202673
1&
#2514861173
0&
#2515519673
1&
#2516172173
0&
#2516824673
1&
#2517470173
0&
#2518115673
1&
#2518755173
0&
#2519394673
1&
#2520028173
0&
#2520661673
1&
#2521289173
0&
#2521916673
1&
#2522538173
0&
#2523159673
1&
#2523775173
0&
#2524390673
1&
#2525000673
0&
#2525610673
1&
#2526215673
0&
#2526820673
1&
#2527419673
0&
#2528018673
1&
#2528612673
0&
#2529206673
1&
#2529796173
0&
#2530385673
1&
#2530970173
0&
#2531554673
1&
#2532134673
0&
#2532714673
1&
#2533289673
0&
#2533864673
1&
#2534435173
0&
#2535005673
1&
#2535571673
0&
#2536137673
1&
#2536700173
0&
#2537262673
1&
#2537820673
0&
#2538378673
1&
#2538932673
0&
#2539486673
1&
#2540036173
0&
#2540585673
1&
#2541131673
0&
#2541677673
1&
#2542219673
0&
#2542761673
1&
#2543300173
0&
#2543838673
1&
#2544373173
0&
#2544907673
1&
#2545439173
0&
#2545970673
1&
#2546498173
0&
#2547025673
1&
#2547549673
0&
#2548073673
1&
#2548594173
0&
#2549114673
1&
#2549631673
0&
#2550148673
1&
#2550662173
0&
#2551175673
1&
#2551686173
0&
#2552196673
1&
#2552703923
0&
#2553211173
1&
#2553715673
0&
#2554220173
1&
#2554721173
0&
#2555222173
1&
#2555720423
0&
#2556218673
1&
#2556710923
0&
#2557203173
1&
#2557695423
0&
#2558187673
1&
#2558674673
0&
#2559161673
1&
#2559648673
0&
#2560135673
1&
#2560616673
0&
#2561097673
1&
#2561578673
0&
#2562059673
1&
#2562535673
0&
#2563011673
1&
#2563487673
0&
#2563963673
1&
#2564434423
0&
#2564905173
1&
#2565375923
0&
#2565846673
1&
#2566312423
0&
#2566778173
1&
#2567243923
0&
#2567709673
1&
#2568171173
0&
#2568632673
1&
#2569094173
0&
#2569555673
1&
#2570012173
0&
#2570468673
1&
#2570925173
0&
#2571381673
1&
#2571833673
0&
#2572285673
1&
#2572737673
0&
#2573189673
1&
#2573637673
0&
#2574085673
1&
#2574533673
0&
#2574981673
1&
#2575425173
0&
#2575868673
1&
#2576312173
0&
#2576755673
1&
#2577195173
0&
#2577634673
1&
#2578074173
0&
#2578513673
1&
#2578948923
0&
#2579384173
1&
#2579819423
0&
#2580254673
1&
#2580685923
0&
#2581117173
1&
#2581548423
0&
#2581979673
1&
#2582407423
0&
#2582835173
1&
#2583262923
0&
#2583690673
1&
#2584114173
0&
#2584537673
1&
#2584961173
0&
#2585384673
1&
#2585804923
0&
#2586225173
1&
#2586645423
0&
#2587065673
1&
#2587482423
0&
#2587899173
1&
#2588315923
0&
#2588732673
1&
#2589146173
0&
#2589559673
1&
#2589973173
0&
#2590386673
1&
#2590796673
0&
#2591206673
1&
#2591616673
0&
#2592026673
1&
#2592433423
0&
#2592840173
1&
#2593246923
0&
#2593653673
1&
#2594057173
0&
#2594460673
1&
#2594864173
0&
#2595267673
1&
#2595667923
0&
#2596068173
1&
#2596468423
0&
#2596868673
1&
#2597266173
0&
#2597663673
1&
#2598061173
0&
#2598458673
1&
#2598852923
0&
#2599247173
1&
#2599641423
0&
#2600035673
1&
#2600427173
0&
#2600818673
1&
#2601210173
0&
#2601601673
1&
#2601990173
0&
#2602378673
1&
#2602767173
0&
#2603155673
1&
#2603541423
0&
#2603927173
1&
#2604312923
0&
#2604698673
1&
#2605081923
0&
#2605465173
1&
#2605848423
0&
#2606231673
1&
#2606612423
0&
#2606993173
1&
#2607373923
0&
#2607754673
1&
#2608132673
0&
#2608510673
1&
#2608888673
0&
#2609266673
1&
#2609642173
0&
#2610017673
1&
#2610393173
0&
#2610768673
1&
#2611141673
0&
#2611514673
1&
#2611887673
0&
#2612260673
1&
#2612631173
0&
#2613001673
1&
#2613372173
0&
#2613742673
1&
#2614110673
0&
#2614478673
1&
#2614846673
0&
#2615214673
1&
#2615580173
0&
#2615945673
1&
#2616311173
0&
#2616676673
1&
#2617039673
0&
#2617402673
1&
#2617765673
0&
#2618128673
1&
#2618489673
0&
#2618850673
1&
#2619211673
0&
#2619572673
1&
#2619931423
0&
#2620290173
1&
#2620648923
0&
#2621007673
1&
#2621364423
0&
#2621721173
1&
#2622077923
0&
#2622434673
1&
#2622788923
0&
#2623143173
1&
#2623497423
0&
#2623851673
1&
#2624203923
0&
#2624556173
1&
#2624908423
0&
#2625260673
1&
#2625610673
0&
#2625960673
1&
#2626310673
0&
#2626660673
1&
#2627008923
0&
#2627357173
1&
#2627705423
0&
#2628053673
1&
#2628399923
0&
#2628746173
1&
#2629092423
0&
#2629438673
1&
#2629783173
0&
#2630127673
1&
#2630472173
0&
#2630816673
1&
#2631158673
0&
#2631500673
1&
#2631842673
0&
#2632184673
1&
#2632524923
0&
#2632865173
1&
#2633205423
0&
#2633545673
1&
#2633883923
0&
#2634222173
1&
#2634560423
0&
#2634898673
1&
#2635235173
0&
#2635571673
1&
#2635908173
0&
#2636244673
1&
#2636579423
0&
#2636914173
1&
#2637248923
0&
#2637583673
1&
#2637916673
0&
#2638249673
1&
#2638582673
0&
#2638915673
1&
#2639245923
0&
#2639576173
1&
#2639906423
0&
#2640236673
1&
#2640566923
0&
#2640897173
1&
#2641225173
0&
#2641553173
1&
#2641881173
0&
#2642209173
1&
#2642537173
0&
#2642865173
1&
#2643190673
0&
#2643516173
1&
#2643841673
0&
#2644167173
1&
#2644492673
0&
#2644818173
1&
#2645140923
0&
#2645463673
1&
#2645786423
0&
#2646109173
1&
#2646431923
0&
#2646754673
1&
#2647075173
0&
#2647395673
1&
#2647716173
0&
#2648036673
1&
#2648357173
0&
#2648677673
1&
#2648995673
0&
#2649313673
1&
#2649631673
0&
#2649949673
1&
#2650267673
0&
#2650585673
1&
#2650901423
0&
#2651217173
1&
#2651532923
0&
#2651848673
1&
#2652164423
0&
#2652480173
1&
#2652793923
0&
#2653107673
1&
#2653421423
0&
#2653735173
1&
#2654048923
0&
#2654362673
1&
#2654674173
0&
#2654985673
1&
#2655297173
0&
#2655608673
1&
#2655920173
0&
#2656231673
1&
#2656540673
0&
#2656849673
1&
#2657158673
0&
#2657467673
1&
#2657776673
0&
#2658085673
1&
#2658392673
0&
#2658699673
1&
#2659006673
0&
#2659313673
1&
#2659620673
0&
#2659927673
1&
#2660234673
0&
#2660541673
1&
#2660848673
0&
#2661155673
1&
#2661464673
0&
#2661773673
1&
#2662082673
0&
#2662391673
1&
#2662700673
0&
#2663009673
1&
#2663321173
0&
#2663632673
1&
#2663944173
0&
#2664255673
1&
#2664567173
0&
#2664878673
1&
#2665192423
0&
#2665506173
1&
#2665819923
0&
#2666133673
1&
#2666447423
0&
#2666761173
1&
#2667076923
0&
#2667392673
1&
#2667708423
0&
#2668024173
1&
#2668339923
0&
#2668655673
1&
#2668973673
0&
#2669291673
1&
#2669609673
0&
#2669927673
1&
#2670245673
0&
#2670563673
1&
#2670884173
0&
#2671204673
1&
#2671525173
0&
#2671845673
1&
#2672166173
0&
#2672486673
1&
#2672809423
0&
#2673132173
1&
#2673454923
0&
#2673777673
1&
#2674100423
0&
#2674423173
1&
#2674748673
0&
#2675074173
1&
#2675399673
0&
#2675725173
1&
#2676050673
0&
#2676376173
1&
#2676704173
0&
#2677032173
1&
#2677360173
0&
#2677688173
1&
#2678016173
0&
#2678344173
1&
#2678674423
0&
#2679004673
1&
#2679334923
0&
#2679665173
1&
#2679995423
0&
#2680325673
1&
#2680658673
0&
#2680991673
1&
#2681324673
0&
#2681657673
1&
#2681990673
0&
#2682323673
1&
#2682659173
0&
#2682994673
1&
#2683330173
0&
#2683665673
1&
#2684001173
0&
#2684336673
1&
#2684674173
0&
#2685011673
1&
#2685349173
0&
#2685686673
1&
#2686025923
0&
#2686365173
1&
#2686704423
0&
#2687043673
1&
#2687384673
0&
#2687725673
1&
#2688066673
0&
#2688407673
1&
#2688750673
0&
#2689093673
1&
#2689436673
0&
#2689779673
1&
#2690124923
0&
#2690470173
1&
#2690815423
0&
#2691160673
1&
#2691507923
0&
#2691855173
1&
#2692202423
0&
#2692549673
1&
#2692898673
0&
#2693247673
1&
#2693596673
0&
#2693945673
1&
#2694296673
0&
#2694647673
1&
#2694998673
0&
#2695349673
1&
#2695702923
0&
#2696056173
1&
#2696409423
0&
#2696762673
1&
#2697117923
0&
#2697473173
1&
#2697828423
0&
#2698183673
1&
#2698541423
0&
#2698899173
1&
#2699256923
0&
#2699614673
1&
#2699974173
0&
#2700333673
1&
#2700693173
0&
#2701052673
1&
#2701414673
0&
#2701776673
1&
#2702138673
0&
#2702500673
1&
#2702865173
0&
#2703229673
1&
#2703594173
0&
#2703958673
1&
#2704325173
0&
#2704691673
1&
#2705058173
0&
#2705424673
1&
#2705793673
0&
#2706162673
1&
#2706531673
0&
#2706900673
1&
#2707272173
0&
#2707643673
1&
#2708015173
0&
#2708386673
1&
#2708760673
0&
#2709134673
1&
#2709508673
0&
#2709882673
1&
#2710259173
0&
#2710635673
1&
#2711012173
0&
#2711388673
1&
#2711767673
0&
#2712146673
1&
#2712525673
0&
#2712904673
1&
#2713286423
0&
#2713668173
1&
#2714049923
0&
#2714431673
1&
#2714815923
0&
#2715200173
1&
#2715584423
0&
#2715968673
1&
#2716356173
0&
#2716743673
1&
#2717131173
0&
#2717518673
1&
#2717908673
0&
#2718298673
1&
#2718688673
0&
#2719078673
1&
#2719471423
0&
#2719864173
1&
#2720256923
0&
#2720649673
1&
#2721045673
0&
#2721441673
1&
#2721837673
0&
#2722233673
1&
#2722632673
0&
#2723031673
1&
#2723430673
0&
#2723829673
1&
#2724231423
0&
#2724633173
1&
#2725034923
0&
#2725436673
1&
#2725841923
0&
#2726247173
1&
#2726652423
0&
#2727057673
1&
#2727466173
0&
#2727874673
1&
#2728283173
0&
#2728691673
1&
#2729103423
0&
#2729515173
1&
#2729926923
0&
#2730338673
1&
#2730753923
0&
#2731169173
1&
#2731584423
0&
#2731999673
1&
#2732418173
0&
#2732836673
1&
#2733255173
0&
#2733673673
1&
#2734095673
0&
#2734517673
1&
#2734939673
0&
#2735361673
1&
#2735787673
0&
#2736213673
1&
#2736639673
0&
#2737065673
1&
#2737494923
0&
#2737924173
1&
#2738353423
0&
#2738782673
1&
#2739216173
0&
#2739649673
1&
#2740083173
0&
#2740516673
1&
#2740953673
0&
#2741390673
1&
#2741827673
0&
#2742264673
1&
#2742705923
0&
#2743147173
1&
#2743588423
0&
#2744029673
1&
#2744475173
0&
#2744920673
1&
#2745366173
0&
#2745811673
1&
#2746261173
0&
#2746710673
1&
#2747160173
0&
#2747609673
1&
#2748064173
0&
#2748518673
1&
#2748973173
0&
#2749427673
1&
#2749886673
0&
#2750345673
1&
#2750804673
0&
#2751263673
1&
#2751727673
0&
#2752191673
1&
#2752655673
0&
#2753119673
1&
#2753587923
0&
#2754056173
1&
#2754524423
0&
#2754992673
1&
#2755465923
0&
#2755939173
1&
#2756412423
0&
#2756885673
1&
#2757364173
0&
#2757842673
1&
#2758321173
0&
#2758799673
1&
#2759283423
0&
#2759767173
1&
#2760250923
0&
#2760734673
1&
#2761224423
0&
#2761714173
1&
#2762203923
0&
#2762693673
1&
#2763188673
0&
#2763683673
1&
#2764178673
0&
#2764673673
1&
#2765174673
0&
#2765675673
1&
#2766176673
0&
#2766677673
1&
#2767182173
0&
#2767686673
1&
#2768193923
0&
#2768701173
1&
#2769211673
0&
#2769722173
1&
#2770235673
0&
#2770749173
1&
#2771266173
0&
#2771783173
1&
#2772303673
0&
#2772824173
1&
#2773348173
0&
#2773872173
1&
#2774399673
0&
#2774927173
1&
#2775458673
0&
#2775990173
1&
#2776524673
0&
#2777059173
1&
#2777597673
0&
#2778136173
1&
#2778678173
0&
#2779220173
1&
#2779766173
0&
#2780312173
1&
#2780861673
0&
#2781411173
1&
#2781965173
0&
#2782519173
1&
#2783077173
0&
#2783635173
1&
#2784197673
0&
#2784760173
1&
#2785326173
0&
#2785892173
1&
#2786462673
0&
#2787033173
1&
#2787608173
0&
#2788183173
1&
#2788763173
0&
#2789343173
1&
#2789927673
0&
#2790512173
1&
#2791101673
0&
#2791691173
1&
#2792285173
0&
#2792879173
1&
#2793478173
0&
#2794077173
1&
#2794682173
0&
#2795287173
1&
#2795897173
0&
#2796507173
1&
#2797122673
0&
#2797738173
1&
#2798359673
0&
#2798981173
1&
#2799608673
0&
#2800236173
1&
#2800869673
0&
#2801503173
1&
#2802142673
0&
#2802782173
1&
#2803427673
0&
#2804073173
1&
#2804725673
0&
#2805378173
1&
#2806036673
0&
#2806695173
1&
#2807361173
0&
#2808027173
1&
#2808700173
0&
#2809373173
1&
#2810053673
0&
#2810734173
1&
#2811423173
0&
#2812112173
1&
#2812808673
0&
#2813505173
1&
#2814209673
0&
#2814914173
1&
#2815627673
0&
#2816341173
1&
#2817063173
0&
#2817785173
1&
#2818516173
0&
#2819247173
1&
#2819988173
0&
#2820729173
1&
#2821480173
0&
#2822231173
1&
#2822992673
0&
#2823754173
1&
#2824525673
0&
#2825297173
1&
#2826080173
0&
#2826863173
1&
#2827658173
0&
#2828453173
1&
#2829260173
0&
#2830067173
1&
#2830887173
0&
#2831707173
1&
#2832540673
0&
#2833374173
1&
#2834221173
0&
#2835068173
1&
#2835930673
0&
#2836793173
1&
#2837672173
0&
#2838551173
1&
#2839447173
0&
#2840343173
1&
#2841256173
0&
#2842169173
1&
#2843100673
0&
#2844032173
1&
#2844984173
0&
#2845936173
1&
#2846910173
0&
#2847884173
1&
#2848880673
0&
#2849877173
1&
#2850898173
0&
#2851919173
1&
#2852967173
0&
#2854015173
1&
#2855092173
0&
#2856169173
1&
#2857277173
0&
#2858385173
1&
#2859526173
0&
#2860667173
1&
#2861846173
0&
#2863025173
1&
#2864245173
0&
#2865465173
1&
#2866732173
0&
#2867999173
1&
#2869316173
0&
#2870633173
1&
#2872011173
0&
#2873389173
1&
#2874833173
0&
#2876277173
1&
#2877800173
0&
#2879323173
1&
#2880937173
0&
#2882551173
1&
#2884276173
0&
#2886001173
1&
#2887864173
0&
#2889727173
1&
#2891769173
0&
#2893811173
1&
#2894952173
0&
#2898375173
1&
#2899692173
0&
#2903643173
1&
#2905257173
0&
#2910099173
1&
#2912147110
0&
#2919227173
1&
#2921275110
0&
#2929570452
1&
#2931618389
0&
#2938698452
1&
#2940312452
0&
#2945154452
1&
#2946471452
0&
#2950422452
1&
#2951563452
0&
#2954986452
1&
#2957028452
0&
#2959070452
1&
#2960933452
0&
#2962796452
1&
#2964521452
0&
#2966246452
1&
#2967860452
0&
#2969474452
1&
#2970997452
0&
#2972520452
1&
#2973964452
0&
#2975408452
1&
#2976786452
0&
#2978164452
1&
#2979481452
0&
#2980798452
1&
#2982065452
0&
#2983332452
1&
#2984552452
0&
#2985772452
1&
#2986951452
0&
#2988130452
1&
#2989271452
0&
#2990412452
1&
#2991520452
0&
#2992628452
1&
#2993705452
0&
#2994782452
1&
#2995830452
0&
#2996878452
1&
#2997899452
0&
#2998920452
1&
#2999916952
0&
#3000913452
1&
#3001887452
0&
#3002861452
1&
#3003813452
0&
#3004765452
1&
#3005696952
0&
#3006628452
1&
#3007541452
0&
#3008454452
1&
#3009350452
0&
#3010246452
1&
#3011125452
0&
#3012004452
1&
#3012866952
0&
#3013729452
1&
#3014576452
0&
#3015423452
1&
#3016256952
0&
#3017090452
1&
#3017910452
0&
#3018730452
1&
#3019537452
0&
#3020344452
1&
#3021139452
0&
#3021934452
1&
#3022717452
0&
#3023500452
1&
#3024271952
0&
#3025043452
1&
#3025804952
0&
#3026566452
1&
#3027317452
0&
#3028068452
1&
#3028809452
0&
#3029550452
1&
#3030281452
0&
#3031012452
1&
#3031734452
0&
#3032456452
1&
#3033169952
0&
#3033883452
1&
#3034587952
0&
#3035292452
1&
#3035988952
0&
#3036685452
1&
#3037374452
0&
#3038063452
1&
#3038743952
0&
#3039424452
1&
#3040097452
0&
#3040770452
1&
#3041436452
0&
#3042102452
1&
#3042760952
0&
#3043419452
1&
#3044071952
0&
#3044724452
1&
#3045369952
0&
#3046015452
1&
#3046654952
0&
#3047294452
1&
#3047927952
0&
#3048561452
1&
#3049188952
0&
#3049816452
1&
#3050437952
0&
#3051059452
1&
#3051674952
0&
#3052290452
1&
#3052900452
0&
#3053510452
1&
#3054115452
0&
#3054720452
1&
#3055319452
0&
#3055918452
1&
#3056512452
0&
#3057106452
1&
#3057695952
0&
#3058285452
1&
#3058869952
0&
#3059454452
1&
#3060034452
0&
#3060614452
1&
#3061189452
0&
#3061764452
1&
#3062334952
0&
#3062905452
1&
#3063471452
0&
#3064037452
1&
#3064599952
0&
#3065162452
1&
#3065720452
0&
#3066278452
1&
#3066832452
0&
#3067386452
1&
#3067935952
0&
#3068485452
1&
#3069031452
0&
#3069577452
1&
#3070119452
0&
#3070661452
1&
#3071199952
0&
#3071738452
1&
#3072272952
0&
#3072807452
1&
#3073338952
0&
#3073870452
1&
#3074397952
0&
#3074925452
1&
#3075449452
0&
#3075973452
1&
#3076493952
0&
#3077014452
1&
#3077531452
0&
#3078048452
1&
#3078561952
0&
#3079075452
1&
#3079585952
0&
#3080096452
1&
#3080603702
0&
#3081110952
1&
#3081615452
0&
#3082119952
1&
#3082620952
0&
#3083121952
1&
#3083620202
0&
#3084118452
1&
#3084610702
0&
#3085102952
1&
#3085595202
0&
#3086087452
1&
#3086574452
0&
#3087061452
1&
#3087548452
0&
#3088035452
1&
#3088516452
0&
#3088997452
1&
#3089478452
0&
#3089959452
1&
#3090435452
0&
#3090911452
1&
#3091387452
0&
#3091863452
1&
#3092334202
0&
#3092804952
1&
#3093275702
0&
#3093746452
1&
#3094212202
0&
#3094677952
1&
#3095143702
0&
#3095609452
1&
#3096070952
0&
#3096532452
1&
#3096993952
0&
#3097455452
1&
#3097911952
0&
#3098368452
1&
#3098824952
0&
#3099281452
1&
#3099733452
0&
#3100185452
1&
#3100637452
0&
#3101089452
1&
#3101537452
0&
#3101985452
1&
#3102433452
0&
#3102881452
1&
#3103324952
0&
#3103768452
1&
#3104211952
0&
#3104655452
1&
#3105094952
0&
#3105534452
1&
#3105973952
0&
#3106413452
1&
#3106848702
0&
#3107283952
1&
#3107719202
0&
#3108154452
1&
#3108585702
0&
#3109016952
1&
#3109448202
0&
#3109879452
1&
#3110307202
0&
#3110734952
1&
#3111162702
0&
#3111590452
1&
#3112013952
0&
#3112437452
1&
#3112860952
0&
#3113284452
1&
#3113704702
0&
#3114124952
1&
#3114545202
0&
#3114965452
1&
#3115382202
0&
#3115798952
1&
#3116215702
0&
#3116632452
1&
#3117045952
0&
#3117459452
1&
#3117872952
0&
#3118286452
1&
#3118696452
0&
#3119106452
1&
#3119516452
0&
#3119926452
1&
#3120333202
0&
#3120739952
1&
#3121146702
0&
#3121553452
1&
#3121956952
0&
#3122360452
1&
#3122763952
0&
#3123167452
1&
#3123567702
0&
#3123967952
1&
#3124368202
0&
#3124768452
1&
#3125165952
0&
#3125563452
1&
#3125960952
0&
#3126358452
1&
#3126752702
0&
#3127146952
1&
#3127541202
0&
#3127935452
1&
#3128326952
0&
#3128718452
1&
#3129109952
0&
#3129501452
1&
#3129889952
0&
#3130278452
1&
#3130666952
0&
#3131055452
1&
#3131441202
0&
#3131826952
1&
#3132212702
0&
#3132598452
1&
#3132981702
0&
#3133364952
1&
#3133748202
0&
#3134131452
1&
#3134512202
0&
#3134892952
1&
#3135273702
0&
#3135654452
1&
#3136032452
0&
#3136410452
1&
#3136788452
0&
#3137166452
1&
#3137541952
0&
#3137917452
1&
#3138292952
0&
#3138668452
1&
#3139041452
0&
#3139414452
1&
#3139787452
0&
#3140160452
1&
#3140530952
0&
#3140901452
1&
#3141271952
0&
#3141642452
1&
#3142010452
0&
#3142378452
1&
#3142746452
0&
#3143114452
1&
#3143479952
0&
#3143845452
1&
#3144210952
0&
#3144576452
1&
#3144939452
0&
#3145302452
1&
#3145665452
0&
#3146028452
1&
#3146389452
0&
#3146750452
1&
#3147111452
0&
#3147472452
1&
#3147831202
0&
#3148189952
1&
#3148548702
0&
#3148907452
1&
#3149264202
0&
#3149620952
1&
#3149977702
0&
#3150334452
1&
#3150688702
0&
#3151042952
1&
#3151397202
0&
#3151751452
1&
#3152103702
0&
#3152455952
1&
#3152808202
0&
#3153160452
1&
#3153510452
0&
#3153860452
1&
#3154210452
0&
#3154560452
1&
#3154908702
0&
#3155256952
1&
#3155605202
0&
#3155953452
1&
#3156299702
0&
#3156645952
1&
#3156992202
0&
#3157338452
1&
#3157682952
0&
#3158027452
1&
#3158371952
0&
#3158716452
1&
#3159058452
0&
#3159400452
1&
#3159742452
0&
#3160084452
1&
#3160424702
0&
#3160764952
1&
#3161105202
0&
#3161445452
1&
#3161783702
0&
#3162121952
1&
#3162460202
0&
#3162798452
1&
#3163134952
0&
#3163471452
1&
#3163807952
0&
#3164144452
1&
#3164479202
0&
#3164813952
1&
#3165148702
0&
#3165483452
1&
#3165816452
0&
#3166149452
1&
#3166482452
0&
#3166815452
1&
#3167145702
0&
#3167475952
1&
#3167806202
0&
#3168136452
1&
#3168466702
0&
#3168796952
1&
#3169124952
0&
#3169452952
1&
#3169780952
0&
#3170108952
1&
#3170436952
0&
#3170764952
1&
#3171090452
0&
#3171415952
1&
#3171741452
0&
#3172066952
1&
#3172392452
0&
#3172717952
1&
#3173040702
0&
#3173363452
1&
#3173686202
0&
#3174008952
1&
#3174331702
0&
#3174654452
1&
#3174974952
0&
#3175295452
1&
#3175615952
0&
#3175936452
1&
#3176256952
0&
#3176577452
1&
#3176895452
0&
#3177213452
1&
#3177531452
0&
#3177849452
1&
#3178167452
0&
#3178485452
1&
#3178801202
0&
#3179116952
1&
#3179432702
0&
#3179748452
1&
#3180064202
0&
#3180379952
1&
#3180693702
0&
#3181007452
1&
#3181321202
0&
#3181634952
1&
#3181948702
0&
#3182262452
1&
#3182573952
0&
#3182885452
1&
#3183196952
0&
#3183508452
1&
#3183819952
0&
#3184131452
1&
#3184440452
0&
#3184749452
1&
#3185058452
0&
#3185367452
1&
#3185676452
0&
#3185985452
1&
#3186292452
0&
#3186599452
1&
#3186906452
0&
#3187213452
1&
#3187520452
0&
#3187827452
1&
#3188132452
0&
#3188437452
1&
#3188742452
0&
#3189047452
1&
#3189352452
0&
#3189657452
1&
#3189960702
0&
#3190263952
1&
#3190567202
0&
#3190870452
1&
#3191173702
0&
#3191476952
1&
#3191778202
0&
#3192079452
1&
#3192380702
0&
#3192681952
1&
#3192983202
0&
#3193284452
1&
#3193583702
0&
#3193882952
1&
#3194182202
0&
#3194481452
1&
#3194780702
0&
#3195079952
1&
#3195376952
0&
#3195673952
1&
#3195970952
0&
#3196267952
1&
#3196564952
0&
#3196861952
1&
#3197157452
0&
#3197452952
1&
#3197748452
0&
#3198043952
1&
#3198339452
0&
#3198634952
1&
#3198928452
0&
#3199221952
1&
#3199515452
0&
#3199808952
1&
#3200102452
0&
#3200395952
1&
#3200687452
0&
#3200978952
1&
#3201270452
0&
#3201561952
1&
#3201853452
0&
#3202144952
1&
#3202434952
0&
#3202724952
1&
#3203014952
0&
#3203304952
1&
#3203594952
0&
#3203884952
1&
#3204172952
0&
#3204460952
1&
#3204748952
0&
#3205036952
1&
#3205324952
0&
#3205612952
1&
#3205899452
0&
#3206185952
1&
#3206472452
0&
#3206758952
1&
#3207045452
0&
#3207331952
1&
#3207616952
0&
#3207901952
1&
#3208186952
0&
#3208471952
1&
#3208756952
0&
#3209041952
1&
#3209325452
0&
#3209608952
1&
#3209892452
0&
#3210175952
1&
#3210459452
0&
#3210742952
1&
#3211024452
0&
#3211305952
1&
#3211587452
0&
#3211868952
1&
#3212150452
0&
#3212431952
1&
#3212711952
0&
#3212991952
1&
#3213271952
0&
#3213551952
1&
#3213831952
0&
#3214111952
1&
#3214390452
0&
#3214668952
1&
#3214947452
0&
#3215225952
1&
#3215504452
0&
#3215782952
1&
#3216059952
0&
#3216336952
1&
#3216613952
0&
#3216890952
1&
#3217167952
0&
#3217444952
1&
#3217720452
0&
#3217995952
1&
#3218271452
0&
#3218546952
1&
#3218822452
0&
#3219097952
1&
#3219371952
0&
#3219645952
1&
#3219919952
0&
#3220193952
1&
#3220467952
0&
#3220741952
1&
#3221014452
0&
#3221286952
1&
#3221559452
0&
#3221831952
1&
#3222104452
0&
#3222376952
1&
#3222647952
0&
#3222918952
1&
#3223189952
0&
#3223460952
1&
#3223731952
0&
#3224002952
1&
#3224272452
0&
#3224541952
1&
#3224811452
0&
#3225080952
1&
#3225350452
0&
#3225619952
1&
#3225887952
0&
#3226155952
1&
#3226423952
0&
#3226691952
1&
#3226959952
0&
#3227227952
1&
#3227494952
0&
#3227761952
1&
#3228028952
0&
#3228295952
1&
#3228562952
0&
#3228829952
1&
#3229095702
0&
#3229361452
1&
#3229627202
0&
#3229892952
1&
#3230158702
0&
#3230424452
1&
#3230688702
0&
#3230952952
1&
#3231217202
0&
#3231481452
1&
#3231745702
0&
#3232009952
1&
#3232272702
0&
#3232535452
1&
#3232798202
0&
#3233060952
1&
#3233323702
0&
#3233586452
1&
#3233847952
0&
#3234109452
1&
#3234370952
0&
#3234632452
1&
#3234893952
0&
#3235155452
1&
#3235415702
0&
#3235675952
1&
#3235936202
0&
#3236196452
1&
#3236456702
0&
#3236716952
1&
#3236975702
0&
#3237234452
1&
#3237493202
0&
#3237751952
1&
#3238010702
0&
#3238269452
1&
#3238527202
0&
#3238784952
1&
#3239042702
0&
#3239300452
1&
#3239558202
0&
#3239815952
1&
#3240072452
0&
#3240328952
1&
#3240585452
0&
#3240841952
1&
#3241098452
0&
#3241354952
1&
#3241610202
0&
#3241865452
1&
#3242120702
0&
#3242375952
1&
#3242631202
0&
#3242886452
1&
#3243140702
0&
#3243394952
1&
#3243649202
0&
#3243903452
1&
#3244157702
0&
#3244411952
1&
#3244664827
0&
#3244917702
1&
#3245170577
0&
#3245423452
1&
#3245676327
0&
#3245929202
1&
#3246181077
0&
#3246432952
1&
#3246684827
0&
#3246936702
1&
#3247188577
0&
#3247440452
1&
#3247690952
0&
#3247941452
1&
#3248191952
0&
#3248442452
1&
#3248692952
0&
#3248943452
1&
#3249192952
0&
#3249442452
1&
#3249691952
0&
#3249941452
1&
#3250190952
0&
#3250440452
1&
#3250688702
0&
#3250936952
1&
#3251185202
0&
#3251433452
1&
#3251681702
0&
#3251929952
1&
#3252178202
0&
#3252426452
1&
#3252672952
0&
#3252919452
1&
#3253165952
0&
#3253412452
1&
#3253658952
0&
#3253905452
1&
#3254151952
0&
#3254398452
1&
#3254643577
0&
#3254888702
1&
#3255133827
0&
#3255378952
1&
#3255624077
0&
#3255869202
1&
#3256114327
0&
#3256359452
1&
#3256603327
0&
#3256847202
1&
#3257091077
0&
#3257334952
1&
#3257578827
0&
#3257822702
1&
#3258066577
0&
#3258310452
1&
#3258552952
0&
#3258795452
1&
#3259037952
0&
#3259280452
1&
#3259522952
0&
#3259765452
1&
#3260007952
0&
#3260250452
1&
#3260491327
0&
#3260732202
1&
#3260973077
0&
#3261213952
1&
#3261454827
0&
#3261695702
1&
#3261936577
0&
#3262177452
1&
#3262417077
0&
#3262656702
1&
#3262896327
0&
#3263135952
1&
#3263375577
0&
#3263615202
1&
#3263854827
0&
#3264094452
1&
#3264332827
0&
#3264571202
1&
#3264809577
0&
#3265047952
1&
#3265286327
0&
#3265524702
1&
#3265763077
0&
#3266001452
1&
#3266238452
0&
#3266475452
1&
#3266712452
0&
#3266949452
1&
#3267186452
0&
#3267423452
1&
#3267660452
0&
#3267897452
1&
#3268133202
0&
#3268368952
1&
#3268604702
0&
#3268840452
1&
#3269076202
0&
#3269311952
1&
