misc_scripts/vcds/simulation4.vcd
$version Generated by Wokwi.com $end
$date Wed, 17 Jun 2026 20:34:15 GMT $end
$timescale 1ns $end
$scope module logic $end
$var wire 1 ! D0 $end
$var wire 1 " D1 $end
$var wire 1 # D2 $end
$var wire 1 $ D3 $end
$var wire 1 % D4 $end
$var wire 1 & D5 $end
$upscope $end
$enddefinitions $end
#0
0!
#0
1"
#0
1#
#0
0$
#0
1%
#0
1&
#2387912869
0"
#2389064569
0#
#2390069790
1$
#2390082706
0$
#2391282298
0%
#2392499802
0&
#2394594777
1&
#2396642715
0&
#2403722777
1&
#2405336777
0&
#2410178777
1&
#2411495777
0&
#2415446777
1&
#2416587777
0&
#2420010777
1&
#2422052777
0&
#2424094777
1&
#2425957777
0&
#2427820777
1&
#2429545777
0&
#2431270777
1&
#2432884777
0&
#2434498777
1&
#2436021777
0&
#2437544777
1&
#2438988777
0&
#2440432777
1&
#2441810777
0&
#2443188777
1&
#2444505777
0&
#2445822777
1&
#2447089777
0&
#2448356777
1&
#2449576777
0&
#2450796777
1&
#2451975777
0&
#2453154777
1&
#2454295777
0&
#2455436777
1&
#2456544777
0&
#2457652777
1&
#2458729777
0&
#2459806777
1&
#2460854777
0&
#2461902777
1&
#2462923777
0&
#2463944777
1&
#2464941277
0&
#2465937777
1&
#2466911777
0&
#2467885777
1&
#2468837777
0&
#2469789777
1&
#2470721277
0&
#2471652777
1&
#2472565777
0&
#2473478777
1&
#2474374777
0&
#2475270777
1&
#2476149777
0&
#2477028777
1&
#2477891277
0&
#2478753777
1&
#2479600777
0&
#2480447777
1&
#2481281277
0&
#2482114777
1&
#2482934777
0&
#2483754777
1&
#2484561777
0&
#2485368777
1&
#2486163777
0&
#2486958777
1&
#2487741777
0&
#2488524777
1&
#2489296277
0&
#2490067777
1&
#2490829277
0&
#2491590777
1&
#2492341777
0&
#2493092777
1&
#2493833777
0&
#2494574777
1&
#2495305777
0&
#2496036777
1&
#2496758777
0&
#2497480777
1&
#2498194277
0&
#2498907777
1&
#2499612277
0&
#2500316777
1&
#2501013277
0&
#2501709777
1&
#2502398777
0&
#2503087777
1&
#2503768277
0&
#2504448777
1&
#2505121777
0&
#2505794777
1&
#2506460777
0&
#2507126777
1&
#2507785277
0&
#2508443777
1&
#2509096277
0&
#2509748777
1&
#2510394277
0&
#2511039777
1&
#2511679277
0&
#2512318777
1&
#2512952277
0&
#2513585777
1&
#2514213277
0&
#2514840777
1&
#2515462277
0&
#2516083777
1&
#2516699277
0&
#2517314777
1&
#2517924777
0&
#2518534777
1&
#2519139777
0&
#2519744777
1&
#2520343777
0&
#2520942777
1&
#2521536777
0&
#2522130777
1&
#2522720277
0&
#2523309777
1&
#2523894277
0&
#2524478777
1&
#2525058777
0&
#2525638777
1&
#2526213777
0&
#2526788777
1&
#2527359277
0&
#2527929777
1&
#2528495777
0&
#2529061777
1&
#2529624277
0&
#2530186777
1&
#2530744777
0&
#2531302777
1&
#2531856777
0&
#2532410777
1&
#2532960277
0&
#2533509777
1&
#2534055777
0&
#2534601777
1&
#2535143777
0&
#2535685777
1&
#2536224277
0&
#2536762777
1&
#2537297277
0&
#2537831777
1&
#2538363277
0&
#2538894777
1&
#2539422277
0&
#2539949777
1&
#2540473777
0&
#2540997777
1&
#2541518277
0&
#2542038777
1&
#2542555777
0&
#2543072777
1&
#2543586277
0&
#2544099777
1&
#2544610277
0&
#2545120777
1&
#2545628027
0&
#2546135277
1&
#2546639777
0&
#2547144277
1&
#2547645277
0&
#2548146277
1&
#2548644527
0&
#2549142777
1&
#2549635027
0&
#2550127277
1&
#2550619527
0&
#2551111777
1&
#2551598777
0&
#2552085777
1&
#2552572777
0&
#2553059777
1&
#2553540777
0&
#2554021777
1&
#2554502777
0&
#2554983777
1&
#2555459777
0&
#2555935777
1&
#2556411777
0&
#2556887777
1&
#2557358527
0&
#2557829277
1&
#2558300027
0&
#2558770777
1&
#2559236527
0&
#2559702277
1&
#2560168027
0&
#2560633777
1&
#2561095277
0&
#2561556777
1&
#2562018277
0&
#2562479777
1&
#2562936277
0&
#2563392777
1&
#2563849277
0&
#2564305777
1&
#2564757777
0&
#2565209777
1&
#2565661777
0&
#2566113777
1&
#2566561777
0&
#2567009777
1&
#2567457777
0&
#2567905777
1&
#2568349277
0&
#2568792777
1&
#2569236277
0&
#2569679777
1&
#2570119277
0&
#2570558777
1&
#2570998277
0&
#2571437777
1&
#2571873027
0&
#2572308277
1&
#2572743527
0&
#2573178777
1&
#2573610027
0&
#2574041277
1&
#2574472527
0&
#2574903777
1&
#2575331527
0&
#2575759277
1&
#2576187027
0&
#2576614777
1&
#2577038277
0&
#2577461777
1&
#2577885277
0&
#2578308777
1&
#2578729027
0&
#2579149277
1&
#2579569527
0&
#2579989777
1&
#2580406527
0&
#2580823277
1&
#2581240027
0&
#2581656777
1&
#2582070277
0&
#2582483777
1&
#2582897277
0&
#2583310777
1&
#2583720777
0&
#2584130777
1&
#2584540777
0&
#2584950777
1&
#2585357527
0&
#2585764277
1&
#2586171027
0&
#2586577777
1&
#2586981277
0&
#2587384777
1&
#2587788277
0&
#2588191777
1&
#2588592027
0&
#2588992277
1&
#2589392527
0&
#2589792777
1&
#2590190277
0&
#2590587777
1&
#2590985277
0&
#2591382777
1&
#2591777027
0&
#2592171277
1&
#2592565527
0&
#2592959777
1&
#2593351277
0&
#2593742777
1&
#2594134277
0&
#2594525777
1&
#2594914277
0&
#2595302777
1&
#2595691277
0&
#2596079777
1&
#2596465527
0&
#2596851277
1&
#2597237027
0&
#2597622777
1&
#2598006027
0&
#2598389277
1&
#2598772527
0&
#2599155777
1&
#2599536527
0&
#2599917277
1&
#2600298027
0&
#2600678777
1&
#2601056777
0&
#2601434777
1&
#2601812777
0&
#2602190777
1&
#2602566277
0&
#2602941777
1&
#2603317277
0&
#2603692777
1&
#2604065777
0&
#2604438777
1&
#2604811777
0&
#2605184777
1&
#2605555277
0&
#2605925777
1&
#2606296277
0&
#2606666777
1&
#2607034777
0&
#2607402777
1&
#2607770777
0&
#2608138777
1&
#2608504277
0&
#2608869777
1&
#2609235277
0&
#2609600777
1&
#2609963777
0&
#2610326777
1&
#2610689777
0&
#2611052777
1&
#2611413777
0&
#2611774777
1&
#2612135777
0&
#2612496777
1&
#2612855527
0&
#2613214277
1&
#2613573027
0&
#2613931777
1&
#2614288527
0&
#2614645277
1&
#2615002027
0&
#2615358777
1&
#2615713027
0&
#2616067277
1&
#2616421527
0&
#2616775777
1&
#2617128027
0&
#2617480277
1&
#2617832527
0&
#2618184777
1&
#2618534777
0&
#2618884777
1&
#2619234777
0&
#2619584777
1&
#2619933027
0&
#2620281277
1&
#2620629527
0&
#2620977777
1&
#2621324027
0&
#2621670277
1&
#2622016527
0&
#2622362777
1&
#2622707277
0&
#2623051777
1&
#2623396277
0&
#2623740777
1&
#2624082777
0&
#2624424777
1&
#2624766777
0&
#2625108777
1&
#2625449027
0&
#2625789277
1&
#2626129527
0&
#2626469777
1&
#2626808027
0&
#2627146277
1&
#2627484527
0&
#2627822777
1&
#2628159277
0&
#2628495777
1&
#2628832277
0&
#2629168777
1&
#2629503527
0&
#2629838277
1&
#2630173027
0&
#2630507777
1&
#2630840777
0&
#2631173777
1&
#2631506777
0&
#2631839777
1&
#2632170027
0&
#2632500277
1&
#2632830527
0&
#2633160777
1&
#2633491027
0&
#2633821277
1&
#2634149277
0&
#2634477277
1&
#2634805277
0&
#2635133277
1&
#2635461277
0&
#2635789277
1&
#2636114777
0&
#2636440277
1&
#2636765777
0&
#2637091277
1&
#2637416777
0&
#2637742277
1&
#2638065027
0&
#2638387777
1&
#2638710527
0&
#2639033277
1&
#2639356027
0&
#2639678777
1&
#2639999277
0&
#2640319777
1&
#2640640277
0&
#2640960777
1&
#2641281277
0&
#2641601777
1&
#2641919777
0&
#2642237777
1&
#2642555777
0&
#2642873777
1&
#2643191777
0&
#2643509777
1&
#2643825527
0&
#2644141277
1&
#2644457027
0&
#2644772777
1&
#2645088527
0&
#2645404277
1&
#2645718027
0&
#2646031777
1&
#2646345527
0&
#2646659277
1&
#2646973027
0&
#2647286777
1&
#2647598277
0&
#2647909777
1&
#2648221277
0&
#2648532777
1&
#2648844277
0&
#2649155777
1&
#2649464777
0&
#2649773777
1&
#2650082777
0&
#2650391777
1&
#2650700777
0&
#2651009777
1&
#2651316777
0&
#2651623777
1&
#2651930777
0&
#2652237777
1&
#2652544777
0&
#2652851777
1&
#2653158777
0&
#2653465777
1&
#2653772777
0&
#2654079777
1&
#2654388777
0&
#2654697777
1&
#2655006777
0&
#2655315777
1&
#2655624777
0&
#2655933777
1&
#2656245277
0&
#2656556777
1&
#2656868277
0&
#2657179777
1&
#2657491277
0&
#2657802777
1&
#2658116527
0&
#2658430277
1&
#2658744027
0&
#2659057777
1&
#2659371527
0&
#2659685277
1&
#2660001027
0&
#2660316777
1&
#2660632527
0&
#2660948277
1&
#2661264027
0&
#2661579777
1&
#2661897777
0&
#2662215777
1&
#2662533777
0&
#2662851777
1&
#2663169777
0&
#2663487777
1&
#2663808277
0&
#2664128777
1&
#2664449277
0&
#2664769777
1&
#2665090277
0&
#2665410777
1&
#2665733527
0&
#2666056277
1&
#2666379027
0&
#2666701777
1&
#2667024527
0&
#2667347277
1&
#2667672777
0&
#2667998277
1&
#2668323777
0&
#2668649277
1&
#2668974777
0&
#2669300277
1&
#2669628277
0&
#2669956277
1&
#2670284277
0&
#2670612277
1&
#2670940277
0&
#2671268277
1&
#2671598527
0&
#2671928777
1&
#2672259027
0&
#2672589277
1&
#2672919527
0&
#2673249777
1&
#2673582777
0&
#2673915777
1&
#2674248777
0&
#2674581777
1&
#2674914777
0&
#2675247777
1&
#2675583277
0&
#2675918777
1&
#2676254277
0&
#2676589777
1&
#2676925277
0&
#2677260777
1&
#2677598277
0&
#2677935777
1&
#2678273277
0&
#2678610777
1&
#2678950027
0&
#2679289277
1&
#2679628527
0&
#2679967777
1&
#2680308777
0&
#2680649777
1&
#2680990777
0&
#2681331777
1&
#2681674777
0&
#2682017777
1&
#2682360777
0&
#2682703777
1&
#2683049027
0&
#2683394277
1&
#2683739527
0&
#2684084777
1&
#2684432027
0&
#2684779277
1&
#2685126527
0&
#2685473777
1&
#2685822777
0&
#2686171777
1&
#2686520777
0&
#2686869777
1&
#2687220777
0&
#2687571777
1&
#2687922777
0&
#2688273777
1&
#2688627027
0&
#2688980277
1&
#2689333527
0&
#2689686777
1&
#2690042027
0&
#2690397277
1&
#2690752527
0&
#2691107777
1&
#2691465527
0&
#2691823277
1&
#2692181027
0&
#2692538777
1&
#2692898277
0&
#2693257777
1&
#2693617277
0&
#2693976777
1&
#2694338777
0&
#2694700777
1&
#2695062777
0&
#2695424777
1&
#2695789277
0&
#2696153777
1&
#2696518277
0&
#2696882777
1&
#2697249277
0&
#2697615777
1&
#2697982277
0&
#2698348777
1&
#2698717777
0&
#2699086777
1&
#2699455777
0&
#2699824777
1&
#2700196277
0&
#2700567777
1&
#2700939277
0&
#2701310777
1&
#2701684777
0&
#2702058777
1&
#2702432777
0&
#2702806777
1&
#2703183277
0&
#2703559777
1&
#2703936277
0&
#2704312777
1&
#2704691777
0&
#2705070777
1&
#2705449777
0&
#2705828777
1&
#2706210527
0&
#2706592277
1&
#2706974027
0&
#2707355777
1&
#2707740027
0&
#2708124277
1&
#2708508527
0&
#2708892777
1&
#2709280277
0&
#2709667777
1&
#2710055277
0&
#2710442777
1&
#2710832777
0&
#2711222777
1&
#2711612777
0&
#2712002777
1&
#2712395527
0&
#2712788277
1&
#2713181027
0&
#2713573777
1&
#2713969777
0&
#2714365777
1&
#2714761777
0&
#2715157777
1&
#2715556777
0&
#2715955777
1&
#2716354777
0&
#2716753777
1&
#2717155527
0&
#2717557277
1&
#2717959027
0&
#2718360777
1&
#2718766027
0&
#2719171277
1&
#2719576527
0&
#2719981777
1&
#2720390277
0&
#2720798777
1&
#2721207277
0&
#2721615777
1&
#2722027527
0&
#2722439277
1&
#2722851027
0&
#2723262777
1&
#2723678027
0&
#2724093277
1&
#2724508527
0&
#2724923777
1&
#2725342277
0&
#2725760777
1&
#2726179277
0&
#2726597777
1&
#2727019777
0&
#2727441777
1&
#2727863777
0&
#2728285777
1&
#2728711777
0&
#2729137777
1&
#2729563777
0&
#2729989777
1&
#2730419027
0&
#2730848277
1&
#2731277527
0&
#2731706777
1&
#2732140277
0&
#2732573777
1&
#2733007277
0&
#2733440777
1&
#2733877777
0&
#2734314777
1&
#2734751777
0&
#2735188777
1&
#2735630027
0&
#2736071277
1&
#2736512527
0&
#2736953777
1&
#2737399277
0&
#2737844777
1&
#2738290277
0&
#2738735777
1&
#2739185277
0&
#2739634777
1&
#2740084277
0&
#2740533777
1&
#2740988277
0&
#2741442777
1&
#2741897277
0&
#2742351777
1&
#2742810777
0&
#2743269777
1&
#2743728777
0&
#2744187777
1&
#2744651777
0&
#2745115777
1&
#2745579777
0&
#2746043777
1&
#2746512027
0&
#2746980277
1&
#2747448527
0&
#2747916777
1&
#2748390027
0&
#2748863277
1&
#2749336527
0&
#2749809777
1&
#2750288277
0&
#2750766777
1&
#2751245277
0&
#2751723777
1&
#2752207527
0&
#2752691277
1&
#2753175027
0&
#2753658777
1&
#2754148527
0&
#2754638277
1&
#2755128027
0&
#2755617777
1&
#2756112777
0&
#2756607777
1&
#2757102777
0&
#2757597777
1&
#2758098777
0&
#2758599777
1&
#2759100777
0&
#2759601777
1&
#2760106277
0&
#2760610777
1&
#2761118027
0&
#2761625277
1&
#2762135777
0&
#2762646277
1&
#2763159777
0&
#2763673277
1&
#2764190277
0&
#2764707277
1&
#2765227777
0&
#2765748277
1&
#2766272277
0&
#2766796277
1&
#2767323777
0&
#2767851277
1&
#2768382777
0&
#2768914277
1&
#2769448777
0&
#2769983277
1&
#2770521777
0&
#2771060277
1&
#2771602277
0&
#2772144277
1&
#2772690277
0&
#2773236277
1&
#2773785777
0&
#2774335277
1&
#2774889277
0&
#2775443277
1&
#2776001277
0&
#2776559277
1&
#2777121777
0&
#2777684277
1&
#2778250277
0&
#2778816277
1&
#2779386777
0&
#2779957277
1&
#2780532277
0&
#2781107277
1&
#2781687277
0&
#2782267277
1&
#2782851777
0&
#2783436277
1&
#2784025777
0&
#2784615277
1&
#2785209277
0&
#2785803277
1&
#2786402277
0&
#2787001277
1&
#2787606277
0&
#2788211277
1&
#2788821277
0&
#2789431277
1&
#2790046777
0&
#2790662277
1&
#2791283777
0&
#2791905277
1&
#2792532777
0&
#2793160277
1&
#2793793777
0&
#2794427277
1&
#2795066777
0&
#2795706277
1&
#2796351777
0&
#2796997277
1&
#2797649777
0&
#2798302277
1&
#2798960777
0&
#2799619277
1&
#2800285277
0&
#2800951277
1&
#2801624277
0&
#2802297277
1&
#2802977777
0&
#2803658277
1&
#2804347277
0&
#2805036277
1&
#2805732777
0&
#2806429277
1&
#2807133777
0&
#2807838277
1&
#2808551777
0&
#2809265277
1&
#2809987277
0&
#2810709277
1&
#2811440277
0&
#2812171277
1&
#2812912277
0&
#2813653277
1&
#2814404277
0&
#2815155277
1&
#2815916777
0&
#2816678277
1&
#2817449777
0&
#2818221277
1&
#2819004277
0&
#2819787277
1&
#2820582277
0&
#2821377277
1&
#2822184277
0&
#2822991277
1&
#2823811277
0&
#2824631277
1&
#2825464777
0&
#2826298277
1&
#2827145277
0&
#2827992277
1&
#2828854777
0&
#2829717277
1&
#2830596277
0&
#2831475277
1&
#2832371277
0&
#2833267277
1&
#2834180277
0&
#2835093277
1&
#2836024777
0&
#2836956277
1&
#2837908277
0&
#2838860277
1&
#2839834277
0&
#2840808277
1&
#2841804777
0&
#2842801277
1&
#2843822277
0&
#2844843277
1&
#2845891277
0&
#2846939277
1&
#2848016277
0&
#2849093277
1&
#2850201277
0&
#2851309277
1&
#2852450277
0&
#2853591277
1&
#2854770277
0&
#2855949277
1&
#2857169277
0&
#2858389277
1&
#2859656277
0&
#2860923277
1&
#2862240277
0&
#2863557277
1&
#2864935277
0&
#2866313277
1&
#2867757277
0&
#2869201277
1&
#2870724277
0&
#2872247277
1&
#2873861277
0&
#2875475277
1&
#2877200277
0&
#2878925277
1&
#2880788277
0&
#2882651277
1&
#2884693277
0&
#2886735277
1&
#2887876277
0&
#2891299277
1&
#2892616277
0&
#2896567277
1&
#2898181277
0&
#2903023277
1&
#2905071215
0&
#2912151277
1&
#2914199215
0&
#2922547089
1&
#2924595027
0&
#2931675089
1&
#2933289089
0&
#2938131089
1&
#2939448089
0&
#2943399089
1&
#2944540089
0&
#2947963089
1&
#2950005089
0&
#2952047089
1&
#2953910089
0&
#2955773089
1&
#2957498089
0&
#2959223089
1&
#2960837089
0&
#2962451089
1&
#2963974089
0&
#2965497089
1&
#2966941089
0&
#2968385089
1&
#2969763089
0&
#2971141089
1&
#2972458089
0&
#2973775089
1&
#2975042089
0&
#2976309089
1&
#2977529089
0&
#2978749089
1&
#2979928089
0&
#2981107089
1&
#2982248089
0&
#2983389089
1&
#2984497089
0&
#2985605089
1&
#2986682089
0&
#2987759089
1&
#2988807089
0&
#2989855089
1&
#2990876089
0&
#2991897089
1&
#2992893589
0&
#2993890089
1&
#2994864089
0&
#2995838089
1&
#2996790089
0&
#2997742089
1&
#2998673589
0&
#2999605089
1&
#3000518089
0&
#3001431089
1&
#3002327089
0&
#3003223089
1&
#3004102089
0&
#3004981089
1&
#3005843589
0&
#3006706089
1&
#3007553089
0&
#3008400089
1&
#3009233589
0&
#3010067089
1&
#3010887089
0&
#3011707089
1&
#3012514089
0&
#3013321089
1&
#3014116089
0&
#3014911089
1&
#3015694089
0&
#3016477089
1&
#3017248589
0&
#3018020089
1&
#3018781589
0&
#3019543089
1&
#3020294089
0&
#3021045089
1&
#3021786089
0&
#3022527089
1&
#3023258089
0&
#3023989089
1&
#3024711089
0&
#3025433089
1&
#3026146589
0&
#3026860089
1&
#3027564589
0&
#3028269089
1&
#3028965589
0&
#3029662089
1&
#3030351089
0&
#3031040089
1&
#3031720589
0&
#3032401089
1&
#3033074089
0&
#3033747089
1&
#3034413089
0&
#3035079089
1&
#3035737589
0&
#3036396089
1&
#3037048589
0&
#3037701089
1&
#3038346589
0&
#3038992089
1&
#3039644589
0&
#3040297089
1&
#3040955589
0&
#3041614089
1&
#3042280089
0&
#3042946089
1&
#3043619089
0&
#3044292089
1&
#3044972589
0&
#3045653089
1&
#3046342089
0&
#3047031089
1&
#3047727589
0&
#3048424089
1&
#3049128589
0&
#3049833089
1&
#3050546589
0&
#3051260089
1&
#3051982089
0&
#3052704089
1&
#3053435089
0&
#3054166089
1&
#3054907089
0&
#3055648089
1&
#3056399089
0&
#3057150089
1&
#3057911589
0&
#3058673089
1&
#3059444589
0&
#3060216089
1&
#3060999089
0&
#3061782089
1&
#3062577089
0&
#3063372089
1&
#3064179089
0&
#3064986089
1&
#3065806089
0&
#3066626089
1&
#3067459589
0&
#3068293089
1&
#3069140089
0&
#3069987089
1&
#3070849589
0&
#3071712089
1&
#3072591089
0&
#3073470089
1&
#3074366089
0&
#3075262089
1&
#3076175089
0&
#3077088089
1&
#3078019589
0&
#3078951089
1&
#3079903089
0&
#3080855089
1&
#3081829089
0&
#3082803089
1&
#3083799589
0&
#3084796089
1&
#3085817089
0&
#3086838089
1&
#3087886089
0&
#3088934089
1&
#3090011089
0&
#3091088089
1&
#3092196089
0&
#3093304089
1&
#3094445089
0&
#3095586089
1&
#3096765089
0&
#3097944089
1&
#3099164089
0&
#3100384089
1&
#3101651089
0&
#3102918089
1&
#3104235089
0&
#3105552089
1&
#3106930089
0&
#3108308089
1&
#3109752089
0&
#3111196089
1&
#3112719089
0&
#3114242089
1&
#3115856089
0&
#3117470089
1&
#3119195089
0&
#3120920089
1&
#3122783089
0&
#3124646089
1&
#3126688089
0&
#3128730089
1&
#3129871089
0&
#3133294089
1&
#3134611089
0&
#3138562089
1&
#3140176089
0&
#3145018089
1&
#3147066027
0&
#3154146089
1&
#3156194027
0&
#3922482573
1&
#3924530510
0&
#3931610573
1&
#3933224573
0&
#3938066573
1&
#3939383573
0&
#3943334573
1&
#3944475573
0&
#3947898573
1&
#3949940573
0&
#3951982573
1&
#3953845573
0&
#3955708573
1&
#3957433573
0&
#3959158573
1&
#3960772573
0&
#3962386573
1&
#3963909573
0&
#3965432573
1&
#3966876573
0&
#3968320573
1&
#3969698573
0&
#3971076573
1&
#3972393573
0&
#3973710573
1&
#3974977573
0&
#3976244573
1&
#3977464573
0&
#3978684573
1&
#3979863573
0&
#3981042573
1&
#3982183573
0&
#3983324573
1&
#3984432573
0&
#3985540573
1&
#3986617573
0&
#3987694573
1&
#3988742573
0&
#3989790573
1&
#3990811573
0&
#3991832573
1&
#3992829073
0&
#3993825573
1&
#3994799573
0&
#3995773573
1&
#3996725573
0&
#3997677573
1&
#3998609073
0&
#3999540573
1&
#4000453573
0&
#4001366573
1&
#4002262573
0&
#4003158573
1&
#4004037573
0&
#4004916573
1&
#4005779073
0&
#4006641573
1&
#4007488573
0&
#4008335573
1&
#4009169073
0&
#4010002573
1&
#4010822573
0&
#4011642573
1&
#4012449573
0&
#4013256573
1&
#4014051573
0&
#4014846573
1&
#4015629573
0&
#4016412573
1&
#4017184073
0&
#4017955573
1&
#4018717073
0&
#4019478573
1&
#4020229573
0&
#4020980573
1&
#4021721573
0&
#4022462573
1&
#4023193573
0&
#4023924573
1&
#4024646573
0&
#4025368573
1&
#4026082073
0&
#4026795573
1&
#4027500073
0&
#4028204573
1&
#4028901073
0&
#4029597573
1&
#4030286573
0&
#4030975573
1&
#4031656073
0&
#4032336573
1&
#4033009573
0&
#4033682573
1&
#4034348573
0&
#4035014573
1&
#4035673073
0&
#4036331573
1&
#4036984073
0&
#4037636573
1&
#4038282073
0&
#4038927573
1&
#4039580073
0&
#4040232573
1&
#4040891073
0&
#4041549573
1&
#4042215573
0&
#4042881573
1&
#4043554573
0&
#4044227573
1&
#4044908073
0&
#4045588573
1&
#4046277573
0&
#4046966573
1&
#4047663073
0&
#4048359573
1&
#4049064073
0&
#4049768573
1&
#4050482073
0&
#4051195573
1&
#4051917573
0&
#4052639573
1&
#4053370573
0&
#4054101573
1&
#4054842573
0&
#4055583573
1&
#4056334573
0&
#4057085573
1&
#4057847073
0&
#4058608573
1&
#4059380073
0&
#4060151573
1&
#4060934573
0&
#4061717573
1&
#4062512573
0&
#4063307573
1&
#4064114573
0&
#4064921573
1&
#4065741573
0&
#4066561573
1&
#4067395073
0&
#4068228573
1&
#4069075573
0&
#4069922573
1&
#4070785073
0&
#4071647573
1&
#4072526573
0&
#4073405573
1&
#4074301573
0&
#4075197573
1&
#4076110573
0&
#4077023573
1&
#4077955073
0&
#4078886573
1&
#4079838573
0&
#4080790573
1&
#4081764573
0&
#4082738573
1&
#4083735073
0&
#4084731573
1&
#4085752573
0&
#4086773573
1&
#4087821573
0&
#4088869573
1&
#4089946573
0&
#4091023573
1&
#4092131573
0&
#4093239573
1&
#4094380573
0&
#4095521573
1&
#4096700573
0&
#4097879573
1&
#4099099573
0&
#4100319573
1&
#4101586573
0&
#4102853573
1&
#4104170573
0&
#4105487573
1&
#4106865573
0&
#4108243573
1&
#4109687573
0&
#4111131573
1&
#4112654573
0&
#4114177573
1&
#4115791573
0&
#4117405573
1&
#4119130573
0&
#4120855573
1&
#4122718573
0&
#4124581573
1&
#4126623573
0&
#4128665573
1&
#4129806573
0&
#4133229573
1&
#4134546573
0&
#4138497573
1&
#4140111573
0&
#4144953573
1&
#4147001510
0&
#4154081573
1&
#4156129510
0&
#23476266710
1&
#23477308335
0&
#23480433335
1&
#23481474960
0&
#23484599960
1&
#23485641585
0&
#23488766585
1&
#23489808210
0&
#23492933210
1&
#23493974835
0&
#23497099835
1&
#23498141460
0&
#23501266460
1&
#23502099773
0&
#23502933085
1&
#23503766398
0&
#23504599710
1&
#23505433023
0&
#23506266335
1&
#23507099648
0&
#23507932960
1&
#23508766273
0&
#23509599585
1&
#23510432898
0&
#23511266210
1&
#23512099523
0&
#23512932835
1&
#23513766148
0&
#23514599460
1&
#23515432773
0&
#23516266085
1&
#23517099398
0&
#23517932710
1&
#23518766023
0&
#23519599335
1&
#23520432648
0&
#23521265960
1&
#23522099273
0&
#23522932585
1&
#23523765898
0&
#23524599210
1&
#23525432523
0&
#23526265835
1&
#23526734585
0&
#23527203335
1&
#23527672085
0&
#23528140835
1&
#23528609585
0&
#23529078335
1&
#23529547085
0&
#23530015835
1&
#23530484585
0&
#23530953335
1&
#23531422085
0&
#23531890835
1&
#23532359585
0&
#23532828335
1&
#23533297085
0&
#23533765835
1&
#23534234585
0&
#23534703335
1&
#23535172085
0&
#23535640835
1&
#23536109585
0&
#23536578335
1&
#23537047085
0&
#23537515835
1&
#23537984585
0&
#23538453335
1&
#23538922085
0&
#23539390835
1&
#23539859585
0&
#23540328335
1&
#23540797085
0&
#23541265835
1&
#23541618773
0&
#23541971710
1&
#23542324648
0&
#23542677585
1&
#23543030523
0&
#23543383460
1&
#23543736398
0&
#23544089335
1&
#23544442273
0&
#23544795210
1&
#23545148148
0&
#23545501085
1&
#23545854023
0&
#23546206960
1&
#23546559898
0&
#23546912835
1&
#23547265773
0&
#23547618710
1&
#23547971648
0&
#23548324585
1&
#23548677523
0&
#23549030460
1&
#23549383398
0&
#23549736335
1&
#23550089273
0&
#23550442210
1&
#23550795148
0&
#23551148085
1&
#23551501023
0&
#23551853960
1&
#23552206898
0&
#23552559835
1&
#23552912773
0&
#23553265710
1&
#23553559835
0&
#23553853960
1&
#23554148085
0&
#23554442210
1&
#23554736335
0&
#23555030460
1&
#23555324585
0&
#23555618710
1&
#23555912835
0&
#23556206960
1&
#23556501085
0&
#23556795210
1&
#23557089335
0&
#23557383460
1&
#23557677585
0&
#23557971710
1&
#23558265835
0&
#23558559960
1&
#23558854085
0&
#23559148210
1&
#23559442335
0&
#23559736460
1&
#23560030585
0&
#23560324710
1&
#23560618835
0&
#23560912960
1&
#23561207085
0&
#23561501210
1&
#23561795335
0&
#23562089460
1&
#23562383585
0&
#23562677710
1&
#23562971835
0&
#23563265960
1&
#23563501273
0&
#23563736585
1&
#23563971898
0&
#23564207210
1&
#23564442523
0&
#23564677835
1&
#23564913148
0&
#23565148460
1&
#23565383773
0&
#23565619085
1&
#23565854398
0&
#23566089710
1&
#23566325023
0&
#23566560335
1&
#23566795648
0&
#23567030960
1&
#23567266273
0&
#23567501585
1&
#23567736898
0&
#23567972210
1&
#23568207523
0&
#23568442835
1&
#23568678148
0&
#23568913460
1&
#23569148773
0&
#23569384085
1&
#23569619398
0&
#23569854710
1&
#23570090023
0&
#23570325335
1&
#23570560648
0&
#23570795960
1&
#23571031273
0&
#23571266585
1&
#23571485335
0&
#23571704085
1&
#23571922835
0&
#23572141585
1&
#23572360335
0&
#23572579085
1&
#23572797835
0&
#23573016585
1&
#23573235335
0&
#23573454085
1&
#23573672835
0&
#23573891585
1&
#23574110335
0&
#23574329085
1&
#23574547835
0&
#23574766585
1&
#23574985335
0&
#23575204085
1&
#23575422835
0&
#23575641585
1&
#23575860335
0&
#23576079085
1&
#23576297835
0&
#23576516585
1&
#23576735335
0&
#23576954085
1&
#23577172835
0&
#23577391585
1&
#23577610335
0&
#23577829085
1&
#23578047835
0&
#23578266585
1&
#23578461023
0&
#23578655460
1&
#23578849898
0&
#23579044335
1&
#23579238773
0&
#23579433210
1&
#23579627648
0&
#23579822085
1&
#23580016523
0&
#23580210960
1&
#23580405398
0&
#23580599835
1&
#23580794273
0&
#23580988710
1&
#23581183148
0&
#23581377585
1&
#23581572023
0&
#23581766460
1&
#23581960898
0&
#23582155335
1&
#23582349773
0&
#23582544210
1&
#23582738648
0&
#23582933085
1&
#23583127523
0&
#23583321960
1&
#23583516398
0&
#23583710835
1&
#23583905273
0&
#23584099710
1&
#23584294148
0&
#23584488585
1&
#23584683023
0&
#23584877460
1&
#23585071898
0&
#23585266335
1&
#23585442773
0&
#23585619273
1&
#23585795710
0&
#23585972210
1&
#23586148648
0&
#23586325148
1&
#23586501585
0&
#23586678085
1&
#23586854523
0&
#23587031023
1&
#23587207460
0&
#23587383960
1&
#23587560398
0&
#23587736898
1&
#23587913335
0&
#23588089835
1&
#23588266273
0&
#23588442773
1&
#23588619210
0&
#23588795710
1&
#23588972148
0&
#23589148648
1&
#23589325085
0&
#23589501585
1&
#23589678023
0&
#23589854523
1&
#23590030960
0&
#23590207460
1&
#23590383898
0&
#23590560398
1&
#23590736835
0&
#23590913335
1&
#23591089773
0&
#23591266273
1&
#23591422523
0&
#23591578773
1&
#23591735023
0&
#23591891273
1&
#23592047523
0&
#23592203773
1&
#23592360023
0&
#23592516273
1&
#23592672523
0&
#23592828773
1&
#23592985023
0&
#23593141273
1&
#23593297523
0&
#23593453773
1&
#23593610023
0&
#23593766273
1&
#23593922523
0&
#23594078773
1&
#23594235023
0&
#23594391273
1&
#23594547523
0&
#23594703773
1&
#23594860023
0&
#23595016273
1&
#23595172523
0&
#23595328773
1&
#23595485023
0&
#23595641273
1&
#23595797523
0&
#23595953773
1&
#23596110023
0&
#23596266273
1&
#23596422523
0&
#23596578773
1&
#23596735023
0&
#23596891273
1&
#23597047523
0&
#23597203773
1&
#23597360023
0&
#23597516273
1&
#23597672523
0&
#23597828773
1&
#23597985023
0&
#23598141273
1&
#23598297523
0&
#23598453773
1&
#23598610023
0&
#23598766273
1&
#23598922523
0&
#23599078773
1&
#23599235023
0&
#23599391273
1&
#23599547523
0&
#23599703773
1&
#23599860023
0&
#23600016273
1&
#23600172523
0&
#23600328773
1&
#23600485023
0&
#23600641273
1&
#23600797523
0&
#23600953773
1&
#23601110023
0&
#23601266273
1&
#23601405148
0&
#23601544023
1&
#23601682898
0&
#23601821773
1&
