misc_scripts/vcds/simulation.vcd
$version Generated by Wokwi.com $end
$date Wed, 17 Jun 2026 19:16:01 GMT $end
$timescale 1ns $end
$scope module logic $end
$var wire 1 ! D0 $end
$var wire 1 " D1 $end
$var wire 1 # D2 $end
$var wire 1 $ D3 $end
$var wire 1 % D4 $end
$var wire 1 & D5 $end
$upscope $end
$enddefinitions $end
#0
#2373716912
0"
#2374866942
0#
#2375886492
0$
#2380289646
1&
#2382337583
0&
#2389417646
1&
#2391031646
0&
#2395873646
1&
#2397190646
0&
#2401141646
1&
#2402282646
0&
#2405705646
1&
#2407747646
0&
#2409789646
1&
#2411652646
0&
#2413515646
1&
#2415240646
0&
#2416965646
1&
#2418579646
0&
#2420193646
1&
#2421716646
0&
#2423239646
1&
#2424683646
0&
#2426127646
1&
#2427505646
0&
#2428883646
1&
#2430200646
0&
#2431517646
1&
#2432784646
0&
#2434051646
1&
#2435271646
0&
#2436491646
1&
#2437670646
0&
#2438849646
1&
#2439990646
0&
#2441131646
1&
#2442239646
0&
#2443347646
1&
#2444424646
0&
#2445501646
1&
#2446549646
0&
#2447597646
1&
#2448618646
0&
#2449639646
1&
#2450636146
0&
#2451632646
1&
#2452606646
0&
#2453580646
1&
#2454532646
0&
#2455484646
1&
#2456416146
0&
#2457347646
1&
#2458260646
0&
#2459173646
1&
#2460069646
0&
#2460965646
1&
#2461844646
0&
#2462723646
1&
#2463586146
0&
#2464448646
1&
#2465295646
0&
#2466142646
1&
#2466976146
0&
#2467809646
1&
#2468629646
0&
#2469449646
1&
#2470256646
0&
#2471063646
1&
#2471858646
0&
#2472653646
1&
#2473436646
0&
#2474219646
1&
#2474991146
0&
#2475762646
1&
#2476524146
0&
#2477285646
1&
#2478036646
0&
#2478787646
1&
#2479528646
0&
#2480269646
1&
#2481000646
0&
#2481731646
1&
#2482453646
0&
#2483175646
1&
#2483889146
0&
#2484602646
1&
#2485307146
0&
#2486011646
1&
#2486708146
0&
#2487404646
1&
#2488093646
0&
#2488782646
1&
#2489463146
0&
#2490143646
1&
#2490816646
0&
#2491489646
1&
#2492155646
0&
#2492821646
1&
#2493480146
0&
#2494138646
1&
#2494791146
0&
#2495443646
1&
#2496089146
0&
#2496734646
1&
#2497387146
0&
#2498039646
1&
#2498698146
0&
#2499356646
1&
#2500022646
0&
#2500688646
1&
#2501361646
0&
#2502034646
1&
#2502715146
0&
#2503395646
1&
#2504084646
0&
#2504773646
1&
#2505470146
0&
#2506166646
1&
#2506871146
0&
#2507575646
1&
#2508289146
0&
#2509002646
1&
#2509724646
0&
#2510446646
1&
#2511177646
0&
#2511908646
1&
#2512649646
0&
#2513390646
1&
#2514141646
0&
#2514892646
1&
#2515654146
0&
#2516415646
1&
#2517187146
0&
#2517958646
1&
#2518741646
0&
#2519524646
1&
#2520319646
0&
#2521114646
1&
#2521921646
0&
#2522728646
1&
#2523548646
0&
#2524368646
1&
#2525202146
0&
#2526035646
1&
#2526882646
0&
#2527729646
1&
#2528592146
0&
#2529454646
1&
#2530333646
0&
#2531212646
1&
#2532108646
0&
#2533004646
1&
#2533917646
0&
#2534830646
1&
#2535762146
0&
#2536693646
1&
#2537645646
0&
#2538597646
1&
#2539571646
0&
#2540545646
1&
#2541542146
0&
#2542538646
1&
#2543559646
0&
#2544580646
1&
#2545628646
0&
#2546676646
1&
#2547753646
0&
#2548830646
1&
#2549938646
0&
#2551046646
1&
#2552187646
0&
#2553328646
1&
#2554507646
0&
#2555686646
1&
#2556906646
0&
#2558126646
1&
#2559393646
0&
#2560660646
1&
#2561977646
0&
#2563294646
1&
#2564672646
0&
#2566050646
1&
#2567494646
0&
#2568938646
1&
#2570461646
0&
#2571984646
1&
#2573598646
0&
#2575212646
1&
#2576937646
0&
#2578662646
1&
#2580525646
0&
#2582388646
1&
#2584430646
0&
#2586472646
1&
#2587613646
0&
#2591036646
1&
#2592353646
0&
#2596304646
1&
#2597918646
0&
#2602760646
1&
#2604808583
0&
#2611888646
1&
#2613936583
0&
#3379788333
1&
#3381836271
0&
#3388916333
1&
#3390530333
0&
#3395372333
1&
#3396689333
0&
#3400640333
1&
#3401781333
0&
#3405204333
1&
#3407246333
0&
#3409288333
1&
#3411151333
0&
#3413014333
1&
#3414739333
0&
#3416464333
1&
#3418078333
0&
#3419692333
1&
#3421215333
0&
#3422738333
1&
#3424182333
0&
#3425626333
1&
#3427004333
0&
#3428382333
1&
#3429699333
0&
#3431016333
1&
#3432283333
0&
#3433550333
1&
#3434770333
0&
#3435990333
1&
#3437169333
0&
#3438348333
1&
#3439489333
0&
#3440630333
1&
#3441738333
0&
#3442846333
1&
#3443923333
0&
#3445000333
1&
#3446048333
0&
#3447096333
1&
#3448117333
0&
#3449138333
1&
#3450134833
0&
#3451131333
1&
#3452105333
0&
#3453079333
1&
#3454031333
0&
#3454983333
1&
#3455914833
0&
#3456846333
1&
#3457759333
0&
#3458672333
1&
#3459568333
0&
#3460464333
1&
#3461343333
0&
#3462222333
1&
#3463084833
0&
#3463947333
1&
#3464794333
0&
#3465641333
1&
#3466474833
0&
#3467308333
1&
#3468128333
0&
#3468948333
1&
#3469755333
0&
#3470562333
1&
#3471357333
0&
#3472152333
1&
#3472935333
0&
#3473718333
1&
#3474489833
0&
#3475261333
1&
#3476022833
0&
#3476784333
1&
#3477535333
0&
#3478286333
1&
#3479027333
0&
#3479768333
1&
#3480499333
0&
#3481230333
1&
#3481952333
0&
#3482674333
1&
#3483387833
0&
#3484101333
1&
#3484805833
0&
#3485510333
1&
#3486206833
0&
#3486903333
1&
#3487592333
0&
#3488281333
1&
#3488961833
0&
#3489642333
1&
#3490315333
0&
#3490988333
1&
#3491654333
0&
#3492320333
1&
#3492978833
0&
#3493637333
1&
#3494289833
0&
#3494942333
1&
#3495587833
0&
#3496233333
1&
#3496885833
0&
#3497538333
1&
#3498196833
0&
#3498855333
1&
#3499521333
0&
#3500187333
1&
#3500860333
0&
#3501533333
1&
#3502213833
0&
#3502894333
1&
#3503583333
0&
#3504272333
1&
#3504968833
0&
#3505665333
1&
#3506369833
0&
#3507074333
1&
#3507787833
0&
#3508501333
1&
#3509223333
0&
#3509945333
1&
#3510676333
0&
#3511407333
1&
#3512148333
0&
#3512889333
1&
#3513640333
0&
#3514391333
1&
#3515152833
0&
#3515914333
1&
#3516685833
0&
#3517457333
1&
#3518240333
0&
#3519023333
1&
#3519818333
0&
#3520613333
1&
#3521420333
0&
#3522227333
1&
#3523047333
0&
#3523867333
1&
#3524700833
0&
#3525534333
1&
#3526381333
0&
#3527228333
1&
#3528090833
0&
#3528953333
1&
#3529832333
0&
#3530711333
1&
#3531607333
0&
#3532503333
1&
#3533416333
0&
#3534329333
1&
#3535260833
0&
#3536192333
1&
#3537144333
0&
#3538096333
1&
#3539070333
0&
#3540044333
1&
#3541040833
0&
#3542037333
1&
#3543058333
0&
#3544079333
1&
#3545127333
0&
#3546175333
1&
#3547252333
0&
#3548329333
1&
#3549437333
0&
#3550545333
1&
#3551686333
0&
#3552827333
1&
#3554006333
0&
#3555185333
1&
#3556405333
0&
#3557625333
1&
#3558892333
0&
#3560159333
1&
#3561476333
0&
#3562793333
1&
#3564171333
0&
#3565549333
1&
#3566993333
0&
#3568437333
1&
#3569960333
0&
#3571483333
1&
#3573097333
0&
#3574711333
1&
#3576436333
0&
#3578161333
1&
#3580024333
0&
#3581887333
1&
#3583929333
0&
#3585971333
1&
#3587112333
0&
#3590535333
1&
#3591852333
0&
#3595803333
1&
#3597417333
0&
#3602259333
1&
#3604307271
0&
#3611387333
1&
#3613435271
0&
#20636556375
1&
#20637056375
0&
#21072202586
1&
#21072702586
0&
#21188200645
1&
#21188700645
0&
#21277945056
1&
#21278445056
0&
#21357944634
1&
#21358444634
0&
#21429941832
1&
#21430441832
0&
#21501944931
1&
#21502444931
0&
#21569945471
1&
#21570445471
0&
#21640216394
1&
#21640716394
0&
#21709945680
1&
#21710445680
0&
#21780222120
1&
#21780722120
0&
#21849944176
1&
#21850444176
0&
#21920207829
1&
#21920707829
0&
#21989944902
1&
#21990444902
0&
#22060216959
1&
#22060716959
0&
#22129945390
1&
#22130445390
0&
#22200206518
1&
#22200706518
0&
#22269942870
1&
#22270442870
0&
#22337945652
1&
#22338445652
0&
#22408206804
1&
#22408706804
0&
#22477945123
1&
#22478445123
0&
#22548209455
1&
#22548709455
0&
#22617945962
1&
#22618445962
0&
#22688215497
1&
#22688715497
0&
#22757944575
1&
#22758444575
0&
#22828216773
1&
#22828716773
0&
#22897945842
1&
#22898445842
0&
#22968213665
1&
#22968713665
0&
#23036215493
1&
#23036715493
0&
#23105945320
1&
#23106445320
0&
#23176212902
1&
#23176712902
0&
#23245943813
1&
#23246443813
0&
#23316220236
1&
#23316720236
0&
#23385942793
1&
#23386442793
0&
#23456217141
1&
#23456717141
0&
#23525945631
1&
#23526445631
0&
#23596200163
1&
#23596700163
0&
#23665943402
1&
#23666443402
0&
#23736207813
1&
#23736707813
0&
#23804223195
1&
#23804723195
0&
#23873942618
1&
#23874442618
0&
#23944206550
1&
#23944706550
0&
#24013942844
1&
#24014442844
0&
#24084210359
1&
#24084710359
0&
#24153945670
1&
#24154445670
0&
#24224204301
1&
#24224704301
0&
#24293945641
1&
#24294445641
0&
#24364211406
1&
#24364711406
0&
#24433945654
1&
#24434445654
0&
#24501944223
1&
#24502444223
0&
#24572211593
1&
#24572711593
0&
#24641943803
1&
#24642443803
0&
#24712211639
1&
#24712711639
0&
#24781945787
1&
#24782445787
0&
#24852212786
1&
#24852712786
0&
#24921945030
1&
#24922445030
0&
#24992223720
1&
#24992723720
0&
#25061945956
1&
#25062445956
0&
#25132211437
1&
#25132711437
0&
#25201942048
1&
#25202442048
0&
#25269945005
1&
#25270445005
0&
#25340223128
1&
#25340723128
0&
#25409943730
1&
#25410443730
0&
#25480207170
1&
#25480707170
0&
#25549945452
1&
#25550445452
0&
#25620223617
1&
#25620723617
0&
#25689943365
1&
#25690443365
0&
#25760217509
1&
#25760717509
0&
#25829944903
1&
#25830444903
0&
#25900217081
1&
#25900717081
0&
#25969944608
1&
#25970444608
0&
#26037945806
1&
#26038445806
0&
#26108220588
1&
#26108720588
0&
#26177944582
1&
#26178444582
0&
#26248204260
1&
#26248704260
0&
#26317945291
1&
#26318445291
0&
#26388217102
1&
#26388717102
0&
#26457943771
1&
#26458443771
0&
#26528210395
1&
#26528710395
0&
#26597945118
1&
#26598445118
0&
#26668220220
1&
#26668720220
0&
#26737945310
1&
#26738445310
0&
#26805942438
1&
#26806442438
0&
#26876220215
1&
#26876720215
0&
#26945945722
1&
#26946445722
0&
#27016204445
1&
#27016704445
0&
#27085944964
1&
#27086444964
0&
#27156204283
1&
#27156704283
0&
#27225943719
1&
#27226443719
0&
#27296216334
1&
#27296716334
0&
#27365943449
1&
#27366443449
0&
#27436215464
1&
#27436715464
0&
#27505944270
1&
#27506444270
0&
#27573944306
1&
#27574444306
0&
#27645945384
1&
#27646445384
0&
#27717941590
1&
#27718441590
0&
#27797943793
1&
#27798443793
0&
#27888216476
1&
#27888716476
0&
#28004215405
1&
#28004715405
0&
#33672220170
1&
#33672720170
0&
#33788222320
1&
#33788722320
0&
#33877950031
1&
#33878450031
0&
#33957951046
1&
#33958451046
0&
#34029948899
1&
#34030448899
0&
#34101949314
1&
#34102449314
0&
#34169948754
1&
#34170448754
0&
#34240214594
1&
#34240714594
0&
#34309949188
1&
#34310449188
0&
#34380210222
1&
#34380710222
0&
#34449948825
1&
#34450448825
0&
#34520226778
1&
#34520726778
0&
#34589949736
1&
#34590449736
0&
#34660218635
1&
#34660718635
0&
#34729949168
1&
#34730449168
0&
#34800215942
1&
#34800715942
0&
#34869950666
1&
#34870450666
0&
#34937950037
1&
#34938450037
0&
#35008211857
1&
#35008711857
0&
#35077948898
1&
#35078448898
0&
#35148211439
1&
#35148711439
0&
#35217949421
1&
#35218449421
0&
#35288218675
1&
#35288718675
0&
#35357948828
1&
#35358448828
0&
#35428210348
1&
#35428710348
0&
#35497949485
1&
#35498449485
0&
#35568223126
1&
#35568723126
0&
#35636210171
1&
#35636710171
0&
#35705947587
1&
#35706447587
0&
#35776214844
1&
#35776714844
0&
#35845949802
1&
#35846449802
0&
#35916214735
1&
#35916714735
0&
#35985949355
1&
#35986449355
0&
#36056220196
1&
#36056720196
0&
#36125948991
1&
#36126448991
0&
#36196210144
1&
#36196710144
0&
#36265949327
1&
#36266449327
0&
#36336218951
1&
#36336718951
0&
#36404210238
1&
#36404710238
0&
#36473949887
1&
#36474449887
0&
#36544218686
1&
#36544718686
0&
#36613949348
1&
#36614449348
0&
#36684211410
1&
#36684711410
0&
#36753947747
1&
#36754447747
0&
#36824210175
1&
#36824710175
0&
#36893950745
1&
#36894450745
0&
#36964219507
1&
#36964719507
0&
#37033948348
1&
#37034448348
0&
#37101948514
1&
#37102448514
0&
#37172211359
1&
#37172711359
0&
#37241949346
1&
#37242449346
0&
#37312221353
1&
#37312721353
0&
#37381949394
1&
#37382449394
0&
#37452216160
1&
#37452716160
0&
#37521949251
1&
#37522449251
0&
#37592211442
1&
#37592711442
0&
#37661949412
1&
#37662449412
0&
#37732210136
1&
#37732710136
0&
#37801950748
1&
#37802450748
0&
#37869949014
1&
#37870449014
0&
#37940213655
1&
#37940713655
0&
#38009948784
1&
#38010448784
0&
#38080214854
1&
#38080714854
0&
#38149948878
1&
#38150448878
0&
#38220216206
1&
#38220716206
0&
#38289949410
1&
#38290449410
0&
#38360220647
1&
#38360720647
0&
#38429950650
1&
#38430450650
0&
#38500216216
1&
#38500716216
0&
#38569948794
1&
#38570448794
0&
#38637949385
1&
#38638449385
0&
#38708206089
1&
#38708706089
0&
#38777949330
1&
#38778449330
0&
#38848219429
1&
#38848719429
0&
#38917949145
1&
#38918449145
0&
#38988218619
1&
#38988718619
0&
#39057949289
1&
#39058449289
0&
#39128215938
1&
#39128715938
0&
#39197948396
1&
#39198448396
0&
#39268222374
1&
#39268722374
0&
#39337948932
1&
#39338448932
0&
#39405949719
1&
#39406449719
0&
#39476210747
1&
#39476710747
0&
#39545950092
1&
#39546450092
0&
#39616217046
1&
#39616717046
0&
#39685948249
1&
#39686448249
0&
#39756210178
1&
#39756710178
0&
#39825949419
1&
#39826449419
0&
#39896205630
1&
#39896705630
0&
#39965949067
1&
#39966449067
0&
#40036205629
1&
#40036705629
0&
#40105949753
1&
#40106449753
0&
#40173949336
1&
#40174449336
0&
#40245950748
1&
#40246450748
0&
#40317948768
1&
#40318448768
0&
#40397949995
1&
#40398449995
0&
#40488227018
1&
#40488727018
0&
#40604199235
1&
#40604699235
0&
#52313950081
1&
#52314450081
0&
#76942724934
0!
