misc_scripts/vcds/simulation5.vcd
$version Generated by Wokwi.com $end
$date Wed, 17 Jun 2026 20:45:35 GMT $end
$timescale 1ns $end
$scope module logic $end
$var wire 1 ! D0 $end
$var wire 1 " D1 $end
$var wire 1 # D2 $end
$var wire 1 $ D3 $end
$var wire 1 % D4 $end
$var wire 1 & D5 $end
$upscope $end
$enddefinitions $end
#0
0!
#0
1"
#0
1#
#0
1$
#0
0%
#0
0&
#2374466371
0"
#2375618071
0#
#2376639925
0$
#2381610358
1&
#2383652358
0&
#2385694358
1&
#2387138358
0&
#2388582358
1&
#2389761358
0&
#2390940358
1&
#2391961358
0&
#2392982358
1&
#2393895358
0&
#2394808358
1&
#2395641858
0&
#2396475358
1&
#2397246858
0&
#2398018358
1&
#2398740358
0&
#2399462358
1&
#2400142858
0&
#2400823358
1&
#2401468858
0&
#2402114358
1&
#2402729858
0&
#2403345358
1&
#2403934858
0&
#2404524358
1&
#2405090358
0&
#2405656358
1&
#2406202358
0&
#2406748358
1&
#2407275358
0&
#2407802358
1&
#2408312858
0&
#2408823358
1&
#2409318358
0&
#2409813358
1&
#2410281608
0&
#2410749858
1&
#2411218108
0&
#2411686358
1&
#2412131858
0&
#2412577358
1&
#2413022858
0&
#2413468358
1&
#2413894358
0&
#2414320358
1&
#2414746358
0&
#2415172358
1&
#2415580858
0&
#2415989358
1&
#2416397858
0&
#2416806358
1&
#2417199108
0&
#2417591858
1&
#2417984608
0&
#2418377358
1&
#2418756358
0&
#2419135358
1&
#2419514358
0&
#2419893358
1&
#2420259858
0&
#2420626358
1&
#2420992858
0&
#2421359358
1&
#2421714608
0&
#2422069858
1&
#2422425108
0&
#2422780358
1&
#2423125608
0&
#2423470858
1&
#2423816108
0&
#2424161358
1&
#2424496858
0&
#2424832358
1&
#2425167858
0&
#2425503358
1&
#2425830608
0&
#2426157858
1&
#2426485108
0&
#2426812358
1&
#2427127358
0&
#2427442358
1&
#2427757358
0&
#2428072358
1&
#2428387358
0&
#2428702358
1&
#2429006858
0&
#2429311358
1&
#2429615858
0&
#2429920358
1&
#2430224858
0&
#2430529358
1&
#2430824108
0&
#2431118858
1&
#2431413608
0&
#2431708358
1&
#2432003108
0&
#2432297858
1&
#2432583608
0&
#2432869358
1&
#2433155108
0&
#2433440858
1&
#2433726608
0&
#2434012358
1&
#2434290108
0&
#2434567858
1&
#2434845608
0&
#2435123358
1&
#2435401108
0&
#2435678858
1&
#2435949108
0&
#2436219358
1&
#2436489608
0&
#2436759858
1&
#2437030108
0&
#2437300358
1&
#2437563858
0&
#2437827358
1&
#2438090858
0&
#2438354358
1&
#2438617858
0&
#2438881358
1&
#2439138608
0&
#2439395858
1&
#2439653108
0&
#2439910358
1&
#2440167608
0&
#2440424858
1&
#2440676108
0&
#2440927358
1&
#2441178608
0&
#2441429858
1&
#2441681108
0&
#2441932358
1&
#2442178108
0&
#2442423858
1&
#2442669608
0&
#2442915358
1&
#2443161108
0&
#2443406858
1&
#2443645858
0&
#2443884858
1&
#2444123858
0&
#2444362858
1&
#2444601858
0&
#2444840858
1&
#2445079858
0&
#2445318858
1&
#2445551483
0&
#2445784108
1&
#2446016733
0&
#2446249358
1&
#2446481983
0&
#2446714608
1&
#2446947233
0&
#2447179858
1&
#2447406858
0&
#2447633858
1&
#2447860858
0&
#2448087858
1&
#2448314858
0&
#2448541858
1&
#2448768858
0&
#2448995858
1&
#2449217358
0&
#2449438858
1&
#2449660358
0&
#2449881858
1&
#2450103358
0&
#2450324858
1&
#2450546358
0&
#2450767858
1&
#2450984358
0&
#2451200858
1&
#2451417358
0&
#2451633858
1&
#2451850358
0&
#2452066858
1&
#2452283358
0&
#2452499858
1&
#2452711608
0&
#2452923358
1&
#2453135108
0&
#2453346858
1&
#2453558608
0&
#2453770358
1&
#2453982108
0&
#2454193858
1&
#2454401108
0&
#2454608358
1&
#2454815608
0&
#2455022858
1&
#2455230108
0&
#2455437358
1&
#2455644608
0&
#2455851858
1&
#2456054983
0&
#2456258108
1&
#2456461233
0&
#2456664358
1&
#2456867483
0&
#2457070608
1&
#2457273733
0&
#2457476858
1&
#2457676108
0&
#2457875358
1&
#2458074608
0&
#2458273858
1&
#2458473108
0&
#2458672358
1&
#2458871608
0&
#2459070858
1&
#2459265608
0&
#2459460358
1&
#2459655108
0&
#2459849858
1&
#2460044608
0&
#2460239358
1&
#2460434108
0&
#2460628858
1&
#2460823608
0&
#2461018358
1&
#2461208733
0&
#2461399108
1&
#2461589483
0&
#2461779858
1&
#2461970233
0&
#2462160608
1&
#2462350983
0&
#2462541358
1&
#2462731733
0&
#2462922108
1&
#2463108358
0&
#2463294608
1&
#2463480858
0&
#2463667108
1&
#2463853358
0&
#2464039608
1&
#2464225858
0&
#2464412108
1&
#2464598358
0&
#2464784608
1&
#2464967108
0&
#2465149608
1&
#2465332108
0&
#2465514608
1&
#2465697108
0&
#2465879608
1&
#2466062108
0&
#2466244608
1&
#2466427108
0&
#2466609608
1&
#2466788733
0&
#2466967858
1&
#2467146983
0&
#2467326108
1&
#2467505233
0&
#2467684358
1&
#2467863483
0&
#2468042608
1&
#2468221733
0&
#2468400858
1&
#2468576608
0&
#2468752358
1&
#2468928108
0&
#2469103858
1&
#2469279608
0&
#2469455358
1&
#2469631108
0&
#2469806858
1&
#2469982608
0&
#2470158358
1&
#2470330983
0&
#2470503608
1&
#2470676233
0&
#2470848858
1&
#2471021483
0&
#2471194108
1&
#2471366733
0&
#2471539358
1&
#2471711983
0&
#2471884608
1&
#2472054233
0&
#2472223858
1&
#2472393483
0&
#2472563108
1&
#2472732733
0&
#2472902358
1&
#2473071983
0&
#2473241608
1&
#2473411233
0&
#2473580858
1&
#2473747608
0&
#2473914358
1&
#2474081108
0&
#2474247858
1&
#2474414608
0&
#2474581358
1&
#2474748108
0&
#2474914858
1&
#2475081608
0&
#2475248358
1&
#2475412358
0&
#2475576358
1&
#2475740358
0&
#2475904358
1&
#2476068358
0&
#2476232358
1&
#2476396358
0&
#2476560358
1&
#2476724358
0&
#2476888358
1&
#2477049358
0&
#2477210358
1&
#2477371358
0&
#2477532358
1&
#2477693358
0&
#2477854358
1&
#2478015358
0&
#2478176358
1&
#2478337358
0&
#2478498358
1&
#2478659358
0&
#2478820358
1&
#2478978233
0&
#2479136108
1&
#2479293983
0&
#2479451858
1&
#2479609733
0&
#2479767608
1&
#2479925483
0&
#2480083358
1&
#2480241233
0&
#2480399108
1&
#2480556983
0&
#2480714858
1&
#2480869983
0&
#2481025108
1&
#2481180233
0&
#2481335358
1&
#2481490483
0&
#2481645608
1&
#2481800733
0&
#2481955858
1&
#2482110983
0&
#2482266108
1&
#2482421233
0&
#2482576358
1&
#2482728983
0&
#2482881608
1&
#2483034233
0&
#2483186858
1&
#2483339483
0&
#2483492108
1&
#2483644733
0&
#2483797358
1&
#2483949983
0&
#2484102608
1&
#2484255233
0&
#2484407858
1&
#2484557983
0&
#2484708108
1&
#2484858233
0&
#2485008358
1&
#2485158483
0&
#2485308608
1&
#2485458733
0&
#2485608858
1&
#2485758983
0&
#2485909108
1&
#2486059233
0&
#2486209358
1&
#2486357108
0&
#2486504858
1&
#2486652608
0&
#2486800358
1&
#2486948108
0&
#2487095858
1&
#2487243608
0&
#2487391358
1&
#2487539108
0&
#2487686858
1&
#2487834608
0&
#2487982358
1&
#2488127733
0&
#2488273108
1&
#2488418483
0&
#2488563858
1&
#2488709233
0&
#2488854608
1&
#2488999983
0&
#2489145358
1&
#2489290733
0&
#2489436108
1&
#2489581483
0&
#2489726858
1&
#2489870108
0&
#2490013358
1&
#2490156608
0&
#2490299858
1&
#2490443108
0&
#2490586358
1&
#2490729608
0&
#2490872858
1&
#2491016108
0&
#2491159358
1&
#2491302608
0&
#2491445858
1&
#2491587233
0&
#2491728608
1&
#2491869983
0&
#2492011358
1&
#2492152733
0&
#2492294108
1&
#2492435483
0&
#2492576858
1&
#2492718233
0&
#2492859608
1&
#2493000983
0&
#2493142358
1&
#2493281233
0&
#2493420108
1&
#2493558983
0&
#2493697858
1&
#2493836733
0&
#2493975608
1&
#2494114483
0&
#2494253358
1&
#2494392233
0&
#2494531108
1&
#2494669983
0&
#2494808858
1&
#2494947733
0&
#2495086608
1&
#2495223483
0&
#2495360358
1&
#2495497233
0&
#2495634108
1&
#2495770983
0&
#2495907858
1&
#2496044733
0&
#2496181608
1&
#2496318483
0&
#2496455358
1&
#2496592233
0&
#2496729108
1&
#2496865983
0&
#2497002858
1&
#2497137483
0&
#2497272108
1&
#2497406733
0&
#2497541358
1&
#2497675983
0&
#2497810608
1&
#2497945233
0&
#2498079858
1&
#2498214483
0&
#2498349108
1&
#2498483733
0&
#2498618358
1&
#2498752983
0&
#2498887608
1&
#2499020233
0&
#2499152858
1&
#2499285483
0&
#2499418108
1&
#2499550733
0&
#2499683358
1&
#2499815983
0&
#2499948608
1&
#2500081233
0&
#2500213858
1&
#2500346483
0&
#2500479108
1&
#2500611733
0&
#2500744358
1&
#2500874983
0&
#2501005608
1&
#2501136233
0&
#2501266858
1&
#2501397483
0&
#2501528108
1&
#2501658733
0&
#2501789358
1&
#2501919983
0&
#2502050608
1&
#2502181233
0&
#2502311858
1&
#2502442483
0&
#2502573108
1&
#2502701983
0&
#2502830858
1&
#2502959733
0&
#2503088608
1&
#2503217483
0&
#2503346358
1&
#2503475233
0&
#2503604108
1&
#2503732983
0&
#2503861858
1&
#2503990733
0&
#2504119608
1&
#2504248483
0&
#2504377358
1&
#2504504483
0&
#2504631608
1&
#2504758733
0&
#2504885858
1&
#2505012983
0&
#2505140108
1&
#2505267233
0&
#2505394358
1&
#2505521483
0&
#2505648608
1&
#2505775733
0&
#2505902858
1&
#2506029983
0&
#2506157108
1&
#2506282546
0&
#2506407983
1&
#2506533421
0&
#2506658858
1&
#2506784296
0&
#2506909733
1&
#2507035171
0&
#2507160608
1&
#2507286046
0&
#2507411483
1&
#2507536921
0&
#2507662358
1&
#2507787796
0&
#2507913233
1&
#2508036983
0&
#2508160733
1&
#2508284483
0&
#2508408233
1&
#2508531983
0&
#2508655733
1&
#2508779483
0&
#2508903233
1&
#2509026983
0&
#2509150733
1&
#2509274483
0&
#2509398233
1&
#2509521983
0&
#2509645733
1&
#2509767858
0&
#2509889983
1&
#2510012108
0&
#2510134233
1&
#2510256358
0&
#2510378483
1&
#2510500608
0&
#2510622733
1&
#2510744858
0&
#2510866983
1&
#2510989108
0&
#2511111233
1&
#2511233358
0&
#2511355483
1&
#2511477608
0&
#2511599733
1&
#2511719983
0&
#2511840233
1&
#2511960483
0&
#2512080733
1&
#2512200983
0&
#2512321233
1&
#2512441483
0&
#2512561733
1&
#2512681983
0&
#2512802233
1&
#2512922483
0&
#2513042733
1&
#2513162983
0&
#2513283233
1&
#2513403483
0&
#2513523733
1&
#2513642358
0&
#2513760983
1&
#2513879608
0&
#2513998233
1&
#2514116858
0&
#2514235483
1&
#2514354108
0&
#2514472733
1&
#2514591358
0&
#2514709983
1&
#2514828608
0&
#2514947233
1&
#2515065858
0&
#2515184483
1&
#2515303108
0&
#2515421733
1&
#2515538796
0&
#2515655858
1&
#2515772921
0&
#2515889983
1&
#2516007046
0&
#2516124108
1&
#2516241171
0&
#2516358233
1&
#2516475296
0&
#2516592358
1&
#2516709421
0&
#2516826483
1&
#2516943546
0&
#2517060608
1&
#2517177671
0&
#2517294733
1&
#2517410421
0&
#2517526108
1&
#2517641796
0&
#2517757483
1&
#2517873171
0&
#2517988858
1&
#2518104546
0&
#2518220233
1&
#2518335921
0&
#2518451608
1&
#2518567296
0&
#2518682983
1&
#2518798671
0&
#2518914358
1&
#2519030046
0&
#2519145733
1&
#2519259858
0&
#2519373983
1&
#2519488108
0&
#2519602233
1&
#2519716358
0&
#2519830483
1&
#2519944608
0&
#2520058733
1&
#2520172858
0&
#2520286983
1&
#2520401108
0&
#2520515233
1&
#2520629358
0&
#2520743483
1&
#2520857608
0&
#2520971733
1&
#2521084421
0&
#2521197108
1&
#2521309796
0&
#2521422483
1&
#2521535171
0&
#2521647858
1&
#2521760546
0&
#2521873233
1&
#2521985921
0&
#2522098608
1&
#2522211296
0&
#2522323983
1&
#2522436671
0&
#2522549358
1&
#2522662046
0&
#2522774733
1&
#2522886108
0&
#2522997483
1&
#2523108858
0&
#2523220233
1&
#2523331608
0&
#2523442983
1&
#2523554358
0&
#2523665733
1&
#2523777108
0&
#2523888483
1&
#2523999858
0&
#2524111233
1&
#2524222608
0&
#2524333983
1&
#2524445358
0&
#2524556733
1&
#2524666921
0&
#2524777108
1&
#2524887296
0&
#2524997483
1&
#2525107671
0&
#2525217858
1&
#2525328046
0&
#2525438233
1&
#2525548421
0&
#2525658608
1&
#2525768796
0&
#2525878983
1&
#2525989171
0&
#2526099358
1&
#2526209546
0&
#2526319733
1&
#2526428421
0&
#2526537108
1&
#2526645796
0&
#2526754483
1&
#2526863171
0&
#2526971858
1&
#2527080546
0&
#2527189233
1&
#2527297921
0&
#2527406608
1&
#2527515296
0&
#2527623983
1&
#2527732671
0&
#2527841358
1&
#2527950046
0&
#2528058733
1&
#2528167421
0&
#2528276108
1&
#2528383421
0&
#2528490733
1&
#2528598046
0&
#2528705358
1&
#2528812671
0&
#2528919983
1&
#2529027296
0&
#2529134608
1&
#2529241921
0&
#2529349233
1&
#2529456546
0&
#2529563858
1&
#2529671171
0&
#2529778483
1&
#2529885796
0&
#2529993108
1&
#2530100421
0&
#2530207733
1&
#2530313796
0&
#2530419858
1&
#2530525921
0&
#2530631983
1&
#2530738046
0&
#2530844108
1&
#2530950171
0&
#2531056233
1&
#2531162296
0&
#2531268358
1&
#2531374421
0&
#2531480483
1&
#2531586546
0&
#2531692608
1&
#2531798671
0&
#2531904733
1&
#2532010796
0&
#2532116858
1&
#2532221608
0&
#2532326358
1&
#2532431108
0&
#2532535858
1&
#2532640608
0&
#2532745358
1&
#2532850108
0&
#2532954858
1&
#2533059608
0&
#2533164358
1&
#2533269108
0&
#2533373858
1&
#2533478608
0&
#2533583358
1&
#2533688108
0&
#2533792858
1&
#2533897608
0&
#2534002358
1&
#2534105858
0&
#2534209358
1&
#2534312858
0&
#2534416358
1&
#2534519858
0&
#2534623358
1&
#2534726858
0&
#2534830358
1&
#2534933858
0&
#2535037358
1&
#2535140858
0&
#2535244358
1&
#2535347858
0&
#2535451358
1&
#2535554858
0&
#2535658358
1&
#2535761858
0&
#2535865358
1&
#2535967733
0&
#2536070108
1&
#2536172483
0&
#2536274858
1&
#2536377233
0&
#2536479608
1&
#2536581983
0&
#2536684358
1&
#2536786733
0&
#2536889108
1&
#2536991483
0&
#2537093858
1&
#2537196233
0&
#2537298608
1&
#2537400983
0&
#2537503358
1&
#2537605733
0&
#2537708108
1&
#2537809421
0&
#2537910733
1&
#2538012046
0&
#2538113358
1&
#2538214671
0&
#2538315983
1&
#2538417296
0&
#2538518608
1&
#2538619921
0&
#2538721233
1&
#2538822546
0&
#2538923858
1&
#2539025171
0&
#2539126483
1&
#2539227796
0&
#2539329108
1&
#2539430421
0&
#2539531733
1&
#2539631921
0&
#2539732108
1&
#2539832296
0&
#2539932483
1&
#2540032671
0&
#2540132858
1&
#2540233046
0&
#2540333233
1&
#2540433421
0&
#2540533608
1&
#2540633796
0&
#2540733983
1&
#2540834171
0&
#2540934358
1&
#2541034546
0&
#2541134733
1&
#2541234921
0&
#2541335108
1&
#2541434233
0&
#2541533358
1&
#2541632483
0&
#2541731608
1&
#2541830733
0&
#2541929858
1&
#2542028983
0&
#2542128108
1&
#2542227233
0&
#2542326358
1&
#2542425483
0&
#2542524608
1&
#2542623733
0&
#2542722858
1&
#2542821983
0&
#2542921108
1&
#2543020233
0&
#2543119358
1&
#2543217233
0&
#2543315108
1&
#2543412983
0&
#2543510858
1&
#2543608733
0&
#2543706608
1&
#2543804483
0&
#2543902358
1&
#2544000233
0&
#2544098108
1&
#2544195983
0&
#2544293858
1&
#2544391733
0&
#2544489608
1&
#2544587483
0&
#2544685358
1&
#2544783233
0&
#2544881108
1&
#2544978983
0&
#2545076858
1&
#2545173733
0&
#2545270608
1&
#2545367483
0&
#2545464358
1&
#2545561233
0&
#2545658108
1&
#2545754983
0&
#2545851858
1&
#2545948733
0&
#2546045608
1&
#2546142483
0&
#2546239358
1&
#2546336233
0&
#2546433108
1&
#2546529983
0&
#2546626858
1&
#2546723733
0&
#2546820608
1&
#2546917483
0&
#2547014358
1&
#2547110046
0&
#2547205733
1&
#2547301421
0&
#2547397108
1&
#2547492796
0&
#2547588483
1&
#2547684171
0&
#2547779858
1&
#2547875546
0&
#2547971233
1&
#2548066921
0&
#2548162608
1&
#2548258296
0&
#2548353983
1&
#2548449671
0&
#2548545358
1&
#2548641046
0&
#2548736733
1&
#2548832421
0&
#2548928108
1&
#2549022733
0&
#2549117358
1&
#2549211983
0&
#2549306608
1&
#2549401233
0&
#2549495858
1&
#2549590483
0&
#2549685108
1&
#2549779733
0&
#2549874358
1&
#2549968983
0&
#2550063608
1&
#2550158233
0&
#2550252858
1&
#2550347483
0&
#2550442108
1&
#2550536733
0&
#2550631358
1&
#2550725983
0&
#2550820608
1&
#2550914358
0&
#2551008108
1&
#2551101858
0&
#2551195608
1&
#2551289358
0&
#2551383108
1&
#2551476858
0&
#2551570608
1&
#2551664358
0&
#2551758108
1&
#2551851858
0&
#2551945608
1&
#2552039358
0&
#2552133108
1&
#2552226858
0&
#2552320608
1&
#2552414358
0&
#2552508108
1&
#2552601858
0&
#2552695608
1&
#2552788358
0&
#2552881108
1&
#2552973858
0&
#2553066608
1&
#2553159358
0&
#2553252108
1&
#2553344858
0&
#2553437608
1&
#2553530358
0&
#2553623108
1&
#2553715858
0&
#2553808608
1&
#2553901358
0&
#2553994108
1&
#2554086858
0&
#2554179608
1&
#2554272358
0&
#2554365108
1&
#2554457858
0&
#2554550608
1&
#2554642358
0&
#2554734108
1&
#2554825858
0&
#2554917608
1&
#2555009358
0&
#2555101108
1&
#2555192858
0&
#2555284608
1&
#2555376358
0&
#2555468108
1&
#2555559858
0&
#2555651608
1&
#2555743358
0&
#2555835108
1&
#2555926858
0&
#2556018608
1&
#2556110358
0&
#2556202108
1&
#2556293858
0&
#2556385608
1&
#2556476483
0&
#2556567358
1&
#2556658233
0&
#2556749108
1&
#2556839983
0&
#2556930858
1&
#2557021733
0&
#2557112608
1&
#2557203483
0&
#2557294358
1&
#2557385233
0&
#2557476108
1&
#2557566983
0&
#2557657858
1&
#2557748733
0&
#2557839608
1&
#2557930483
0&
#2558021358
1&
#2558112233
0&
#2558203108
1&
#2558292983
0&
#2558382858
1&
#2558472733
0&
#2558562608
1&
#2558652483
0&
#2558742358
1&
#2558832233
0&
#2558922108
1&
#2559011983
0&
#2559101858
1&
#2559191733
0&
#2559281608
1&
#2559371483
0&
#2559461358
1&
#2559551233
0&
#2559641108
1&
#2559730983
0&
#2559820858
1&
#2559910733
0&
#2560000608
1&
#2560090483
0&
#2560180358
1&
#2560269296
0&
#2560358233
1&
#2560447171
0&
#2560536108
1&
#2560625046
0&
#2560713983
1&
#2560802921
0&
#2560891858
1&
#2560980796
0&
#2561069733
1&
#2561158671
0&
#2561247608
1&
#2561336546
0&
#2561425483
1&
#2561514421
0&
#2561603358
1&
#2561692296
0&
#2561781233
1&
#2561870171
0&
#2561959108
1&
#2562048046
0&
#2562136983
1&
#2562225046
0&
#2562313108
1&
#2562401171
0&
#2562489233
1&
#2562577296
0&
#2562665358
1&
#2562753421
0&
#2562841483
1&
#2562929546
0&
#2563017608
1&
#2563105671
0&
#2563193733
1&
#2563281796
0&
#2563369858
1&
#2563457921
0&
#2563545983
1&
#2563634046
0&
#2563722108
1&
#2563810171
0&
#2563898233
1&
#2563986296
0&
#2564074358
1&
#2564161483
0&
#2564248608
1&
#2564335733
0&
#2564422858
1&
#2564509983
0&
#2564597108
1&
#2564684233
0&
#2564771358
1&
#2564858483
0&
#2564945608
1&
#2565032733
0&
#2565119858
1&
#2565206983
0&
#2565294108
1&
#2565381233
0&
#2565468358
1&
#2565555483
0&
#2565642608
1&
#2565729733
0&
#2565816858
1&
#2565903983
0&
#2565991108
1&
#2566077421
0&
#2566163733
1&
#2566250046
0&
#2566336358
1&
#2566422671
0&
#2566508983
1&
#2566595296
0&
#2566681608
1&
#2566767921
0&
#2566854233
1&
#2566940546
0&
#2567026858
1&
#2567113171
0&
#2567199483
1&
#2567285796
0&
#2567372108
1&
#2567458421
0&
#2567544733
1&
#2567631046
0&
#2567717358
1&
#2567803671
0&
#2567889983
1&
#2567975358
0&
#2568060733
1&
#2568146108
0&
#2568231483
1&
#2568316858
0&
#2568402233
1&
#2568487608
0&
#2568572983
1&
#2568658358
0&
#2568743733
1&
#2568829108
0&
#2568914483
1&
#2568999858
0&
#2569085233
1&
#2569170608
0&
#2569255983
1&
#2569341358
0&
#2569426733
1&
#2569512108
0&
#2569597483
1&
#2569682858
0&
#2569768233
1&
#2569852921
0&
#2569937608
1&
#2570022296
0&
#2570106983
1&
#2570191671
0&
#2570276358
1&
#2570361046
0&
#2570445733
1&
#2570530421
0&
#2570615108
1&
#2570699796
0&
#2570784483
1&
#2570869171
0&
#2570953858
1&
#2571038546
0&
#2571123233
1&
#2571207921
0&
#2571292608
1&
#2571377296
0&
#2571461983
1&
#2571546671
0&
#2571631358
1&
#2571715233
0&
#2571799108
1&
#2571882983
0&
#2571966858
1&
#2572050733
0&
#2572134608
1&
#2572218483
0&
#2572302358
1&
#2572386233
0&
#2572470108
1&
#2572553983
0&
#2572637858
1&
#2572721733
0&
#2572805608
1&
#2572889483
0&
#2572973358
1&
#2573057233
0&
#2573141108
1&
#2573224983
0&
#2573308858
1&
#2573392733
0&
#2573476608
1&
#2573559733
0&
#2573642858
1&
#2573725983
0&
#2573809108
1&
#2573892233
0&
#2573975358
1&
#2574058483
0&
#2574141608
1&
#2574224733
0&
#2574307858
1&
#2574390983
0&
#2574474108
1&
#2574557233
0&
#2574640358
1&
#2574723483
0&
#2574806608
1&
#2574889733
0&
#2574972858
1&
#2575055983
0&
#2575139108
1&
#2575222233
0&
#2575305358
1&
#2575387671
0&
#2575469983
1&
#2575552296
0&
#2575634608
1&
#2575716921
0&
#2575799233
1&
#2575881546
0&
#2575963858
1&
#2576046171
0&
#2576128483
1&
#2576210796
0&
#2576293108
1&
#2576375421
0&
#2576457733
1&
#2576540046
0&
#2576622358
1&
#2576704671
0&
#2576786983
1&
#2576869296
0&
#2576951608
1&
#2577033921
0&
#2577116233
1&
#2577198546
0&
#2577280858
1&
#2577362296
0&
#2577443733
1&
#2577525171
0&
#2577606608
1&
#2577688046
0&
#2577769483
1&
#2577850921
0&
#2577932358
1&
#2578013796
0&
#2578095233
1&
#2578176671
0&
#2578258108
1&
#2578339546
0&
#2578420983
1&
#2578502421
0&
#2578583858
1&
#2578665296
0&
#2578746733
1&
#2578828171
0&
#2578909608
1&
#2578991046
0&
#2579072483
1&
#2579153921
0&
#2579235358
1&
#2579316046
0&
#2579396733
1&
#2579477421
0&
#2579558108
1&
#2579638796
0&
#2579719483
1&
#2579800171
0&
#2579880858
1&
#2579961546
0&
#2580042233
1&
#2580122921
0&
#2580203608
1&
#2580284296
0&
#2580364983
1&
#2580445671
0&
#2580526358
1&
#2580607046
0&
#2580687733
1&
#2580768421
0&
#2580849108
1&
#2580929796
0&
#2581010483
1&
#2581091171
0&
#2581171858
1&
#2581251921
0&
#2581331983
1&
#2581412046
0&
#2581492108
1&
#2581572171
0&
#2581652233
1&
#2581732296
0&
#2581812358
1&
#2581892421
0&
#2581972483
1&
#2582052546
0&
#2582132608
1&
#2582212671
0&
#2582292733
1&
#2582372796
0&
#2582452858
1&
#2582532921
0&
#2582612983
1&
#2582693046
0&
#2582773108
1&
#2582853171
0&
#2582933233
1&
#2583013296
0&
#2583093358
1&
#2583172608
0&
#2583251858
1&
#2583331108
0&
#2583410358
1&
#2583489608
0&
#2583568858
1&
#2583648108
0&
#2583727358
1&
#2583806608
0&
#2583885858
1&
#2583965108
0&
#2584044358
1&
#2584123608
0&
#2584202858
1&
#2584282108
0&
#2584361358
1&
#2584440608
0&
#2584519858
1&
#2584599108
0&
#2584678358
1&
#2584757608
0&
#2584836858
1&
#2584916108
0&
#2584995358
1&
#2585073921
0&
#2585152483
1&
#2585231046
0&
#2585309608
1&
#2585388171
0&
#2585466733
1&
#2585545296
0&
#2585623858
1&
#2585702421
0&
#2585780983
1&
#2585859546
0&
#2585938108
1&
#2586016671
0&
#2586095233
1&
#2586173796
0&
#2586252358
1&
#2586330921
0&
#2586409483
1&
#2586488046
0&
#2586566608
1&
#2586645171
0&
#2586723733
1&
#2586802296
0&
#2586880858
1&
#2586958733
0&
#2587036608
1&
#2587114483
0&
#2587192358
1&
#2587270233
0&
#2587348108
1&
#2587425983
0&
#2587503858
1&
#2587581733
0&
#2587659608
1&
#2587737483
0&
#2587815358
1&
#2587893233
0&
#2587971108
1&
#2588048983
0&
#2588126858
1&
#2588204733
0&
#2588282608
1&
#2588360483
0&
#2588438358
1&
#2588516233
0&
#2588594108
1&
#2588671983
0&
#2588749858
1&
#2588826983
0&
#2588904108
1&
#2588981233
0&
#2589058358
1&
#2589135483
0&
#2589212608
1&
#2589289733
0&
#2589366858
1&
#2589443983
0&
#2589521108
1&
#2589598233
0&
#2589675358
1&
#2589752483
0&
#2589829608
1&
#2589906733
0&
#2589983858
1&
#2590060983
0&
#2590138108
1&
#2590215233
0&
#2590292358
1&
#2590369483
0&
#2590446608
1&
#2590523733
0&
#2590600858
1&
#2590677358
0&
#2590753858
1&
#2590830358
0&
#2590906858
1&
#2590983358
0&
#2591059858
1&
#2591136358
0&
#2591212858
1&
#2591289358
0&
#2591365858
1&
#2591442358
0&
#2591518858
1&
#2591595358
0&
#2591671858
1&
#2591748358
0&
#2591824858
1&
#2591901358
0&
#2591977858
1&
#2592054358
0&
#2592130858
1&
#2592207358
0&
#2592283858
1&
#2592360358
0&
#2592436858
1&
#2592512671
0&
#2592588483
1&
#2592664296
0&
#2592740108
1&
#2592815921
0&
#2592891733
1&
#2592967546
0&
#2593043358
1&
#2593119171
0&
#2593194983
1&
#2593270796
0&
#2593346608
1&
#2593422421
0&
#2593498233
1&
#2593574046
0&
#2593649858
1&
#2593725671
0&
#2593801483
1&
#2593877296
0&
#2593953108
1&
#2594028921
0&
#2594104733
1&
#2594180546
0&
#2594256358
1&
#2594332171
0&
#2594407983
1&
#2594483171
0&
#2594558358
1&
#2594633546
0&
#2594708733
1&
#2594783921
0&
#2594859108
1&
#2594934296
0&
#2595009483
1&
#2595084671
0&
#2595159858
1&
#2595235046
0&
#2595310233
1&
#2595385421
0&
#2595460608
1&
#2595535796
0&
#2595610983
1&
#2595686171
0&
#2595761358
1&
#2595836546
0&
#2595911733
1&
#2595986921
0&
#2596062108
1&
#2596137296
0&
#2596212483
1&
#2596287671
0&
#2596362858
1&
#2596437358
0&
#2596511858
1&
#2596586358
0&
#2596660858
1&
#2596735358
0&
#2596809858
1&
#2596884358
0&
#2596958858
1&
#2597033358
0&
#2597107858
1&
#2597182358
0&
#2597256858
1&
#2597331358
0&
#2597405858
1&
#2597480358
0&
#2597554858
1&
#2597629358
0&
#2597703858
1&
#2597778358
0&
#2597852858
1&
#2597927358
0&
#2598001858
1&
#2598076358
0&
#2598150858
1&
#2598225358
0&
#2598299858
1&
#2598373733
0&
#2598447608
1&
#2598521483
0&
#2598595358
1&
#2598669233
0&
#2598743108
1&
#2598816983
0&
#2598890858
1&
#2598964733
0&
#2599038608
1&
#2599112483
0&
#2599186358
1&
#2599260233
0&
#2599334108
1&
#2599407983
0&
#2599481858
1&
#2599555733
0&
#2599629608
1&
#2599703483
0&
#2599777358
1&
#2599851233
0&
#2599925108
1&
#2599998983
0&
#2600072858
1&
#2600146733
0&
#2600220608
1&
#2600293858
0&
#2600367108
1&
#2600440358
0&
#2600513608
1&
#2600586858
0&
#2600660108
1&
#2600733358
0&
#2600806608
1&
#2600879858
0&
#2600953108
1&
#2601026358
0&
#2601099608
1&
#2601172858
0&
#2601246108
1&
#2601319358
0&
#2601392608
1&
#2601465858
0&
#2601539108
1&
#2601612358
0&
#2601685608
1&
#2601758858
0&
#2601832108
1&
#2601905358
0&
#2601978608
1&
#2602051858
0&
#2602125108
1&
#2602197796
0&
#2602270483
1&
#2602343171
0&
#2602415858
1&
#2602488546
0&
#2602561233
1&
#2602633921
0&
#2602706608
1&
#2602779296
0&
#2602851983
1&
#2602924671
0&
#2602997358
1&
#2603070046
0&
#2603142733
1&
#2603215421
0&
#2603288108
1&
#2603360796
0&
#2603433483
1&
#2603506171
0&
#2603578858
1&
#2603651546
0&
#2603724233
1&
#2603796921
0&
#2603869608
1&
#2603942296
0&
#2604014983
1&
#2604087108
0&
#2604159233
1&
#2604231358
0&
#2604303483
1&
#2604375608
0&
#2604447733
1&
#2604519858
0&
#2604591983
1&
#2604664108
0&
#2604736233
1&
#2604808358
0&
#2604880483
1&
#2604952608
0&
#2605024733
1&
#2605096858
0&
#2605168983
1&
#2605241108
0&
#2605313233
1&
#2605385358
0&
#2605457483
1&
#2605529608
0&
#2605601733
1&
#2605673858
0&
#2605745983
1&
#2605818108
0&
#2605890233
1&
#2605961733
0&
#2606033233
1&
#2606104733
0&
#2606176233
1&
#2606247733
0&
#2606319233
1&
#2606390733
0&
#2606462233
1&
#2606533733
0&
#2606605233
1&
#2606676733
0&
#2606748233
1&
#2606819733
0&
#2606891233
1&
#2606962733
0&
#2607034233
1&
#2607105733
0&
#2607177233
1&
#2607248733
0&
#2607320233
1&
#2607391733
0&
#2607463233
1&
#2607534733
0&
#2607606233
1&
#2607677733
0&
#2607749233
1&
#2607820171
0&
#2607891108
1&
#2607962046
0&
#2608032983
1&
#2608103921
0&
